@000 f03
@001 f4f
@002 dfe
@003 e49
@004 e2c
@005 d17
@006 bff
@007 747
@008 0e4
@009 f0c
@00a fa2
@00b d81
@00c efa
@00d ef8
@00e d3b
@00f b37
@010 7b7
@011 0c8
@012 ff2
@013 fbc
@014 def
@015 ebe
@016 eeb
@017 d31
@018 b5e
@019 7d3
@01a 0cb
@01b f1c
@01c fe5
@01d db2
@01e ee1
@01f e1b
@020 d4f
@021 b2c
@022 7c9
@023 034
