@000 400005
@001 400005
@002 400005
@003 400005
@004 400005
@005 400005
@006 400005
@007 400005
@008 400005
@009 400005
@00a 400005
@00b 400005
@00c 400005
@00d 400005
@00e 400005
@00f 400005
@010 400005
@011 400005
@012 400005
@013 400005
@014 400005
@015 400005
@016 400005
@017 400005
@018 400005
@019 400005
@01a 400005
@01b 400005
@01c 400005
@01d 400005
@01e 400005
@01f 400005
@020 400005
@021 400005
@022 400005
@023 400005
@024 400005
@025 400005
@026 400005
@027 400005
@028 400005
@029 400005
@02a 400005
@02b 400005
@02c 400005
@02d 400005
@02e 400005
@02f 400005
@030 400005
@031 400005
@032 400005
@033 400005
@034 400005
@035 400005
@036 400005
@037 400005
@038 400005
@039 400005
@03a 400005
@03b 400005
@03c 400005
@03d 400005
@03e 400005
@03f 400005
@040 400005
@041 400005
@042 400005
@043 400005
@044 400005
@045 400005
@046 400005
@047 400005
@048 400005
@049 400005
@04a 400005
@04b 400005
@04c 400005
@04d 400005
@04e 400005
@04f 400005
@050 400005
@051 400005
@052 400005
@053 400005
@054 400005
@055 400005
@056 400005
@057 400005
@058 400005
@059 400005
@05a 400005
@05b 400005
@05c 400005
@05d 400005
@05e 400005
@05f 400005
@060 400005
@061 400005
@062 400005
@063 400005
@064 400005
@065 400005
@066 400005
@067 400005
@068 400005
@069 400005
@06a 400005
@06b 400005
@06c 400005
@06d 400005
@06e 400005
@06f 400005
@070 400005
@071 400005
@072 400005
@073 400005
@074 400005
@075 400005
@076 400005
@077 400005
@078 400005
@079 400005
@07a 400005
@07b 400005
@07c 400005
@07d 400005
@07e 400005
@07f 400005
@080 400005
@081 400005
@082 400005
@083 400005
@084 400005
@085 400005
@086 400005
@087 400005
@088 400005
@089 400005
@08a 400005
@08b 400005
@08c 400005
@08d 400005
@08e 400005
@08f 400005
@090 400005
@091 400005
@092 400005
@093 400005
@094 400005
@095 400005
@096 400005
@097 400005
@098 400005
@099 400005
@09a 400005
@09b 400005
@09c 400005
@09d 400005
@09e 400005
@09f 400005
@0a0 400005
@0a1 400005
@0a2 400005
@0a3 400005
@0a4 400005
@0a5 400005
@0a6 400005
@0a7 400005
@0a8 400005
@0a9 400005
@0aa 400005
@0ab 400005
@0ac 400005
@0ad 400005
@0ae 400005
@0af 400005
@0b0 400005
@0b1 400005
@0b2 400005
@0b3 400005
@0b4 400005
@0b5 400005
@0b6 400005
@0b7 400005
@0b8 400005
@0b9 400005
@0ba 400005
@0bb 400005
@0bc 400005
@0bd 400005
@0be 400005
@0bf 400005
@0c0 400005
@0c1 400005
@0c2 400005
@0c3 400005
@0c4 400005
@0c5 400005
@0c6 400005
@0c7 400005
@0c8 400005
@0c9 400005
@0ca 400005
@0cb 400005
@0cc 400005
@0cd 400005
@0ce 400005
@0cf 400005
@0d0 400005
@0d1 400005
@0d2 400005
@0d3 400005
@0d4 400005
@0d5 400005
@0d6 400005
@0d7 400005
@0d8 400005
@0d9 400005
@0da 400005
@0db 400005
@0dc 400005
@0dd 400005
@0de 400005
@0df 400005
@0e0 400005
@0e1 400005
@0e2 400005
@0e3 400005
@0e4 400005
@0e5 400005
@0e6 400005
@0e7 400005
@0e8 400005
@0e9 400005
@0ea 400005
@0eb 400005
@0ec 400005
@0ed 400005
@0ee 400005
@0ef 400005
@0f0 400005
@0f1 400005
@0f2 400005
@0f3 400005
@0f4 400005
@0f5 400005
@0f6 400005
@0f7 400005
@0f8 400005
@0f9 400005
@0fa 400005
@0fb 400005
@0fc 400005
@0fd 400005
@0fe 400005
@0ff 400005
@100 400005
@101 400005
@102 400005
@103 400005
@104 400005
@105 400005
@106 400005
@107 400005
@108 400005
@109 400005
@10a 400005
@10b 400005
@10c 400005
@10d 400005
@10e 400005
@10f 400005
@110 400005
@111 400005
@112 400005
@113 400005
@114 400005
@115 400005
@116 400005
@117 400005
@118 400005
@119 400005
@11a 400005
@11b 400005
@11c 400005
@11d 400005
@11e 400005
@11f 400005
@120 400005
@121 400005
@122 400005
@123 400005
@124 400005
@125 400005
@126 400005
@127 400005
@128 400005
@129 400005
@12a 400005
@12b 400005
@12c 400005
@12d 400005
@12e 400005
@12f 400005
@130 400005
@131 400005
@132 400005
@133 400005
@134 400005
@135 400005
@136 400005
@137 400005
@138 400005
@139 400005
@13a 400005
@13b 400005
@13c 400005
@13d 400005
@13e 400005
@13f 400005
@140 400005
@141 400005
@142 400005
@143 400005
@144 400005
@145 400005
@146 400005
@147 400005
@148 400005
@149 400005
@14a 400005
@14b 400005
@14c 400005
@14d 400005
@14e 400005
@14f 400005
@150 400005
@151 400005
@152 400005
@153 400005
@154 400005
@155 400005
@156 400005
@157 400005
@158 400005
@159 400005
@15a 400005
@15b 400005
@15c 400005
@15d 400005
@15e 400005
@15f 400005
@160 400005
@161 400005
@162 400005
@163 400005
@164 400005
@165 400005
@166 400005
@167 400005
@168 400005
@169 400005
@16a 400005
@16b 400005
@16c 400005
@16d 400005
@16e 400005
@16f 400005
@170 400005
@171 400005
@172 400005
@173 400005
@174 400005
@175 400005
@176 400005
@177 400005
@178 400005
@179 400005
@17a 400005
@17b 400005
@17c 400005
@17d 400005
@17e 400005
@17f 400005
@180 400005
@181 400005
@182 400005
@183 400005
@184 400005
@185 400005
@186 400005
@187 400005
@188 400005
@189 400005
@18a 400005
@18b 400005
@18c 400005
@18d 400005
@18e 400005
@18f 400005
@190 400005
@191 400005
@192 400005
@193 400005
@194 400005
@195 400005
@196 400005
@197 400005
@198 400005
@199 400005
@19a 400005
@19b 400005
@19c 400005
@19d 400005
@19e 400005
@19f 400005
@1a0 400005
@1a1 400005
@1a2 400005
@1a3 400005
@1a4 400005
@1a5 400005
@1a6 400005
@1a7 400005
@1a8 400005
@1a9 400005
@1aa 400005
@1ab 400005
@1ac 400005
@1ad 400005
@1ae 400005
@1af 400005
@1b0 400005
@1b1 400005
@1b2 400005
@1b3 400005
@1b4 400005
@1b5 400005
@1b6 400005
@1b7 400005
@1b8 400005
@1b9 400005
@1ba 400005
@1bb 400005
@1bc 400005
@1bd 400005
@1be 400005
@1bf 400005
@1c0 400005
@1c1 400005
@1c2 400005
@1c3 400005
@1c4 400005
@1c5 400005
@1c6 400005
@1c7 400005
@1c8 400005
@1c9 400005
@1ca 400005
@1cb 400005
@1cc 400005
@1cd 400005
@1ce 400005
@1cf 400005
@1d0 400005
@1d1 400005
@1d2 400005
@1d3 400005
@1d4 400005
@1d5 400005
@1d6 400005
@1d7 400005
@1d8 400005
@1d9 400005
@1da 400005
@1db 400005
@1dc 400005
@1dd 400005
@1de 400005
@1df 400005
@1e0 400005
@1e1 400005
@1e2 400005
@1e3 400005
@1e4 400005
@1e5 400005
@1e6 400005
@1e7 400005
@1e8 400005
@1e9 400005
@1ea 400005
@1eb 400005
@1ec 400005
@1ed 400005
@1ee 400005
@1ef 400005
@1f0 400005
@1f1 400005
@1f2 400005
@1f3 400005
@1f4 400005
@1f5 400005
@1f6 400005
@1f7 400005
@1f8 400005
@1f9 400005
@1fa 400005
@1fb 400005
@1fc 400005
@1fd 400005
@1fe 400005
@1ff 400005
@200 400005
@201 400005
@202 400005
@203 400005
@204 400005
@205 400005
@206 400005
@207 400005
@208 400005
@209 400005
@20a 400005
@20b 400005
@20c 400005
@20d 400005
@20e 400005
@20f 400005
@210 400005
@211 400005
@212 400005
@213 400005
@214 400005
@215 400005
@216 400005
@217 400005
@218 400005
@219 400005
@21a 400005
@21b 400005
@21c 400005
@21d 400005
@21e 400005
@21f 400005
@220 400005
@221 400005
@222 400005
@223 400005
@224 400005
@225 400005
@226 400005
@227 400005
@228 400005
@229 400005
@22a 400005
@22b 400005
@22c 400005
@22d 400005
@22e 400005
@22f 400005
@230 400005
@231 400005
@232 400005
@233 400005
@234 400005
@235 400005
@236 400005
@237 400005
@238 400005
@239 400005
@23a 400005
@23b 400005
@23c 400005
@23d 400005
@23e 400005
@23f 400005
@240 400005
@241 400005
@242 400005
@243 400005
@244 400005
@245 400005
@246 400005
@247 400005
@248 400005
@249 400005
@24a 400005
@24b 400005
@24c 400005
@24d 400005
@24e 400005
@24f 400005
@250 400005
@251 400005
@252 400005
@253 400005
@254 400005
@255 400005
@256 400005
@257 400005
@258 400005
@259 400005
@25a 400005
@25b 400005
@25c 400005
@25d 400005
@25e 400005
@25f 400005
@260 400005
@261 400005
@262 400005
@263 400005
@264 400005
@265 400005
@266 400005
@267 400005
@268 400005
@269 400005
@26a 400005
@26b 400005
@26c 400005
@26d 400005
@26e 400005
@26f 400005
@270 400005
@271 400005
@272 400005
@273 400005
@274 400005
@275 400005
@276 400005
@277 400005
@278 400005
@279 400005
@27a 400005
@27b 400005
@27c 400005
@27d 400005
@27e 400005
@27f 400005
@280 400005
@281 400005
@282 400005
@283 400005
@284 400005
@285 400005
@286 400005
@287 400005
@288 400005
@289 400005
@28a 400005
@28b 400005
@28c 400005
@28d 400005
@28e 400005
@28f 400005
@290 400005
@291 400005
@292 400005
@293 400005
@294 400005
@295 400005
@296 400005
@297 400005
@298 400005
@299 400005
@29a 400005
@29b 400005
@29c 400005
@29d 400005
@29e 400005
@29f 400005
@2a0 400005
@2a1 400005
@2a2 400005
@2a3 400005
@2a4 400005
@2a5 400005
@2a6 400005
@2a7 400005
@2a8 400005
@2a9 400005
@2aa 400005
@2ab 400005
@2ac 400005
@2ad 400005
@2ae 400005
@2af 400005
@2b0 400005
@2b1 400005
@2b2 400005
@2b3 400005
@2b4 400005
@2b5 400005
@2b6 400005
@2b7 400005
@2b8 400005
@2b9 400005
@2ba 400005
@2bb 400005
@2bc 400005
@2bd 400005
@2be 400005
@2bf 400005
@2c0 400005
@2c1 400005
@2c2 400005
@2c3 400005
@2c4 400005
@2c5 400005
@2c6 400005
@2c7 400005
@2c8 400005
@2c9 400005
@2ca 400005
@2cb 400005
@2cc 400005
@2cd 400005
@2ce 400005
@2cf 400005
@2d0 400005
@2d1 400005
@2d2 400005
@2d3 400005
@2d4 400005
@2d5 400005
@2d6 400005
@2d7 400005
@2d8 400005
@2d9 400005
@2da 400005
@2db 400005
@2dc 400005
@2dd 400005
@2de 400005
@2df 400005
@2e0 400005
@2e1 400005
@2e2 400005
@2e3 400005
@2e4 400005
@2e5 400005
@2e6 400005
@2e7 400005
@2e8 400005
@2e9 400005
@2ea 400005
@2eb 400005
@2ec 400005
@2ed 400005
@2ee 400005
@2ef 400005
@2f0 400005
@2f1 400005
@2f2 400005
@2f3 400005
@2f4 400005
@2f5 400005
@2f6 400005
@2f7 400005
@2f8 400005
@2f9 400005
@2fa 400005
@2fb 400005
@2fc 400005
@2fd 400005
@2fe 400005
@2ff 400005
@300 400005
@301 400005
@302 400005
@303 400005
@304 400005
@305 400005
@306 400005
@307 400005
@308 400005
@309 400005
@30a 400005
@30b 400005
@30c 400005
@30d 400005
@30e 400005
@30f 400005
@310 400005
@311 400005
@312 400005
@313 400005
@314 400005
@315 400005
@316 400005
@317 400005
@318 400005
@319 400005
@31a 400005
@31b 400005
@31c 400005
@31d 400005
@31e 400005
@31f 400005
@320 400005
@321 400005
@322 400005
@323 400005
@324 400005
@325 400005
@326 400005
@327 400005
@328 400005
@329 400005
@32a 400005
@32b 400005
@32c 400005
@32d 400005
@32e 400005
@32f 400005
@330 400005
@331 400005
@332 400005
@333 400005
@334 400005
@335 400005
@336 400005
@337 400005
@338 400005
@339 400005
@33a 400005
@33b 400005
@33c 400005
@33d 400005
@33e 400005
@33f 400005
@340 400005
@341 400005
@342 400005
@343 400005
@344 400005
@345 400005
@346 400005
@347 400005
@348 400005
@349 400005
@34a 400005
@34b 400005
@34c 400005
@34d 400005
@34e 400005
@34f 400005
@350 400005
@351 400005
@352 400005
@353 400005
@354 400005
@355 400005
@356 400005
@357 400005
@358 400005
@359 400005
@35a 400005
@35b 400005
@35c 400005
@35d 400005
@35e 400005
@35f 400005
@360 400005
@361 400005
@362 400005
@363 400005
@364 400005
@365 400005
@366 400005
@367 400005
@368 400005
@369 400005
@36a 400005
@36b 400005
@36c 400005
@36d 400005
@36e 400005
@36f 400005
@370 400005
@371 400005
@372 400005
@373 400005
@374 400005
@375 400005
@376 400005
@377 400005
@378 400005
@379 400005
@37a 400005
@37b 400005
@37c 400005
@37d 400005
@37e 400005
@37f 400005
@380 400005
@381 400005
@382 400005
@383 400005
@384 400005
@385 400005
@386 400005
@387 400005
@388 400005
@389 400005
@38a 400005
@38b 400005
@38c 400005
@38d 400005
@38e 400005
@38f 400005
@390 400005
@391 400005
@392 400005
@393 400005
@394 400005
@395 400005
@396 400005
@397 400005
@398 400005
@399 400005
@39a 400005
@39b 400005
@39c 400005
@39d 400005
@39e 400005
@39f 400005
@3a0 400005
@3a1 400005
@3a2 400005
@3a3 400005
@3a4 400005
@3a5 400005
@3a6 400005
@3a7 400005
@3a8 400005
@3a9 400005
@3aa 400005
@3ab 400005
@3ac 400005
@3ad 400005
@3ae 400005
@3af 400005
@3b0 400005
@3b1 400005
@3b2 400005
@3b3 400005
@3b4 400005
@3b5 400005
@3b6 400005
@3b7 400005
@3b8 400005
@3b9 400005
@3ba 400005
@3bb 400005
@3bc 400005
@3bd 400005
@3be 400005
@3bf 400005
@3c0 400005
@3c1 400005
@3c2 400005
@3c3 400005
@3c4 400005
@3c5 400005
@3c6 400005
@3c7 400005
@3c8 400005
@3c9 400005
@3ca 400005
@3cb 400005
@3cc 400005
@3cd 400005
@3ce 400005
@3cf 400005
@3d0 400005
@3d1 400005
@3d2 400005
@3d3 400005
@3d4 400005
@3d5 400005
@3d6 400005
@3d7 400005
@3d8 400005
@3d9 400005
@3da 400005
@3db 400005
@3dc 400005
@3dd 400005
@3de 400005
@3df 400005
@3e0 400005
@3e1 400005
@3e2 400005
@3e3 400005
@3e4 400005
@3e5 400005
@3e6 400005
@3e7 400005
@3e8 400005
@3e9 400005
@3ea 400005
@3eb 400005
@3ec 400005
@3ed 400005
@3ee 400005
@3ef 400005
@3f0 400005
@3f1 400005
@3f2 400005
@3f3 400005
@3f4 400005
@3f5 400005
@3f6 400005
@3f7 400005
@3f8 400005
@3f9 400005
@3fa 400005
@3fb 400005
@3fc 400005
@3fd 400005
@3fe 400005
@3ff 400005
