@000 7f1fff0d
@001 7f1fff25
@002 7f1fff3d
@003 7f1fff55
@004 7f3fff0d
@005 7f3fff24
@006 7f3fff3c
@007 7f3fff54
@008 7f1f060d
@009 7f1f0625
@00a 7f1f063d
@00b 7f1f0655
@00c 7f3f060d
@00d 7f3f0624
@00e 7f3f063c
@00f 7f3f0654
@010 7f00fd0d
@011 7f00fd25
@012 7f00fd3d
@013 7f00fd55
@014 7f20fd0d
@015 7f20fd24
@016 7f20fd3c
@017 7f20fd54
@018 7f00040d
@019 7f000425
@01a 7f00043d
@01b 7f000455
@01c 7f20040d
@01d 7f200424
@01e 7f20043c
@01f 7f200454
