@000 db6
@001 db6
@002 db6
@003 db6
@004 db6
@005 db6
@006 db6
@007 db6
@008 db6
@009 db6
@00a db6
@00b db6
@00c db6
@00d db6
@00e db6
@00f db6
@010 db6
@011 db6
@012 db6
@013 db6
@014 db6
@015 db6
@016 db6
@017 db6
@018 db6
@019 db6
@01a db6
@01b db6
@01c db6
@01d db6
@01e db6
@01f db6
@020 db6
@021 db6
@022 db6
@023 db6
@024 db6
@025 db6
@026 db6
@027 db6
@028 db6
@029 db6
@02a db6
@02b db6
@02c db6
@02d db6
@02e db6
@02f db6
@030 db6
@031 db6
@032 db6
@033 db6
@034 db6
@035 db6
@036 db6
@037 db6
@038 db6
@039 db6
@03a db6
@03b db6
@03c db6
@03d db6
@03e db6
@03f db6
@040 db6
@041 db6
@042 db6
@043 db6
@044 db6
@045 db6
@046 db6
@047 db6
@048 db6
@049 db6
@04a db6
@04b db6
@04c db6
@04d db6
@04e db6
@04f db6
@050 db6
@051 db6
@052 db6
@053 db6
@054 db6
@055 db6
@056 db6
@057 db6
@058 db6
@059 db6
@05a db6
@05b db6
@05c db6
@05d db6
@05e db6
@05f db6
@060 db6
@061 db6
@062 db6
@063 db6
@064 db6
@065 db6
@066 db6
@067 db6
@068 db6
@069 db6
@06a db6
@06b db6
@06c db6
@06d db6
@06e db6
@06f db6
@070 db6
@071 db6
@072 db6
@073 db6
@074 db6
@075 db6
@076 db6
@077 db6
@078 db6
@079 db6
@07a db6
@07b db6
@07c db6
@07d db6
@07e db6
@07f db6
@080 db6
@081 db6
@082 db6
@083 db6
@084 db6
@085 db6
@086 db6
@087 db6
@088 db6
@089 db6
@08a db6
@08b db6
@08c db6
@08d db6
@08e db6
@08f db6
@090 db6
@091 db6
@092 db6
@093 db6
@094 db6
@095 db6
@096 db6
@097 db6
@098 db6
@099 db6
@09a db6
@09b db6
@09c db6
@09d db6
@09e db6
@09f db6
@0a0 db6
@0a1 db6
@0a2 db6
@0a3 db6
@0a4 db6
@0a5 db6
@0a6 db6
@0a7 db6
@0a8 db6
@0a9 db6
@0aa db6
@0ab db6
@0ac db6
@0ad db6
@0ae db6
@0af db6
@0b0 db6
@0b1 db6
@0b2 db6
@0b3 db6
@0b4 db6
@0b5 db6
@0b6 db6
@0b7 db6
@0b8 db6
@0b9 db6
@0ba db6
@0bb db6
@0bc db6
@0bd db6
@0be db6
@0bf db6
@0c0 db6
@0c1 db6
@0c2 db6
@0c3 db6
@0c4 db6
@0c5 db6
@0c6 db6
@0c7 db6
@0c8 db6
@0c9 db6
@0ca db6
@0cb db6
@0cc db6
@0cd db6
@0ce db6
@0cf db6
@0d0 db6
@0d1 db6
@0d2 db6
@0d3 db6
@0d4 db6
@0d5 db6
@0d6 db6
@0d7 db6
@0d8 db6
@0d9 db6
@0da db6
@0db db6
@0dc db6
@0dd db6
@0de db6
@0df db6
@0e0 db6
@0e1 db6
@0e2 db6
@0e3 db6
@0e4 db6
@0e5 db6
@0e6 db6
@0e7 db6
@0e8 db6
@0e9 db6
@0ea db6
@0eb db6
@0ec db6
@0ed db6
@0ee db6
@0ef db6
@0f0 db6
@0f1 db6
@0f2 db6
@0f3 db6
@0f4 db6
@0f5 db6
@0f6 db6
@0f7 db6
@0f8 db6
@0f9 db6
@0fa db6
@0fb db6
@0fc db6
@0fd db6
@0fe db6
@0ff db6
