@000 000000
@001 000000
@002 000020
@003 000020
@004 001020
@005 001020
@006 002020
@007 002020
@008 003020
@009 003020
@00a 004020
@00b 004020
@00c 005020
@00d 005020
@00e 006020
@00f 006020
@010 007020
@011 007020
@012 008020
@013 008020
@014 009020
@015 009020
@016 00a020
@017 00a020
@018 00b020
@019 00b020
@01a 00c020
@01b 00c020
@01c 00d020
@01d 00d020
@01e 00e020
@01f 00e020
@020 000000
@021 000000
@022 000020
@023 000020
@024 001020
@025 001020
@026 002020
@027 002020
@028 003020
@029 003020
@02a 004020
@02b 004020
@02c 005020
@02d 005020
@02e 006020
@02f 006020
@030 007020
@031 007020
@032 008020
@033 008020
@034 009020
@035 009020
@036 00a020
@037 00a020
@038 00b020
@039 00b020
@03a 00c020
@03b 00c020
@03c 00d020
@03d 00d020
@03e 00e020
@03f 00e020
@040 000040
@041 000040
@042 000060
@043 000060
@044 001060
@045 001060
@046 002060
@047 002060
@048 003060
@049 003060
@04a 004060
@04b 004060
@04c 005060
@04d 005060
@04e 006060
@04f 006060
@050 007060
@051 007060
@052 008060
@053 008060
@054 009060
@055 009060
@056 00a060
@057 00a060
@058 00b060
@059 00b060
@05a 00c060
@05b 00c060
@05c 00d060
@05d 00d060
@05e 00e060
@05f 00e060
@060 000040
@061 000040
@062 000060
@063 000060
@064 001060
@065 001060
@066 002060
@067 002060
@068 003060
@069 003060
@06a 004060
@06b 004060
@06c 005060
@06d 005060
@06e 006060
@06f 006060
@070 007060
@071 007060
@072 008060
@073 008060
@074 009060
@075 009060
@076 00a060
@077 00a060
@078 00b060
@079 00b060
@07a 00c060
@07b 00c060
@07c 00d060
@07d 00d060
@07e 00e060
@07f 00e060
@080 020040
@081 020040
@082 020060
@083 020060
@084 021060
@085 021060
@086 022060
@087 022060
@088 023060
@089 023060
@08a 024060
@08b 024060
@08c 025060
@08d 025060
@08e 026060
@08f 026060
@090 027060
@091 027060
@092 028060
@093 028060
@094 029060
@095 029060
@096 02a060
@097 02a060
@098 02b060
@099 02b060
@09a 02c060
@09b 02c060
@09c 02d060
@09d 02d060
@09e 02e060
@09f 02e060
@0a0 020040
@0a1 020040
@0a2 020060
@0a3 020060
@0a4 021060
@0a5 021060
@0a6 022060
@0a7 022060
@0a8 023060
@0a9 023060
@0aa 024060
@0ab 024060
@0ac 025060
@0ad 025060
@0ae 026060
@0af 026060
@0b0 027060
@0b1 027060
@0b2 028060
@0b3 028060
@0b4 029060
@0b5 029060
@0b6 02a060
@0b7 02a060
@0b8 02b060
@0b9 02b060
@0ba 02c060
@0bb 02c060
@0bc 02d060
@0bd 02d060
@0be 02e060
@0bf 02e060
@0c0 040040
@0c1 040040
@0c2 040060
@0c3 040060
@0c4 041060
@0c5 041060
@0c6 042060
@0c7 042060
@0c8 043060
@0c9 043060
@0ca 044060
@0cb 044060
@0cc 045060
@0cd 045060
@0ce 046060
@0cf 046060
@0d0 047060
@0d1 047060
@0d2 048060
@0d3 048060
@0d4 049060
@0d5 049060
@0d6 04a060
@0d7 04a060
@0d8 04b060
@0d9 04b060
@0da 04c060
@0db 04c060
@0dc 04d060
@0dd 04d060
@0de 04e060
@0df 04e060
@0e0 040040
@0e1 040040
@0e2 040060
@0e3 040060
@0e4 041060
@0e5 041060
@0e6 042060
@0e7 042060
@0e8 043060
@0e9 043060
@0ea 044060
@0eb 044060
@0ec 045060
@0ed 045060
@0ee 046060
@0ef 046060
@0f0 047060
@0f1 047060
@0f2 048060
@0f3 048060
@0f4 049060
@0f5 049060
@0f6 04a060
@0f7 04a060
@0f8 04b060
@0f9 04b060
@0fa 04c060
@0fb 04c060
@0fc 04d060
@0fd 04d060
@0fe 04e060
@0ff 04e060
@100 060040
@101 060040
@102 060060
@103 060060
@104 061060
@105 061060
@106 062060
@107 062060
@108 063060
@109 063060
@10a 064060
@10b 064060
@10c 065060
@10d 065060
@10e 066060
@10f 066060
@110 067060
@111 067060
@112 068060
@113 068060
@114 069060
@115 069060
@116 06a060
@117 06a060
@118 06b060
@119 06b060
@11a 06c060
@11b 06c060
@11c 06d060
@11d 06d060
@11e 06e060
@11f 06e060
@120 060040
@121 060040
@122 060060
@123 060060
@124 061060
@125 061060
@126 062060
@127 062060
@128 063060
@129 063060
@12a 064060
@12b 064060
@12c 065060
@12d 065060
@12e 066060
@12f 066060
@130 067060
@131 067060
@132 068060
@133 068060
@134 069060
@135 069060
@136 06a060
@137 06a060
@138 06b060
@139 06b060
@13a 06c060
@13b 06c060
@13c 06d060
@13d 06d060
@13e 06e060
@13f 06e060
@140 080040
@141 080040
@142 080060
@143 080060
@144 081060
@145 081060
@146 082060
@147 082060
@148 083060
@149 083060
@14a 084060
@14b 084060
@14c 085060
@14d 085060
@14e 086060
@14f 086060
@150 087060
@151 087060
@152 088060
@153 088060
@154 089060
@155 089060
@156 08a060
@157 08a060
@158 08b060
@159 08b060
@15a 08c060
@15b 08c060
@15c 08d060
@15d 08d060
@15e 08e060
@15f 08e060
@160 080040
@161 080040
@162 080060
@163 080060
@164 081060
@165 081060
@166 082060
@167 082060
@168 083060
@169 083060
@16a 084060
@16b 084060
@16c 085060
@16d 085060
@16e 086060
@16f 086060
@170 087060
@171 087060
@172 088060
@173 088060
@174 089060
@175 089060
@176 08a060
@177 08a060
@178 08b060
@179 08b060
@17a 08c060
@17b 08c060
@17c 08d060
@17d 08d060
@17e 08e060
@17f 08e060
@180 0a0040
@181 0a0040
@182 0a0060
@183 0a0060
@184 0a1060
@185 0a1060
@186 0a2060
@187 0a2060
@188 0a3060
@189 0a3060
@18a 0a4060
@18b 0a4060
@18c 0a5060
@18d 0a5060
@18e 0a6060
@18f 0a6060
@190 0a7060
@191 0a7060
@192 0a8060
@193 0a8060
@194 0a9060
@195 0a9060
@196 0aa060
@197 0aa060
@198 0ab060
@199 0ab060
@19a 0ac060
@19b 0ac060
@19c 0ad060
@19d 0ad060
@19e 0ae060
@19f 0ae060
@1a0 0a0040
@1a1 0a0040
@1a2 0a0060
@1a3 0a0060
@1a4 0a1060
@1a5 0a1060
@1a6 0a2060
@1a7 0a2060
@1a8 0a3060
@1a9 0a3060
@1aa 0a4060
@1ab 0a4060
@1ac 0a5060
@1ad 0a5060
@1ae 0a6060
@1af 0a6060
@1b0 0a7060
@1b1 0a7060
@1b2 0a8060
@1b3 0a8060
@1b4 0a9060
@1b5 0a9060
@1b6 0aa060
@1b7 0aa060
@1b8 0ab060
@1b9 0ab060
@1ba 0ac060
@1bb 0ac060
@1bc 0ad060
@1bd 0ad060
@1be 0ae060
@1bf 0ae060
@1c0 0c0040
@1c1 0c0040
@1c2 0c0060
@1c3 0c0060
@1c4 0c1060
@1c5 0c1060
@1c6 0c2060
@1c7 0c2060
@1c8 0c3060
@1c9 0c3060
@1ca 0c4060
@1cb 0c4060
@1cc 0c5060
@1cd 0c5060
@1ce 0c6060
@1cf 0c6060
@1d0 0c7060
@1d1 0c7060
@1d2 0c8060
@1d3 0c8060
@1d4 0c9060
@1d5 0c9060
@1d6 0ca060
@1d7 0ca060
@1d8 0cb060
@1d9 0cb060
@1da 0cc060
@1db 0cc060
@1dc 0cd060
@1dd 0cd060
@1de 0ce060
@1df 0ce060
@1e0 0c0040
@1e1 0c0040
@1e2 0c0060
@1e3 0c0060
@1e4 0c1060
@1e5 0c1060
@1e6 0c2060
@1e7 0c2060
@1e8 0c3060
@1e9 0c3060
@1ea 0c4060
@1eb 0c4060
@1ec 0c5060
@1ed 0c5060
@1ee 0c6060
@1ef 0c6060
@1f0 0c7060
@1f1 0c7060
@1f2 0c8060
@1f3 0c8060
@1f4 0c9060
@1f5 0c9060
@1f6 0ca060
@1f7 0ca060
@1f8 0cb060
@1f9 0cb060
@1fa 0cc060
@1fb 0cc060
@1fc 0cd060
@1fd 0cd060
@1fe 0ce060
@1ff 0ce060
@200 0e0040
@201 0e0040
@202 0e0060
@203 0e0060
@204 0e1060
@205 0e1060
@206 0e2060
@207 0e2060
@208 0e3060
@209 0e3060
@20a 0e4060
@20b 0e4060
@20c 0e5060
@20d 0e5060
@20e 0e6060
@20f 0e6060
@210 0e7060
@211 0e7060
@212 0e8060
@213 0e8060
@214 0e9060
@215 0e9060
@216 0ea060
@217 0ea060
@218 0eb060
@219 0eb060
@21a 0ec060
@21b 0ec060
@21c 0ed060
@21d 0ed060
@21e 0ee060
@21f 0ee060
@220 0e0040
@221 0e0040
@222 0e0060
@223 0e0060
@224 0e1060
@225 0e1060
@226 0e2060
@227 0e2060
@228 0e3060
@229 0e3060
@22a 0e4060
@22b 0e4060
@22c 0e5060
@22d 0e5060
@22e 0e6060
@22f 0e6060
@230 0e7060
@231 0e7060
@232 0e8060
@233 0e8060
@234 0e9060
@235 0e9060
@236 0ea060
@237 0ea060
@238 0eb060
@239 0eb060
@23a 0ec060
@23b 0ec060
@23c 0ed060
@23d 0ed060
@23e 0ee060
@23f 0ee060
@240 100040
@241 100040
@242 100060
@243 100060
@244 101060
@245 101060
@246 102060
@247 102060
@248 103060
@249 103060
@24a 104060
@24b 104060
@24c 105060
@24d 105060
@24e 106060
@24f 106060
@250 107060
@251 107060
@252 108060
@253 108060
@254 109060
@255 109060
@256 10a060
@257 10a060
@258 10b060
@259 10b060
@25a 10c060
@25b 10c060
@25c 10d060
@25d 10d060
@25e 10e060
@25f 10e060
@260 100040
@261 100040
@262 100060
@263 100060
@264 101060
@265 101060
@266 102060
@267 102060
@268 103060
@269 103060
@26a 104060
@26b 104060
@26c 105060
@26d 105060
@26e 106060
@26f 106060
@270 107060
@271 107060
@272 108060
@273 108060
@274 109060
@275 109060
@276 10a060
@277 10a060
@278 10b060
@279 10b060
@27a 10c060
@27b 10c060
@27c 10d060
@27d 10d060
@27e 10e060
@27f 10e060
@280 120040
@281 120040
@282 120060
@283 120060
@284 121060
@285 121060
@286 122060
@287 122060
@288 123060
@289 123060
@28a 124060
@28b 124060
@28c 125060
@28d 125060
@28e 126060
@28f 126060
@290 127060
@291 127060
@292 128060
@293 128060
@294 129060
@295 129060
@296 12a060
@297 12a060
@298 12b060
@299 12b060
@29a 12c060
@29b 12c060
@29c 12d060
@29d 12d060
@29e 12e060
@29f 12e060
@2a0 120040
@2a1 120040
@2a2 120060
@2a3 120060
@2a4 121060
@2a5 121060
@2a6 122060
@2a7 122060
@2a8 123060
@2a9 123060
@2aa 124060
@2ab 124060
@2ac 125060
@2ad 125060
@2ae 126060
@2af 126060
@2b0 127060
@2b1 127060
@2b2 128060
@2b3 128060
@2b4 129060
@2b5 129060
@2b6 12a060
@2b7 12a060
@2b8 12b060
@2b9 12b060
@2ba 12c060
@2bb 12c060
@2bc 12d060
@2bd 12d060
@2be 12e060
@2bf 12e060
@2c0 140040
@2c1 140040
@2c2 140060
@2c3 140060
@2c4 141060
@2c5 141060
@2c6 142060
@2c7 142060
@2c8 143060
@2c9 143060
@2ca 144060
@2cb 144060
@2cc 145060
@2cd 145060
@2ce 146060
@2cf 146060
@2d0 147060
@2d1 147060
@2d2 148060
@2d3 148060
@2d4 149060
@2d5 149060
@2d6 14a060
@2d7 14a060
@2d8 14b060
@2d9 14b060
@2da 14c060
@2db 14c060
@2dc 14d060
@2dd 14d060
@2de 14e060
@2df 14e060
@2e0 140040
@2e1 140040
@2e2 140060
@2e3 140060
@2e4 141060
@2e5 141060
@2e6 142060
@2e7 142060
@2e8 143060
@2e9 143060
@2ea 144060
@2eb 144060
@2ec 145060
@2ed 145060
@2ee 146060
@2ef 146060
@2f0 147060
@2f1 147060
@2f2 148060
@2f3 148060
@2f4 149060
@2f5 149060
@2f6 14a060
@2f7 14a060
@2f8 14b060
@2f9 14b060
@2fa 14c060
@2fb 14c060
@2fc 14d060
@2fd 14d060
@2fe 14e060
@2ff 14e060
@300 160040
@301 160040
@302 160060
@303 160060
@304 161060
@305 161060
@306 162060
@307 162060
@308 163060
@309 163060
@30a 164060
@30b 164060
@30c 165060
@30d 165060
@30e 166060
@30f 166060
@310 167060
@311 167060
@312 168060
@313 168060
@314 169060
@315 169060
@316 16a060
@317 16a060
@318 16b060
@319 16b060
@31a 16c060
@31b 16c060
@31c 16d060
@31d 16d060
@31e 16e060
@31f 16e060
@320 160040
@321 160040
@322 160060
@323 160060
@324 161060
@325 161060
@326 162060
@327 162060
@328 163060
@329 163060
@32a 164060
@32b 164060
@32c 165060
@32d 165060
@32e 166060
@32f 166060
@330 167060
@331 167060
@332 168060
@333 168060
@334 169060
@335 169060
@336 16a060
@337 16a060
@338 16b060
@339 16b060
@33a 16c060
@33b 16c060
@33c 16d060
@33d 16d060
@33e 16e060
@33f 16e060
@340 180040
@341 180040
@342 180060
@343 180060
@344 181060
@345 181060
@346 182060
@347 182060
@348 183060
@349 183060
@34a 184060
@34b 184060
@34c 185060
@34d 185060
@34e 186060
@34f 186060
@350 187060
@351 187060
@352 188060
@353 188060
@354 189060
@355 189060
@356 18a060
@357 18a060
@358 18b060
@359 18b060
@35a 18c060
@35b 18c060
@35c 18d060
@35d 18d060
@35e 18e060
@35f 18e060
@360 180040
@361 180040
@362 180060
@363 180060
@364 181060
@365 181060
@366 182060
@367 182060
@368 183060
@369 183060
@36a 184060
@36b 184060
@36c 185060
@36d 185060
@36e 186060
@36f 186060
@370 187060
@371 187060
@372 188060
@373 188060
@374 189060
@375 189060
@376 18a060
@377 18a060
@378 18b060
@379 18b060
@37a 18c060
@37b 18c060
@37c 18d060
@37d 18d060
@37e 18e060
@37f 18e060
@380 1a0040
@381 1a0040
@382 1a0060
@383 1a0060
@384 1a1060
@385 1a1060
@386 1a2060
@387 1a2060
@388 1a3060
@389 1a3060
@38a 1a4060
@38b 1a4060
@38c 1a5060
@38d 1a5060
@38e 1a6060
@38f 1a6060
@390 1a7060
@391 1a7060
@392 1a8060
@393 1a8060
@394 1a9060
@395 1a9060
@396 1aa060
@397 1aa060
@398 1ab060
@399 1ab060
@39a 1ac060
@39b 1ac060
@39c 1ad060
@39d 1ad060
@39e 1ae060
@39f 1ae060
@3a0 1a0040
@3a1 1a0040
@3a2 1a0060
@3a3 1a0060
@3a4 1a1060
@3a5 1a1060
@3a6 1a2060
@3a7 1a2060
@3a8 1a3060
@3a9 1a3060
@3aa 1a4060
@3ab 1a4060
@3ac 1a5060
@3ad 1a5060
@3ae 1a6060
@3af 1a6060
@3b0 1a7060
@3b1 1a7060
@3b2 1a8060
@3b3 1a8060
@3b4 1a9060
@3b5 1a9060
@3b6 1aa060
@3b7 1aa060
@3b8 1ab060
@3b9 1ab060
@3ba 1ac060
@3bb 1ac060
@3bc 1ad060
@3bd 1ad060
@3be 1ae060
@3bf 1ae060
@3c0 1c0040
@3c1 1c0040
@3c2 1c0060
@3c3 1c0060
@3c4 1c1060
@3c5 1c1060
@3c6 1c2060
@3c7 1c2060
@3c8 1c3060
@3c9 1c3060
@3ca 1c4060
@3cb 1c4060
@3cc 1c5060
@3cd 1c5060
@3ce 1c6060
@3cf 1c6060
@3d0 1c7060
@3d1 1c7060
@3d2 1c8060
@3d3 1c8060
@3d4 1c9060
@3d5 1c9060
@3d6 1ca060
@3d7 1ca060
@3d8 1cb060
@3d9 1cb060
@3da 1cc060
@3db 1cc060
@3dc 1cd060
@3dd 1cd060
@3de 1ce060
@3df 1ce060
@3e0 1c0040
@3e1 1c0040
@3e2 1c0060
@3e3 1c0060
@3e4 1c1060
@3e5 1c1060
@3e6 1c2060
@3e7 1c2060
@3e8 1c3060
@3e9 1c3060
@3ea 1c4060
@3eb 1c4060
@3ec 1c5060
@3ed 1c5060
@3ee 1c6060
@3ef 1c6060
@3f0 1c7060
@3f1 1c7060
@3f2 1c8060
@3f3 1c8060
@3f4 1c9060
@3f5 1c9060
@3f6 1ca060
@3f7 1ca060
@3f8 1cb060
@3f9 1cb060
@3fa 1cc060
@3fb 1cc060
@3fc 1cd060
@3fd 1cd060
@3fe 1ce060
@3ff 1ce060
