@000 000026
@001 000026
@002 000026
@003 000026
@004 000026
@005 000026
@006 000026
@007 000026
@008 000026
@009 000026
@00a 000026
@00b 000026
@00c 000026
@00d 000026
@00e 000026
@00f 000026
@010 000026
@011 000026
@012 000026
@013 000026
@014 000026
@015 000026
@016 000026
@017 000026
@018 000026
@019 000026
@01a 000026
@01b 000026
@01c 000026
@01d 000026
@01e 000026
@01f 000026
@020 000026
@021 000026
@022 000026
@023 000026
@024 000026
@025 000026
@026 000026
@027 000026
@028 000026
@029 000026
@02a 000026
@02b 000026
@02c 000026
@02d 000026
@02e 000026
@02f 000026
@030 000026
@031 000026
@032 000026
@033 000026
@034 000026
@035 000026
@036 000026
@037 000026
@038 000026
@039 000026
@03a 000026
@03b 000026
@03c 000026
@03d 000026
@03e 000026
@03f 000026
@040 000026
@041 000026
@042 000026
@043 000026
@044 000026
@045 000026
@046 000026
@047 000026
@048 000026
@049 000026
@04a 000026
@04b 000026
@04c 000026
@04d 000026
@04e 000026
@04f 000026
@050 000026
@051 000026
@052 000026
@053 000026
@054 000026
@055 000026
@056 000026
@057 000026
@058 000026
@059 000026
@05a 000026
@05b 000026
@05c 000026
@05d 000026
@05e 000026
@05f 000026
@060 000026
@061 000026
@062 000026
@063 000026
@064 000026
@065 000026
@066 000026
@067 000026
@068 000026
@069 000026
@06a 000026
@06b 000026
@06c 000026
@06d 000026
@06e 000026
@06f 000026
@070 000026
@071 000026
@072 000026
@073 000026
@074 000026
@075 000026
@076 000026
@077 000026
@078 000026
@079 000026
@07a 000026
@07b 000026
@07c 000026
@07d 000026
@07e 000026
@07f 000026
@080 000026
@081 000026
@082 000026
@083 000026
@084 000026
@085 000026
@086 000026
@087 000026
@088 000026
@089 000026
@08a 000026
@08b 000026
@08c 000026
@08d 000026
@08e 000026
@08f 000026
@090 000026
@091 000026
@092 000026
@093 000026
@094 000026
@095 000026
@096 000026
@097 000026
@098 000026
@099 000026
@09a 000026
@09b 000026
@09c 000026
@09d 000026
@09e 000026
@09f 000026
@0a0 000026
@0a1 000026
@0a2 000026
@0a3 000026
@0a4 000026
@0a5 000026
@0a6 000026
@0a7 000026
@0a8 000026
@0a9 000026
@0aa 000026
@0ab 000026
@0ac 000026
@0ad 000026
@0ae 000026
@0af 000026
@0b0 000026
@0b1 000026
@0b2 000026
@0b3 000026
@0b4 000026
@0b5 000026
@0b6 000026
@0b7 000026
@0b8 000026
@0b9 000026
@0ba 000026
@0bb 000026
@0bc 000026
@0bd 000026
@0be 000026
@0bf 000026
@0c0 000026
@0c1 000026
@0c2 000026
@0c3 000026
@0c4 000026
@0c5 000026
@0c6 000026
@0c7 000026
@0c8 000026
@0c9 000026
@0ca 000026
@0cb 000026
@0cc 000026
@0cd 000026
@0ce 000026
@0cf 000026
@0d0 000026
@0d1 000026
@0d2 000026
@0d3 000026
@0d4 000026
@0d5 000026
@0d6 000026
@0d7 000026
@0d8 000026
@0d9 000026
@0da 000026
@0db 000026
@0dc 000026
@0dd 000026
@0de 000026
@0df 000026
@0e0 000026
@0e1 000026
@0e2 000026
@0e3 000026
@0e4 000026
@0e5 000026
@0e6 000026
@0e7 000026
@0e8 000026
@0e9 000026
@0ea 000026
@0eb 000026
@0ec 000026
@0ed 000026
@0ee 000026
@0ef 000026
@0f0 000026
@0f1 000026
@0f2 000026
@0f3 000026
@0f4 000026
@0f5 000026
@0f6 000026
@0f7 000026
@0f8 000026
@0f9 000026
@0fa 000026
@0fb 000026
@0fc 000026
@0fd 000026
@0fe 000026
@0ff 000026
@100 000026
@101 000026
@102 000026
@103 000026
@104 000026
@105 000026
@106 000026
@107 000026
@108 000026
@109 000026
@10a 000026
@10b 000026
@10c 000026
@10d 000026
@10e 000026
@10f 000026
@110 000026
@111 000026
@112 000026
@113 000026
@114 000026
@115 000026
@116 000026
@117 000026
@118 000026
@119 000026
@11a 000026
@11b 000026
@11c 000026
@11d 000026
@11e 000026
@11f 000026
@120 000026
@121 000026
@122 000026
@123 000026
@124 000026
@125 000026
@126 000026
@127 000026
@128 000026
@129 000026
@12a 000026
@12b 000026
@12c 000026
@12d 000026
@12e 000026
@12f 000026
@130 000026
@131 000026
@132 000026
@133 000026
@134 000026
@135 000026
@136 000026
@137 000026
@138 000026
@139 000026
@13a 000026
@13b 000026
@13c 000026
@13d 000026
@13e 000026
@13f 000026
@140 000026
@141 000026
@142 000026
@143 000026
@144 000026
@145 000026
@146 000026
@147 000026
@148 000026
@149 000026
@14a 000026
@14b 000026
@14c 000026
@14d 000026
@14e 000026
@14f 000026
@150 000026
@151 000026
@152 000026
@153 000026
@154 000026
@155 000026
@156 000026
@157 000026
@158 000026
@159 000026
@15a 000026
@15b 000026
@15c 000026
@15d 000026
@15e 000026
@15f 000026
@160 000026
@161 000026
@162 000026
@163 000026
@164 000026
@165 000026
@166 000026
@167 000026
@168 000026
@169 000026
@16a 000026
@16b 000026
@16c 000026
@16d 000026
@16e 000026
@16f 000026
@170 000026
@171 000026
@172 000026
@173 000026
@174 000026
@175 000026
@176 000026
@177 000026
@178 000026
@179 000026
@17a 000026
@17b 000026
@17c 000026
@17d 000026
@17e 000026
@17f 000026
@180 000026
@181 000026
@182 000026
@183 000026
@184 000026
@185 000026
@186 000026
@187 000026
@188 000026
@189 000026
@18a 000026
@18b 000026
@18c 000026
@18d 000026
@18e 000026
@18f 000026
@190 000026
@191 000026
@192 000026
@193 000026
@194 000026
@195 000026
@196 000026
@197 000026
@198 000026
@199 000026
@19a 000026
@19b 000026
@19c 000026
@19d 000026
@19e 000026
@19f 000026
@1a0 000026
@1a1 000026
@1a2 000026
@1a3 000026
@1a4 000026
@1a5 000026
@1a6 000026
@1a7 000026
@1a8 000026
@1a9 000026
@1aa 000026
@1ab 000026
@1ac 000026
@1ad 000026
@1ae 000026
@1af 000026
@1b0 000026
@1b1 000026
@1b2 000026
@1b3 000026
@1b4 000026
@1b5 000026
@1b6 000026
@1b7 000026
@1b8 000026
@1b9 000026
@1ba 000026
@1bb 000026
@1bc 000026
@1bd 000026
@1be 000026
@1bf 000026
@1c0 000026
@1c1 000026
@1c2 000026
@1c3 000026
@1c4 000026
@1c5 000026
@1c6 000026
@1c7 000026
@1c8 000026
@1c9 000026
@1ca 000026
@1cb 000026
@1cc 000026
@1cd 000026
@1ce 000026
@1cf 000026
@1d0 000026
@1d1 000026
@1d2 000026
@1d3 000026
@1d4 000026
@1d5 000026
@1d6 000026
@1d7 000026
@1d8 000026
@1d9 000026
@1da 000026
@1db 000026
@1dc 000026
@1dd 000026
@1de 000026
@1df 000026
@1e0 000026
@1e1 000026
@1e2 000026
@1e3 000026
@1e4 000026
@1e5 000026
@1e6 000026
@1e7 000026
@1e8 000026
@1e9 000026
@1ea 000026
@1eb 000026
@1ec 000026
@1ed 000026
@1ee 000026
@1ef 000026
@1f0 000026
@1f1 000026
@1f2 000026
@1f3 000026
@1f4 000026
@1f5 000026
@1f6 000026
@1f7 000026
@1f8 000026
@1f9 000026
@1fa 000026
@1fb 000026
@1fc 000026
@1fd 000026
@1fe 000026
@1ff 000026
@200 000026
@201 000026
@202 000026
@203 000026
@204 000026
@205 000026
@206 000026
@207 000026
@208 000026
@209 000026
@20a 000026
@20b 000026
@20c 000026
@20d 000026
@20e 000026
@20f 000026
@210 000026
@211 000026
@212 000026
@213 000026
@214 000026
@215 000026
@216 000026
@217 000026
@218 000026
@219 000026
@21a 000026
@21b 000026
@21c 000026
@21d 000026
@21e 000026
@21f 000026
@220 000026
@221 000026
@222 000026
@223 000026
@224 000026
@225 000026
@226 000026
@227 000026
@228 000026
@229 000026
@22a 000026
@22b 000026
@22c 000026
@22d 000026
@22e 000026
@22f 000026
@230 000026
@231 000026
@232 000026
@233 000026
@234 000026
@235 000026
@236 000026
@237 000026
@238 000026
@239 000026
@23a 000026
@23b 000026
@23c 000026
@23d 000026
@23e 000026
@23f 000026
@240 000026
@241 000026
@242 000026
@243 000026
@244 000026
@245 000026
@246 000026
@247 000026
@248 000026
@249 000026
@24a 000026
@24b 000026
@24c 000026
@24d 000026
@24e 000026
@24f 000026
@250 000026
@251 000026
@252 000026
@253 000026
@254 000026
@255 000026
@256 000026
@257 000026
@258 000026
@259 000026
@25a 000026
@25b 000026
@25c 000026
@25d 000026
@25e 000026
@25f 000026
@260 000026
@261 000026
@262 000026
@263 000026
@264 000026
@265 000026
@266 000026
@267 000026
@268 000026
@269 000026
@26a 000026
@26b 000026
@26c 000026
@26d 000026
@26e 000026
@26f 000026
@270 000026
@271 000026
@272 000026
@273 000026
@274 000026
@275 000026
@276 000026
@277 000026
@278 000026
@279 000026
@27a 000026
@27b 000026
@27c 000026
@27d 000026
@27e 000026
@27f 000026
@280 000026
@281 000026
@282 000026
@283 000026
@284 000026
@285 000026
@286 000026
@287 000026
@288 000026
@289 000026
@28a 000026
@28b 000026
@28c 000026
@28d 000026
@28e 000026
@28f 000026
@290 000026
@291 000026
@292 000026
@293 000026
@294 000026
@295 000026
@296 000026
@297 000026
@298 000026
@299 000026
@29a 000026
@29b 000026
@29c 000026
@29d 000026
@29e 000026
@29f 000026
@2a0 000026
@2a1 000026
@2a2 000026
@2a3 000026
@2a4 000026
@2a5 000026
@2a6 000026
@2a7 000026
@2a8 000026
@2a9 000026
@2aa 000026
@2ab 000026
@2ac 000026
@2ad 000026
@2ae 000026
@2af 000026
@2b0 000026
@2b1 000026
@2b2 000026
@2b3 000026
@2b4 000026
@2b5 000026
@2b6 000026
@2b7 000026
@2b8 000026
@2b9 000026
@2ba 000026
@2bb 000026
@2bc 000026
@2bd 000026
@2be 000026
@2bf 000026
@2c0 000026
@2c1 000026
@2c2 000026
@2c3 000026
@2c4 000026
@2c5 000026
@2c6 000026
@2c7 000026
@2c8 000026
@2c9 000026
@2ca 000026
@2cb 000026
@2cc 000026
@2cd 000026
@2ce 000026
@2cf 000026
@2d0 000026
@2d1 000026
@2d2 000026
@2d3 000026
@2d4 000026
@2d5 000026
@2d6 000026
@2d7 000026
@2d8 000026
@2d9 000026
@2da 000026
@2db 000026
@2dc 000026
@2dd 000026
@2de 000026
@2df 000026
@2e0 000026
@2e1 000026
@2e2 000026
@2e3 000026
@2e4 000026
@2e5 000026
@2e6 000026
@2e7 000026
@2e8 000026
@2e9 000026
@2ea 000026
@2eb 000026
@2ec 000026
@2ed 000026
@2ee 000026
@2ef 000026
@2f0 000026
@2f1 000026
@2f2 000026
@2f3 000026
@2f4 000026
@2f5 000026
@2f6 000026
@2f7 000026
@2f8 000026
@2f9 000026
@2fa 000026
@2fb 000026
@2fc 000026
@2fd 000026
@2fe 000026
@2ff 000026
@300 000026
@301 000026
@302 000026
@303 000026
@304 000026
@305 000026
@306 000026
@307 000026
@308 000026
@309 000026
@30a 000026
@30b 000026
@30c 000026
@30d 000026
@30e 000026
@30f 000026
@310 000026
@311 000026
@312 000026
@313 000026
@314 000026
@315 000026
@316 000026
@317 000026
@318 000026
@319 000026
@31a 000026
@31b 000026
@31c 000026
@31d 000026
@31e 000026
@31f 000026
@320 000026
@321 000026
@322 000026
@323 000026
@324 000026
@325 000026
@326 000026
@327 000026
@328 000026
@329 000026
@32a 000026
@32b 000026
@32c 000026
@32d 000026
@32e 000026
@32f 000026
@330 000026
@331 000026
@332 000026
@333 000026
@334 000026
@335 000026
@336 000026
@337 000026
@338 000026
@339 000026
@33a 000026
@33b 000026
@33c 000026
@33d 000026
@33e 000026
@33f 000026
@340 000026
@341 000026
@342 000026
@343 000026
@344 000026
@345 000026
@346 000026
@347 000026
@348 000026
@349 000026
@34a 000026
@34b 000026
@34c 000026
@34d 000026
@34e 000026
@34f 000026
@350 000026
@351 000026
@352 000026
@353 000026
@354 000026
@355 000026
@356 000026
@357 000026
@358 000026
@359 000026
@35a 000026
@35b 000026
@35c 000026
@35d 000026
@35e 000026
@35f 000026
@360 000026
@361 000026
@362 000026
@363 000026
@364 000026
@365 000026
@366 000026
@367 000026
@368 000026
@369 000026
@36a 000026
@36b 000026
@36c 000026
@36d 000026
@36e 000026
@36f 000026
@370 000026
@371 000026
@372 000026
@373 000026
@374 000026
@375 000026
@376 000026
@377 000026
@378 000026
@379 000026
@37a 000026
@37b 000026
@37c 000026
@37d 000026
@37e 000026
@37f 000026
@380 000026
@381 000026
@382 000026
@383 000026
@384 000026
@385 000026
@386 000026
@387 000026
@388 000026
@389 000026
@38a 000026
@38b 000026
@38c 000026
@38d 000026
@38e 000026
@38f 000026
@390 000026
@391 000026
@392 000026
@393 000026
@394 000026
@395 000026
@396 000026
@397 000026
@398 000026
@399 000026
@39a 000026
@39b 000026
@39c 000026
@39d 000026
@39e 000026
@39f 000026
@3a0 000026
@3a1 000026
@3a2 000026
@3a3 000026
@3a4 000026
@3a5 000026
@3a6 000026
@3a7 000026
@3a8 000026
@3a9 000026
@3aa 000026
@3ab 000026
@3ac 000026
@3ad 000026
@3ae 000026
@3af 000026
@3b0 000026
@3b1 000026
@3b2 000026
@3b3 000026
@3b4 000026
@3b5 000026
@3b6 000026
@3b7 000026
@3b8 000026
@3b9 000026
@3ba 000026
@3bb 000026
@3bc 000026
@3bd 000026
@3be 000026
@3bf 000026
@3c0 000026
@3c1 000026
@3c2 000026
@3c3 000026
@3c4 000026
@3c5 000026
@3c6 000026
@3c7 000026
@3c8 000026
@3c9 000026
@3ca 000026
@3cb 000026
@3cc 000026
@3cd 000026
@3ce 000026
@3cf 000026
@3d0 000026
@3d1 000026
@3d2 000026
@3d3 000026
@3d4 000026
@3d5 000026
@3d6 000026
@3d7 000026
@3d8 000026
@3d9 000026
@3da 000026
@3db 000026
@3dc 000026
@3dd 000026
@3de 000026
@3df 000026
@3e0 000026
@3e1 000026
@3e2 000026
@3e3 000026
@3e4 000026
@3e5 000026
@3e6 000026
@3e7 000026
@3e8 000026
@3e9 000026
@3ea 000026
@3eb 000026
@3ec 000026
@3ed 000026
@3ee 000026
@3ef 000026
@3f0 000026
@3f1 000026
@3f2 000026
@3f3 000026
@3f4 000026
@3f5 000026
@3f6 000026
@3f7 000026
@3f8 000026
@3f9 000026
@3fa 000026
@3fb 000026
@3fc 000026
@3fd 000026
@3fe 000026
@3ff 000026
