neuron_id = 0, conn_type = 0, conn_attribute = 0
neuron_id = 1, conn_type = 0, conn_attribute = 0
neuron_id = 16, conn_type = 0, conn_attribute = 0
neuron_id = 17, conn_type = 0, conn_attribute = 0
neuron_id = 14, conn_type = 0, conn_attribute = 24592
neuron_id = 15, conn_type = 0, conn_attribute = 24592
neuron_id = 30, conn_type = 0, conn_attribute = 24592
neuron_id = 31, conn_type = 0, conn_attribute = 24592
neuron_id = 12, conn_type = 0, conn_attribute = 20496
neuron_id = 13, conn_type = 0, conn_attribute = 20496
neuron_id = 28, conn_type = 0, conn_attribute = 20496
neuron_id = 29, conn_type = 0, conn_attribute = 20496
neuron_id = 10, conn_type = 0, conn_attribute = 16400
neuron_id = 11, conn_type = 0, conn_attribute = 16400
neuron_id = 26, conn_type = 0, conn_attribute = 16400
neuron_id = 27, conn_type = 0, conn_attribute = 16400
neuron_id = 8, conn_type = 0, conn_attribute = 12304
neuron_id = 9, conn_type = 0, conn_attribute = 12304
neuron_id = 24, conn_type = 0, conn_attribute = 12304
neuron_id = 25, conn_type = 0, conn_attribute = 12304
neuron_id = 6, conn_type = 0, conn_attribute = 8208
neuron_id = 7, conn_type = 0, conn_attribute = 8208
neuron_id = 22, conn_type = 0, conn_attribute = 8208
neuron_id = 23, conn_type = 0, conn_attribute = 8208
neuron_id = 4, conn_type = 0, conn_attribute = 4112
neuron_id = 5, conn_type = 0, conn_attribute = 4112
neuron_id = 20, conn_type = 0, conn_attribute = 4112
neuron_id = 21, conn_type = 0, conn_attribute = 4112
neuron_id = 2, conn_type = 0, conn_attribute = 16
neuron_id = 3, conn_type = 0, conn_attribute = 16
neuron_id = 18, conn_type = 0, conn_attribute = 16
neuron_id = 19, conn_type = 0, conn_attribute = 16
neuron_id = 224, conn_type = 0, conn_attribute = 786464
neuron_id = 225, conn_type = 0, conn_attribute = 786464
neuron_id = 240, conn_type = 0, conn_attribute = 786464
neuron_id = 241, conn_type = 0, conn_attribute = 786464
neuron_id = 192, conn_type = 0, conn_attribute = 655392
neuron_id = 193, conn_type = 0, conn_attribute = 655392
neuron_id = 208, conn_type = 0, conn_attribute = 655392
neuron_id = 209, conn_type = 0, conn_attribute = 655392
neuron_id = 160, conn_type = 0, conn_attribute = 524320
neuron_id = 161, conn_type = 0, conn_attribute = 524320
neuron_id = 176, conn_type = 0, conn_attribute = 524320
neuron_id = 177, conn_type = 0, conn_attribute = 524320
neuron_id = 128, conn_type = 0, conn_attribute = 393248
neuron_id = 129, conn_type = 0, conn_attribute = 393248
neuron_id = 144, conn_type = 0, conn_attribute = 393248
neuron_id = 145, conn_type = 0, conn_attribute = 393248
neuron_id = 96, conn_type = 0, conn_attribute = 262176
neuron_id = 97, conn_type = 0, conn_attribute = 262176
neuron_id = 112, conn_type = 0, conn_attribute = 262176
neuron_id = 113, conn_type = 0, conn_attribute = 262176
neuron_id = 64, conn_type = 0, conn_attribute = 131104
neuron_id = 65, conn_type = 0, conn_attribute = 131104
neuron_id = 80, conn_type = 0, conn_attribute = 131104
neuron_id = 81, conn_type = 0, conn_attribute = 131104
neuron_id = 32, conn_type = 0, conn_attribute = 32
neuron_id = 33, conn_type = 0, conn_attribute = 32
neuron_id = 48, conn_type = 0, conn_attribute = 32
neuron_id = 49, conn_type = 0, conn_attribute = 32
neuron_id = 238, conn_type = 0, conn_attribute = 811056
neuron_id = 239, conn_type = 0, conn_attribute = 811056
neuron_id = 254, conn_type = 0, conn_attribute = 811056
neuron_id = 255, conn_type = 0, conn_attribute = 811056
neuron_id = 236, conn_type = 0, conn_attribute = 806960
neuron_id = 237, conn_type = 0, conn_attribute = 806960
neuron_id = 252, conn_type = 0, conn_attribute = 806960
neuron_id = 253, conn_type = 0, conn_attribute = 806960
neuron_id = 234, conn_type = 0, conn_attribute = 802864
neuron_id = 235, conn_type = 0, conn_attribute = 802864
neuron_id = 250, conn_type = 0, conn_attribute = 802864
neuron_id = 251, conn_type = 0, conn_attribute = 802864
neuron_id = 232, conn_type = 0, conn_attribute = 798768
neuron_id = 233, conn_type = 0, conn_attribute = 798768
neuron_id = 248, conn_type = 0, conn_attribute = 798768
neuron_id = 249, conn_type = 0, conn_attribute = 798768
neuron_id = 230, conn_type = 0, conn_attribute = 794672
neuron_id = 231, conn_type = 0, conn_attribute = 794672
neuron_id = 246, conn_type = 0, conn_attribute = 794672
neuron_id = 247, conn_type = 0, conn_attribute = 794672
neuron_id = 228, conn_type = 0, conn_attribute = 790576
neuron_id = 229, conn_type = 0, conn_attribute = 790576
neuron_id = 244, conn_type = 0, conn_attribute = 790576
neuron_id = 245, conn_type = 0, conn_attribute = 790576
neuron_id = 226, conn_type = 0, conn_attribute = 786480
neuron_id = 227, conn_type = 0, conn_attribute = 786480
neuron_id = 242, conn_type = 0, conn_attribute = 786480
neuron_id = 243, conn_type = 0, conn_attribute = 786480
neuron_id = 206, conn_type = 0, conn_attribute = 679984
neuron_id = 207, conn_type = 0, conn_attribute = 679984
neuron_id = 222, conn_type = 0, conn_attribute = 679984
neuron_id = 223, conn_type = 0, conn_attribute = 679984
neuron_id = 204, conn_type = 0, conn_attribute = 675888
neuron_id = 205, conn_type = 0, conn_attribute = 675888
neuron_id = 220, conn_type = 0, conn_attribute = 675888
neuron_id = 221, conn_type = 0, conn_attribute = 675888
neuron_id = 202, conn_type = 0, conn_attribute = 671792
neuron_id = 203, conn_type = 0, conn_attribute = 671792
neuron_id = 218, conn_type = 0, conn_attribute = 671792
neuron_id = 219, conn_type = 0, conn_attribute = 671792
neuron_id = 200, conn_type = 0, conn_attribute = 667696
neuron_id = 201, conn_type = 0, conn_attribute = 667696
neuron_id = 216, conn_type = 0, conn_attribute = 667696
neuron_id = 217, conn_type = 0, conn_attribute = 667696
neuron_id = 198, conn_type = 0, conn_attribute = 663600
neuron_id = 199, conn_type = 0, conn_attribute = 663600
neuron_id = 214, conn_type = 0, conn_attribute = 663600
neuron_id = 215, conn_type = 0, conn_attribute = 663600
neuron_id = 196, conn_type = 0, conn_attribute = 659504
neuron_id = 197, conn_type = 0, conn_attribute = 659504
neuron_id = 212, conn_type = 0, conn_attribute = 659504
neuron_id = 213, conn_type = 0, conn_attribute = 659504
neuron_id = 194, conn_type = 0, conn_attribute = 655408
neuron_id = 195, conn_type = 0, conn_attribute = 655408
neuron_id = 210, conn_type = 0, conn_attribute = 655408
neuron_id = 211, conn_type = 0, conn_attribute = 655408
neuron_id = 174, conn_type = 0, conn_attribute = 548912
neuron_id = 175, conn_type = 0, conn_attribute = 548912
neuron_id = 190, conn_type = 0, conn_attribute = 548912
neuron_id = 191, conn_type = 0, conn_attribute = 548912
neuron_id = 172, conn_type = 0, conn_attribute = 544816
neuron_id = 173, conn_type = 0, conn_attribute = 544816
neuron_id = 188, conn_type = 0, conn_attribute = 544816
neuron_id = 189, conn_type = 0, conn_attribute = 544816
neuron_id = 170, conn_type = 0, conn_attribute = 540720
neuron_id = 171, conn_type = 0, conn_attribute = 540720
neuron_id = 186, conn_type = 0, conn_attribute = 540720
neuron_id = 187, conn_type = 0, conn_attribute = 540720
neuron_id = 168, conn_type = 0, conn_attribute = 536624
neuron_id = 169, conn_type = 0, conn_attribute = 536624
neuron_id = 184, conn_type = 0, conn_attribute = 536624
neuron_id = 185, conn_type = 0, conn_attribute = 536624
neuron_id = 166, conn_type = 0, conn_attribute = 532528
neuron_id = 167, conn_type = 0, conn_attribute = 532528
neuron_id = 182, conn_type = 0, conn_attribute = 532528
neuron_id = 183, conn_type = 0, conn_attribute = 532528
neuron_id = 164, conn_type = 0, conn_attribute = 528432
neuron_id = 165, conn_type = 0, conn_attribute = 528432
neuron_id = 180, conn_type = 0, conn_attribute = 528432
neuron_id = 181, conn_type = 0, conn_attribute = 528432
neuron_id = 162, conn_type = 0, conn_attribute = 524336
neuron_id = 163, conn_type = 0, conn_attribute = 524336
neuron_id = 178, conn_type = 0, conn_attribute = 524336
neuron_id = 179, conn_type = 0, conn_attribute = 524336
neuron_id = 142, conn_type = 0, conn_attribute = 417840
neuron_id = 143, conn_type = 0, conn_attribute = 417840
neuron_id = 158, conn_type = 0, conn_attribute = 417840
neuron_id = 159, conn_type = 0, conn_attribute = 417840
neuron_id = 140, conn_type = 0, conn_attribute = 413744
neuron_id = 141, conn_type = 0, conn_attribute = 413744
neuron_id = 156, conn_type = 0, conn_attribute = 413744
neuron_id = 157, conn_type = 0, conn_attribute = 413744
neuron_id = 138, conn_type = 0, conn_attribute = 409648
neuron_id = 139, conn_type = 0, conn_attribute = 409648
neuron_id = 154, conn_type = 0, conn_attribute = 409648
neuron_id = 155, conn_type = 0, conn_attribute = 409648
neuron_id = 136, conn_type = 0, conn_attribute = 405552
neuron_id = 137, conn_type = 0, conn_attribute = 405552
neuron_id = 152, conn_type = 0, conn_attribute = 405552
neuron_id = 153, conn_type = 0, conn_attribute = 405552
neuron_id = 134, conn_type = 0, conn_attribute = 401456
neuron_id = 135, conn_type = 0, conn_attribute = 401456
neuron_id = 150, conn_type = 0, conn_attribute = 401456
neuron_id = 151, conn_type = 0, conn_attribute = 401456
neuron_id = 132, conn_type = 0, conn_attribute = 397360
neuron_id = 133, conn_type = 0, conn_attribute = 397360
neuron_id = 148, conn_type = 0, conn_attribute = 397360
neuron_id = 149, conn_type = 0, conn_attribute = 397360
neuron_id = 130, conn_type = 0, conn_attribute = 393264
neuron_id = 131, conn_type = 0, conn_attribute = 393264
neuron_id = 146, conn_type = 0, conn_attribute = 393264
neuron_id = 147, conn_type = 0, conn_attribute = 393264
neuron_id = 110, conn_type = 0, conn_attribute = 286768
neuron_id = 111, conn_type = 0, conn_attribute = 286768
neuron_id = 126, conn_type = 0, conn_attribute = 286768
neuron_id = 127, conn_type = 0, conn_attribute = 286768
neuron_id = 108, conn_type = 0, conn_attribute = 282672
neuron_id = 109, conn_type = 0, conn_attribute = 282672
neuron_id = 124, conn_type = 0, conn_attribute = 282672
neuron_id = 125, conn_type = 0, conn_attribute = 282672
neuron_id = 106, conn_type = 0, conn_attribute = 278576
neuron_id = 107, conn_type = 0, conn_attribute = 278576
neuron_id = 122, conn_type = 0, conn_attribute = 278576
neuron_id = 123, conn_type = 0, conn_attribute = 278576
neuron_id = 104, conn_type = 0, conn_attribute = 274480
neuron_id = 105, conn_type = 0, conn_attribute = 274480
neuron_id = 120, conn_type = 0, conn_attribute = 274480
neuron_id = 121, conn_type = 0, conn_attribute = 274480
neuron_id = 102, conn_type = 0, conn_attribute = 270384
neuron_id = 103, conn_type = 0, conn_attribute = 270384
neuron_id = 118, conn_type = 0, conn_attribute = 270384
neuron_id = 119, conn_type = 0, conn_attribute = 270384
neuron_id = 100, conn_type = 0, conn_attribute = 266288
neuron_id = 101, conn_type = 0, conn_attribute = 266288
neuron_id = 116, conn_type = 0, conn_attribute = 266288
neuron_id = 117, conn_type = 0, conn_attribute = 266288
neuron_id = 98, conn_type = 0, conn_attribute = 262192
neuron_id = 99, conn_type = 0, conn_attribute = 262192
neuron_id = 114, conn_type = 0, conn_attribute = 262192
neuron_id = 115, conn_type = 0, conn_attribute = 262192
neuron_id = 78, conn_type = 0, conn_attribute = 155696
neuron_id = 79, conn_type = 0, conn_attribute = 155696
neuron_id = 94, conn_type = 0, conn_attribute = 155696
neuron_id = 95, conn_type = 0, conn_attribute = 155696
neuron_id = 76, conn_type = 0, conn_attribute = 151600
neuron_id = 77, conn_type = 0, conn_attribute = 151600
neuron_id = 92, conn_type = 0, conn_attribute = 151600
neuron_id = 93, conn_type = 0, conn_attribute = 151600
neuron_id = 74, conn_type = 0, conn_attribute = 147504
neuron_id = 75, conn_type = 0, conn_attribute = 147504
neuron_id = 90, conn_type = 0, conn_attribute = 147504
neuron_id = 91, conn_type = 0, conn_attribute = 147504
neuron_id = 72, conn_type = 0, conn_attribute = 143408
neuron_id = 73, conn_type = 0, conn_attribute = 143408
neuron_id = 88, conn_type = 0, conn_attribute = 143408
neuron_id = 89, conn_type = 0, conn_attribute = 143408
neuron_id = 70, conn_type = 0, conn_attribute = 139312
neuron_id = 71, conn_type = 0, conn_attribute = 139312
neuron_id = 86, conn_type = 0, conn_attribute = 139312
neuron_id = 87, conn_type = 0, conn_attribute = 139312
neuron_id = 68, conn_type = 0, conn_attribute = 135216
neuron_id = 69, conn_type = 0, conn_attribute = 135216
neuron_id = 84, conn_type = 0, conn_attribute = 135216
neuron_id = 85, conn_type = 0, conn_attribute = 135216
neuron_id = 66, conn_type = 0, conn_attribute = 131120
neuron_id = 67, conn_type = 0, conn_attribute = 131120
neuron_id = 82, conn_type = 0, conn_attribute = 131120
neuron_id = 83, conn_type = 0, conn_attribute = 131120
neuron_id = 46, conn_type = 0, conn_attribute = 24624
neuron_id = 47, conn_type = 0, conn_attribute = 24624
neuron_id = 62, conn_type = 0, conn_attribute = 24624
neuron_id = 63, conn_type = 0, conn_attribute = 24624
neuron_id = 44, conn_type = 0, conn_attribute = 20528
neuron_id = 45, conn_type = 0, conn_attribute = 20528
neuron_id = 60, conn_type = 0, conn_attribute = 20528
neuron_id = 61, conn_type = 0, conn_attribute = 20528
neuron_id = 42, conn_type = 0, conn_attribute = 16432
neuron_id = 43, conn_type = 0, conn_attribute = 16432
neuron_id = 58, conn_type = 0, conn_attribute = 16432
neuron_id = 59, conn_type = 0, conn_attribute = 16432
neuron_id = 40, conn_type = 0, conn_attribute = 12336
neuron_id = 41, conn_type = 0, conn_attribute = 12336
neuron_id = 56, conn_type = 0, conn_attribute = 12336
neuron_id = 57, conn_type = 0, conn_attribute = 12336
neuron_id = 38, conn_type = 0, conn_attribute = 8240
neuron_id = 39, conn_type = 0, conn_attribute = 8240
neuron_id = 54, conn_type = 0, conn_attribute = 8240
neuron_id = 55, conn_type = 0, conn_attribute = 8240
neuron_id = 36, conn_type = 0, conn_attribute = 4144
neuron_id = 37, conn_type = 0, conn_attribute = 4144
neuron_id = 52, conn_type = 0, conn_attribute = 4144
neuron_id = 53, conn_type = 0, conn_attribute = 4144
neuron_id = 34, conn_type = 0, conn_attribute = 48
neuron_id = 35, conn_type = 0, conn_attribute = 48
neuron_id = 50, conn_type = 0, conn_attribute = 48
neuron_id = 51, conn_type = 0, conn_attribute = 48
neuron_id = 256, conn_type = 0, conn_attribute = 64
neuron_id = 257, conn_type = 0, conn_attribute = 64
neuron_id = 272, conn_type = 0, conn_attribute = 64
neuron_id = 273, conn_type = 0, conn_attribute = 64
neuron_id = 270, conn_type = 0, conn_attribute = 24656
neuron_id = 271, conn_type = 0, conn_attribute = 24656
neuron_id = 286, conn_type = 0, conn_attribute = 24656
neuron_id = 287, conn_type = 0, conn_attribute = 24656
neuron_id = 268, conn_type = 0, conn_attribute = 20560
neuron_id = 269, conn_type = 0, conn_attribute = 20560
neuron_id = 284, conn_type = 0, conn_attribute = 20560
neuron_id = 285, conn_type = 0, conn_attribute = 20560
neuron_id = 266, conn_type = 0, conn_attribute = 16464
neuron_id = 267, conn_type = 0, conn_attribute = 16464
neuron_id = 282, conn_type = 0, conn_attribute = 16464
neuron_id = 283, conn_type = 0, conn_attribute = 16464
neuron_id = 264, conn_type = 0, conn_attribute = 12368
neuron_id = 265, conn_type = 0, conn_attribute = 12368
neuron_id = 280, conn_type = 0, conn_attribute = 12368
neuron_id = 281, conn_type = 0, conn_attribute = 12368
neuron_id = 262, conn_type = 0, conn_attribute = 8272
neuron_id = 263, conn_type = 0, conn_attribute = 8272
neuron_id = 278, conn_type = 0, conn_attribute = 8272
neuron_id = 279, conn_type = 0, conn_attribute = 8272
neuron_id = 260, conn_type = 0, conn_attribute = 4176
neuron_id = 261, conn_type = 0, conn_attribute = 4176
neuron_id = 276, conn_type = 0, conn_attribute = 4176
neuron_id = 277, conn_type = 0, conn_attribute = 4176
neuron_id = 258, conn_type = 0, conn_attribute = 80
neuron_id = 259, conn_type = 0, conn_attribute = 80
neuron_id = 274, conn_type = 0, conn_attribute = 80
neuron_id = 275, conn_type = 0, conn_attribute = 80
neuron_id = 480, conn_type = 0, conn_attribute = 786528
neuron_id = 481, conn_type = 0, conn_attribute = 786528
neuron_id = 496, conn_type = 0, conn_attribute = 786528
neuron_id = 497, conn_type = 0, conn_attribute = 786528
neuron_id = 448, conn_type = 0, conn_attribute = 655456
neuron_id = 449, conn_type = 0, conn_attribute = 655456
neuron_id = 464, conn_type = 0, conn_attribute = 655456
neuron_id = 465, conn_type = 0, conn_attribute = 655456
neuron_id = 416, conn_type = 0, conn_attribute = 524384
neuron_id = 417, conn_type = 0, conn_attribute = 524384
neuron_id = 432, conn_type = 0, conn_attribute = 524384
neuron_id = 433, conn_type = 0, conn_attribute = 524384
neuron_id = 384, conn_type = 0, conn_attribute = 393312
neuron_id = 385, conn_type = 0, conn_attribute = 393312
neuron_id = 400, conn_type = 0, conn_attribute = 393312
neuron_id = 401, conn_type = 0, conn_attribute = 393312
neuron_id = 352, conn_type = 0, conn_attribute = 262240
neuron_id = 353, conn_type = 0, conn_attribute = 262240
neuron_id = 368, conn_type = 0, conn_attribute = 262240
neuron_id = 369, conn_type = 0, conn_attribute = 262240
neuron_id = 320, conn_type = 0, conn_attribute = 131168
neuron_id = 321, conn_type = 0, conn_attribute = 131168
neuron_id = 336, conn_type = 0, conn_attribute = 131168
neuron_id = 337, conn_type = 0, conn_attribute = 131168
neuron_id = 288, conn_type = 0, conn_attribute = 96
neuron_id = 289, conn_type = 0, conn_attribute = 96
neuron_id = 304, conn_type = 0, conn_attribute = 96
neuron_id = 305, conn_type = 0, conn_attribute = 96
neuron_id = 494, conn_type = 0, conn_attribute = 811120
neuron_id = 495, conn_type = 0, conn_attribute = 811120
neuron_id = 510, conn_type = 0, conn_attribute = 811120
neuron_id = 511, conn_type = 0, conn_attribute = 811120
neuron_id = 492, conn_type = 0, conn_attribute = 807024
neuron_id = 493, conn_type = 0, conn_attribute = 807024
neuron_id = 508, conn_type = 0, conn_attribute = 807024
neuron_id = 509, conn_type = 0, conn_attribute = 807024
neuron_id = 490, conn_type = 0, conn_attribute = 802928
neuron_id = 491, conn_type = 0, conn_attribute = 802928
neuron_id = 506, conn_type = 0, conn_attribute = 802928
neuron_id = 507, conn_type = 0, conn_attribute = 802928
neuron_id = 488, conn_type = 0, conn_attribute = 798832
neuron_id = 489, conn_type = 0, conn_attribute = 798832
neuron_id = 504, conn_type = 0, conn_attribute = 798832
neuron_id = 505, conn_type = 0, conn_attribute = 798832
neuron_id = 486, conn_type = 0, conn_attribute = 794736
neuron_id = 487, conn_type = 0, conn_attribute = 794736
neuron_id = 502, conn_type = 0, conn_attribute = 794736
neuron_id = 503, conn_type = 0, conn_attribute = 794736
neuron_id = 484, conn_type = 0, conn_attribute = 790640
neuron_id = 485, conn_type = 0, conn_attribute = 790640
neuron_id = 500, conn_type = 0, conn_attribute = 790640
neuron_id = 501, conn_type = 0, conn_attribute = 790640
neuron_id = 482, conn_type = 0, conn_attribute = 786544
neuron_id = 483, conn_type = 0, conn_attribute = 786544
neuron_id = 498, conn_type = 0, conn_attribute = 786544
neuron_id = 499, conn_type = 0, conn_attribute = 786544
neuron_id = 462, conn_type = 0, conn_attribute = 680048
neuron_id = 463, conn_type = 0, conn_attribute = 680048
neuron_id = 478, conn_type = 0, conn_attribute = 680048
neuron_id = 479, conn_type = 0, conn_attribute = 680048
neuron_id = 460, conn_type = 0, conn_attribute = 675952
neuron_id = 461, conn_type = 0, conn_attribute = 675952
neuron_id = 476, conn_type = 0, conn_attribute = 675952
neuron_id = 477, conn_type = 0, conn_attribute = 675952
neuron_id = 458, conn_type = 0, conn_attribute = 671856
neuron_id = 459, conn_type = 0, conn_attribute = 671856
neuron_id = 474, conn_type = 0, conn_attribute = 671856
neuron_id = 475, conn_type = 0, conn_attribute = 671856
neuron_id = 456, conn_type = 0, conn_attribute = 667760
neuron_id = 457, conn_type = 0, conn_attribute = 667760
neuron_id = 472, conn_type = 0, conn_attribute = 667760
neuron_id = 473, conn_type = 0, conn_attribute = 667760
neuron_id = 454, conn_type = 0, conn_attribute = 663664
neuron_id = 455, conn_type = 0, conn_attribute = 663664
neuron_id = 470, conn_type = 0, conn_attribute = 663664
neuron_id = 471, conn_type = 0, conn_attribute = 663664
neuron_id = 452, conn_type = 0, conn_attribute = 659568
neuron_id = 453, conn_type = 0, conn_attribute = 659568
neuron_id = 468, conn_type = 0, conn_attribute = 659568
neuron_id = 469, conn_type = 0, conn_attribute = 659568
neuron_id = 450, conn_type = 0, conn_attribute = 655472
neuron_id = 451, conn_type = 0, conn_attribute = 655472
neuron_id = 466, conn_type = 0, conn_attribute = 655472
neuron_id = 467, conn_type = 0, conn_attribute = 655472
neuron_id = 430, conn_type = 0, conn_attribute = 548976
neuron_id = 431, conn_type = 0, conn_attribute = 548976
neuron_id = 446, conn_type = 0, conn_attribute = 548976
neuron_id = 447, conn_type = 0, conn_attribute = 548976
neuron_id = 428, conn_type = 0, conn_attribute = 544880
neuron_id = 429, conn_type = 0, conn_attribute = 544880
neuron_id = 444, conn_type = 0, conn_attribute = 544880
neuron_id = 445, conn_type = 0, conn_attribute = 544880
neuron_id = 426, conn_type = 0, conn_attribute = 540784
neuron_id = 427, conn_type = 0, conn_attribute = 540784
neuron_id = 442, conn_type = 0, conn_attribute = 540784
neuron_id = 443, conn_type = 0, conn_attribute = 540784
neuron_id = 424, conn_type = 0, conn_attribute = 536688
neuron_id = 425, conn_type = 0, conn_attribute = 536688
neuron_id = 440, conn_type = 0, conn_attribute = 536688
neuron_id = 441, conn_type = 0, conn_attribute = 536688
neuron_id = 422, conn_type = 0, conn_attribute = 532592
neuron_id = 423, conn_type = 0, conn_attribute = 532592
neuron_id = 438, conn_type = 0, conn_attribute = 532592
neuron_id = 439, conn_type = 0, conn_attribute = 532592
neuron_id = 420, conn_type = 0, conn_attribute = 528496
neuron_id = 421, conn_type = 0, conn_attribute = 528496
neuron_id = 436, conn_type = 0, conn_attribute = 528496
neuron_id = 437, conn_type = 0, conn_attribute = 528496
neuron_id = 418, conn_type = 0, conn_attribute = 524400
neuron_id = 419, conn_type = 0, conn_attribute = 524400
neuron_id = 434, conn_type = 0, conn_attribute = 524400
neuron_id = 435, conn_type = 0, conn_attribute = 524400
neuron_id = 398, conn_type = 0, conn_attribute = 417904
neuron_id = 399, conn_type = 0, conn_attribute = 417904
neuron_id = 414, conn_type = 0, conn_attribute = 417904
neuron_id = 415, conn_type = 0, conn_attribute = 417904
neuron_id = 396, conn_type = 0, conn_attribute = 413808
neuron_id = 397, conn_type = 0, conn_attribute = 413808
neuron_id = 412, conn_type = 0, conn_attribute = 413808
neuron_id = 413, conn_type = 0, conn_attribute = 413808
neuron_id = 394, conn_type = 0, conn_attribute = 409712
neuron_id = 395, conn_type = 0, conn_attribute = 409712
neuron_id = 410, conn_type = 0, conn_attribute = 409712
neuron_id = 411, conn_type = 0, conn_attribute = 409712
neuron_id = 392, conn_type = 0, conn_attribute = 405616
neuron_id = 393, conn_type = 0, conn_attribute = 405616
neuron_id = 408, conn_type = 0, conn_attribute = 405616
neuron_id = 409, conn_type = 0, conn_attribute = 405616
neuron_id = 390, conn_type = 0, conn_attribute = 401520
neuron_id = 391, conn_type = 0, conn_attribute = 401520
neuron_id = 406, conn_type = 0, conn_attribute = 401520
neuron_id = 407, conn_type = 0, conn_attribute = 401520
neuron_id = 388, conn_type = 0, conn_attribute = 397424
neuron_id = 389, conn_type = 0, conn_attribute = 397424
neuron_id = 404, conn_type = 0, conn_attribute = 397424
neuron_id = 405, conn_type = 0, conn_attribute = 397424
neuron_id = 386, conn_type = 0, conn_attribute = 393328
neuron_id = 387, conn_type = 0, conn_attribute = 393328
neuron_id = 402, conn_type = 0, conn_attribute = 393328
neuron_id = 403, conn_type = 0, conn_attribute = 393328
neuron_id = 366, conn_type = 0, conn_attribute = 286832
neuron_id = 367, conn_type = 0, conn_attribute = 286832
neuron_id = 382, conn_type = 0, conn_attribute = 286832
neuron_id = 383, conn_type = 0, conn_attribute = 286832
neuron_id = 364, conn_type = 0, conn_attribute = 282736
neuron_id = 365, conn_type = 0, conn_attribute = 282736
neuron_id = 380, conn_type = 0, conn_attribute = 282736
neuron_id = 381, conn_type = 0, conn_attribute = 282736
neuron_id = 362, conn_type = 0, conn_attribute = 278640
neuron_id = 363, conn_type = 0, conn_attribute = 278640
neuron_id = 378, conn_type = 0, conn_attribute = 278640
neuron_id = 379, conn_type = 0, conn_attribute = 278640
neuron_id = 360, conn_type = 0, conn_attribute = 274544
neuron_id = 361, conn_type = 0, conn_attribute = 274544
neuron_id = 376, conn_type = 0, conn_attribute = 274544
neuron_id = 377, conn_type = 0, conn_attribute = 274544
neuron_id = 358, conn_type = 0, conn_attribute = 270448
neuron_id = 359, conn_type = 0, conn_attribute = 270448
neuron_id = 374, conn_type = 0, conn_attribute = 270448
neuron_id = 375, conn_type = 0, conn_attribute = 270448
neuron_id = 356, conn_type = 0, conn_attribute = 266352
neuron_id = 357, conn_type = 0, conn_attribute = 266352
neuron_id = 372, conn_type = 0, conn_attribute = 266352
neuron_id = 373, conn_type = 0, conn_attribute = 266352
neuron_id = 354, conn_type = 0, conn_attribute = 262256
neuron_id = 355, conn_type = 0, conn_attribute = 262256
neuron_id = 370, conn_type = 0, conn_attribute = 262256
neuron_id = 371, conn_type = 0, conn_attribute = 262256
neuron_id = 334, conn_type = 0, conn_attribute = 155760
neuron_id = 335, conn_type = 0, conn_attribute = 155760
neuron_id = 350, conn_type = 0, conn_attribute = 155760
neuron_id = 351, conn_type = 0, conn_attribute = 155760
neuron_id = 332, conn_type = 0, conn_attribute = 151664
neuron_id = 333, conn_type = 0, conn_attribute = 151664
neuron_id = 348, conn_type = 0, conn_attribute = 151664
neuron_id = 349, conn_type = 0, conn_attribute = 151664
neuron_id = 330, conn_type = 0, conn_attribute = 147568
neuron_id = 331, conn_type = 0, conn_attribute = 147568
neuron_id = 346, conn_type = 0, conn_attribute = 147568
neuron_id = 347, conn_type = 0, conn_attribute = 147568
neuron_id = 328, conn_type = 0, conn_attribute = 143472
neuron_id = 329, conn_type = 0, conn_attribute = 143472
neuron_id = 344, conn_type = 0, conn_attribute = 143472
neuron_id = 345, conn_type = 0, conn_attribute = 143472
neuron_id = 326, conn_type = 0, conn_attribute = 139376
neuron_id = 327, conn_type = 0, conn_attribute = 139376
neuron_id = 342, conn_type = 0, conn_attribute = 139376
neuron_id = 343, conn_type = 0, conn_attribute = 139376
neuron_id = 324, conn_type = 0, conn_attribute = 135280
neuron_id = 325, conn_type = 0, conn_attribute = 135280
neuron_id = 340, conn_type = 0, conn_attribute = 135280
neuron_id = 341, conn_type = 0, conn_attribute = 135280
neuron_id = 322, conn_type = 0, conn_attribute = 131184
neuron_id = 323, conn_type = 0, conn_attribute = 131184
neuron_id = 338, conn_type = 0, conn_attribute = 131184
neuron_id = 339, conn_type = 0, conn_attribute = 131184
neuron_id = 302, conn_type = 0, conn_attribute = 24688
neuron_id = 303, conn_type = 0, conn_attribute = 24688
neuron_id = 318, conn_type = 0, conn_attribute = 24688
neuron_id = 319, conn_type = 0, conn_attribute = 24688
neuron_id = 300, conn_type = 0, conn_attribute = 20592
neuron_id = 301, conn_type = 0, conn_attribute = 20592
neuron_id = 316, conn_type = 0, conn_attribute = 20592
neuron_id = 317, conn_type = 0, conn_attribute = 20592
neuron_id = 298, conn_type = 0, conn_attribute = 16496
neuron_id = 299, conn_type = 0, conn_attribute = 16496
neuron_id = 314, conn_type = 0, conn_attribute = 16496
neuron_id = 315, conn_type = 0, conn_attribute = 16496
neuron_id = 296, conn_type = 0, conn_attribute = 12400
neuron_id = 297, conn_type = 0, conn_attribute = 12400
neuron_id = 312, conn_type = 0, conn_attribute = 12400
neuron_id = 313, conn_type = 0, conn_attribute = 12400
neuron_id = 294, conn_type = 0, conn_attribute = 8304
neuron_id = 295, conn_type = 0, conn_attribute = 8304
neuron_id = 310, conn_type = 0, conn_attribute = 8304
neuron_id = 311, conn_type = 0, conn_attribute = 8304
neuron_id = 292, conn_type = 0, conn_attribute = 4208
neuron_id = 293, conn_type = 0, conn_attribute = 4208
neuron_id = 308, conn_type = 0, conn_attribute = 4208
neuron_id = 309, conn_type = 0, conn_attribute = 4208
neuron_id = 290, conn_type = 0, conn_attribute = 112
neuron_id = 291, conn_type = 0, conn_attribute = 112
neuron_id = 306, conn_type = 0, conn_attribute = 112
neuron_id = 307, conn_type = 0, conn_attribute = 112
neuron_id = 512, conn_type = 0, conn_attribute = 128
neuron_id = 513, conn_type = 0, conn_attribute = 128
neuron_id = 528, conn_type = 0, conn_attribute = 128
neuron_id = 529, conn_type = 0, conn_attribute = 128
neuron_id = 526, conn_type = 0, conn_attribute = 24720
neuron_id = 527, conn_type = 0, conn_attribute = 24720
neuron_id = 542, conn_type = 0, conn_attribute = 24720
neuron_id = 543, conn_type = 0, conn_attribute = 24720
neuron_id = 524, conn_type = 0, conn_attribute = 20624
neuron_id = 525, conn_type = 0, conn_attribute = 20624
neuron_id = 540, conn_type = 0, conn_attribute = 20624
neuron_id = 541, conn_type = 0, conn_attribute = 20624
neuron_id = 522, conn_type = 0, conn_attribute = 16528
neuron_id = 523, conn_type = 0, conn_attribute = 16528
neuron_id = 538, conn_type = 0, conn_attribute = 16528
neuron_id = 539, conn_type = 0, conn_attribute = 16528
neuron_id = 520, conn_type = 0, conn_attribute = 12432
neuron_id = 521, conn_type = 0, conn_attribute = 12432
neuron_id = 536, conn_type = 0, conn_attribute = 12432
neuron_id = 537, conn_type = 0, conn_attribute = 12432
neuron_id = 518, conn_type = 0, conn_attribute = 8336
neuron_id = 519, conn_type = 0, conn_attribute = 8336
neuron_id = 534, conn_type = 0, conn_attribute = 8336
neuron_id = 535, conn_type = 0, conn_attribute = 8336
neuron_id = 516, conn_type = 0, conn_attribute = 4240
neuron_id = 517, conn_type = 0, conn_attribute = 4240
neuron_id = 532, conn_type = 0, conn_attribute = 4240
neuron_id = 533, conn_type = 0, conn_attribute = 4240
neuron_id = 514, conn_type = 0, conn_attribute = 144
neuron_id = 515, conn_type = 0, conn_attribute = 144
neuron_id = 530, conn_type = 0, conn_attribute = 144
neuron_id = 531, conn_type = 0, conn_attribute = 144
neuron_id = 736, conn_type = 0, conn_attribute = 786592
neuron_id = 737, conn_type = 0, conn_attribute = 786592
neuron_id = 752, conn_type = 0, conn_attribute = 786592
neuron_id = 753, conn_type = 0, conn_attribute = 786592
neuron_id = 704, conn_type = 0, conn_attribute = 655520
neuron_id = 705, conn_type = 0, conn_attribute = 655520
neuron_id = 720, conn_type = 0, conn_attribute = 655520
neuron_id = 721, conn_type = 0, conn_attribute = 655520
neuron_id = 672, conn_type = 0, conn_attribute = 524448
neuron_id = 673, conn_type = 0, conn_attribute = 524448
neuron_id = 688, conn_type = 0, conn_attribute = 524448
neuron_id = 689, conn_type = 0, conn_attribute = 524448
neuron_id = 640, conn_type = 0, conn_attribute = 393376
neuron_id = 641, conn_type = 0, conn_attribute = 393376
neuron_id = 656, conn_type = 0, conn_attribute = 393376
neuron_id = 657, conn_type = 0, conn_attribute = 393376
neuron_id = 608, conn_type = 0, conn_attribute = 262304
neuron_id = 609, conn_type = 0, conn_attribute = 262304
neuron_id = 624, conn_type = 0, conn_attribute = 262304
neuron_id = 625, conn_type = 0, conn_attribute = 262304
neuron_id = 576, conn_type = 0, conn_attribute = 131232
neuron_id = 577, conn_type = 0, conn_attribute = 131232
neuron_id = 592, conn_type = 0, conn_attribute = 131232
neuron_id = 593, conn_type = 0, conn_attribute = 131232
neuron_id = 544, conn_type = 0, conn_attribute = 160
neuron_id = 545, conn_type = 0, conn_attribute = 160
neuron_id = 560, conn_type = 0, conn_attribute = 160
neuron_id = 561, conn_type = 0, conn_attribute = 160
neuron_id = 750, conn_type = 0, conn_attribute = 811184
neuron_id = 751, conn_type = 0, conn_attribute = 811184
neuron_id = 766, conn_type = 0, conn_attribute = 811184
neuron_id = 767, conn_type = 0, conn_attribute = 811184
neuron_id = 748, conn_type = 0, conn_attribute = 807088
neuron_id = 749, conn_type = 0, conn_attribute = 807088
neuron_id = 764, conn_type = 0, conn_attribute = 807088
neuron_id = 765, conn_type = 0, conn_attribute = 807088
neuron_id = 746, conn_type = 0, conn_attribute = 802992
neuron_id = 747, conn_type = 0, conn_attribute = 802992
neuron_id = 762, conn_type = 0, conn_attribute = 802992
neuron_id = 763, conn_type = 0, conn_attribute = 802992
neuron_id = 744, conn_type = 0, conn_attribute = 798896
neuron_id = 745, conn_type = 0, conn_attribute = 798896
neuron_id = 760, conn_type = 0, conn_attribute = 798896
neuron_id = 761, conn_type = 0, conn_attribute = 798896
neuron_id = 742, conn_type = 0, conn_attribute = 794800
neuron_id = 743, conn_type = 0, conn_attribute = 794800
neuron_id = 758, conn_type = 0, conn_attribute = 794800
neuron_id = 759, conn_type = 0, conn_attribute = 794800
neuron_id = 740, conn_type = 0, conn_attribute = 790704
neuron_id = 741, conn_type = 0, conn_attribute = 790704
neuron_id = 756, conn_type = 0, conn_attribute = 790704
neuron_id = 757, conn_type = 0, conn_attribute = 790704
neuron_id = 738, conn_type = 0, conn_attribute = 786608
neuron_id = 739, conn_type = 0, conn_attribute = 786608
neuron_id = 754, conn_type = 0, conn_attribute = 786608
neuron_id = 755, conn_type = 0, conn_attribute = 786608
neuron_id = 718, conn_type = 0, conn_attribute = 680112
neuron_id = 719, conn_type = 0, conn_attribute = 680112
neuron_id = 734, conn_type = 0, conn_attribute = 680112
neuron_id = 735, conn_type = 0, conn_attribute = 680112
neuron_id = 716, conn_type = 0, conn_attribute = 676016
neuron_id = 717, conn_type = 0, conn_attribute = 676016
neuron_id = 732, conn_type = 0, conn_attribute = 676016
neuron_id = 733, conn_type = 0, conn_attribute = 676016
neuron_id = 714, conn_type = 0, conn_attribute = 671920
neuron_id = 715, conn_type = 0, conn_attribute = 671920
neuron_id = 730, conn_type = 0, conn_attribute = 671920
neuron_id = 731, conn_type = 0, conn_attribute = 671920
neuron_id = 712, conn_type = 0, conn_attribute = 667824
neuron_id = 713, conn_type = 0, conn_attribute = 667824
neuron_id = 728, conn_type = 0, conn_attribute = 667824
neuron_id = 729, conn_type = 0, conn_attribute = 667824
neuron_id = 710, conn_type = 0, conn_attribute = 663728
neuron_id = 711, conn_type = 0, conn_attribute = 663728
neuron_id = 726, conn_type = 0, conn_attribute = 663728
neuron_id = 727, conn_type = 0, conn_attribute = 663728
neuron_id = 708, conn_type = 0, conn_attribute = 659632
neuron_id = 709, conn_type = 0, conn_attribute = 659632
neuron_id = 724, conn_type = 0, conn_attribute = 659632
neuron_id = 725, conn_type = 0, conn_attribute = 659632
neuron_id = 706, conn_type = 0, conn_attribute = 655536
neuron_id = 707, conn_type = 0, conn_attribute = 655536
neuron_id = 722, conn_type = 0, conn_attribute = 655536
neuron_id = 723, conn_type = 0, conn_attribute = 655536
neuron_id = 686, conn_type = 0, conn_attribute = 549040
neuron_id = 687, conn_type = 0, conn_attribute = 549040
neuron_id = 702, conn_type = 0, conn_attribute = 549040
neuron_id = 703, conn_type = 0, conn_attribute = 549040
neuron_id = 684, conn_type = 0, conn_attribute = 544944
neuron_id = 685, conn_type = 0, conn_attribute = 544944
neuron_id = 700, conn_type = 0, conn_attribute = 544944
neuron_id = 701, conn_type = 0, conn_attribute = 544944
neuron_id = 682, conn_type = 0, conn_attribute = 540848
neuron_id = 683, conn_type = 0, conn_attribute = 540848
neuron_id = 698, conn_type = 0, conn_attribute = 540848
neuron_id = 699, conn_type = 0, conn_attribute = 540848
neuron_id = 680, conn_type = 0, conn_attribute = 536752
neuron_id = 681, conn_type = 0, conn_attribute = 536752
neuron_id = 696, conn_type = 0, conn_attribute = 536752
neuron_id = 697, conn_type = 0, conn_attribute = 536752
neuron_id = 678, conn_type = 0, conn_attribute = 532656
neuron_id = 679, conn_type = 0, conn_attribute = 532656
neuron_id = 694, conn_type = 0, conn_attribute = 532656
neuron_id = 695, conn_type = 0, conn_attribute = 532656
neuron_id = 676, conn_type = 0, conn_attribute = 528560
neuron_id = 677, conn_type = 0, conn_attribute = 528560
neuron_id = 692, conn_type = 0, conn_attribute = 528560
neuron_id = 693, conn_type = 0, conn_attribute = 528560
neuron_id = 674, conn_type = 0, conn_attribute = 524464
neuron_id = 675, conn_type = 0, conn_attribute = 524464
neuron_id = 690, conn_type = 0, conn_attribute = 524464
neuron_id = 691, conn_type = 0, conn_attribute = 524464
neuron_id = 654, conn_type = 0, conn_attribute = 417968
neuron_id = 655, conn_type = 0, conn_attribute = 417968
neuron_id = 670, conn_type = 0, conn_attribute = 417968
neuron_id = 671, conn_type = 0, conn_attribute = 417968
neuron_id = 652, conn_type = 0, conn_attribute = 413872
neuron_id = 653, conn_type = 0, conn_attribute = 413872
neuron_id = 668, conn_type = 0, conn_attribute = 413872
neuron_id = 669, conn_type = 0, conn_attribute = 413872
neuron_id = 650, conn_type = 0, conn_attribute = 409776
neuron_id = 651, conn_type = 0, conn_attribute = 409776
neuron_id = 666, conn_type = 0, conn_attribute = 409776
neuron_id = 667, conn_type = 0, conn_attribute = 409776
neuron_id = 648, conn_type = 0, conn_attribute = 405680
neuron_id = 649, conn_type = 0, conn_attribute = 405680
neuron_id = 664, conn_type = 0, conn_attribute = 405680
neuron_id = 665, conn_type = 0, conn_attribute = 405680
neuron_id = 646, conn_type = 0, conn_attribute = 401584
neuron_id = 647, conn_type = 0, conn_attribute = 401584
neuron_id = 662, conn_type = 0, conn_attribute = 401584
neuron_id = 663, conn_type = 0, conn_attribute = 401584
neuron_id = 644, conn_type = 0, conn_attribute = 397488
neuron_id = 645, conn_type = 0, conn_attribute = 397488
neuron_id = 660, conn_type = 0, conn_attribute = 397488
neuron_id = 661, conn_type = 0, conn_attribute = 397488
neuron_id = 642, conn_type = 0, conn_attribute = 393392
neuron_id = 643, conn_type = 0, conn_attribute = 393392
neuron_id = 658, conn_type = 0, conn_attribute = 393392
neuron_id = 659, conn_type = 0, conn_attribute = 393392
neuron_id = 622, conn_type = 0, conn_attribute = 286896
neuron_id = 623, conn_type = 0, conn_attribute = 286896
neuron_id = 638, conn_type = 0, conn_attribute = 286896
neuron_id = 639, conn_type = 0, conn_attribute = 286896
neuron_id = 620, conn_type = 0, conn_attribute = 282800
neuron_id = 621, conn_type = 0, conn_attribute = 282800
neuron_id = 636, conn_type = 0, conn_attribute = 282800
neuron_id = 637, conn_type = 0, conn_attribute = 282800
neuron_id = 618, conn_type = 0, conn_attribute = 278704
neuron_id = 619, conn_type = 0, conn_attribute = 278704
neuron_id = 634, conn_type = 0, conn_attribute = 278704
neuron_id = 635, conn_type = 0, conn_attribute = 278704
neuron_id = 616, conn_type = 0, conn_attribute = 274608
neuron_id = 617, conn_type = 0, conn_attribute = 274608
neuron_id = 632, conn_type = 0, conn_attribute = 274608
neuron_id = 633, conn_type = 0, conn_attribute = 274608
neuron_id = 614, conn_type = 0, conn_attribute = 270512
neuron_id = 615, conn_type = 0, conn_attribute = 270512
neuron_id = 630, conn_type = 0, conn_attribute = 270512
neuron_id = 631, conn_type = 0, conn_attribute = 270512
neuron_id = 612, conn_type = 0, conn_attribute = 266416
neuron_id = 613, conn_type = 0, conn_attribute = 266416
neuron_id = 628, conn_type = 0, conn_attribute = 266416
neuron_id = 629, conn_type = 0, conn_attribute = 266416
neuron_id = 610, conn_type = 0, conn_attribute = 262320
neuron_id = 611, conn_type = 0, conn_attribute = 262320
neuron_id = 626, conn_type = 0, conn_attribute = 262320
neuron_id = 627, conn_type = 0, conn_attribute = 262320
neuron_id = 590, conn_type = 0, conn_attribute = 155824
neuron_id = 591, conn_type = 0, conn_attribute = 155824
neuron_id = 606, conn_type = 0, conn_attribute = 155824
neuron_id = 607, conn_type = 0, conn_attribute = 155824
neuron_id = 588, conn_type = 0, conn_attribute = 151728
neuron_id = 589, conn_type = 0, conn_attribute = 151728
neuron_id = 604, conn_type = 0, conn_attribute = 151728
neuron_id = 605, conn_type = 0, conn_attribute = 151728
neuron_id = 586, conn_type = 0, conn_attribute = 147632
neuron_id = 587, conn_type = 0, conn_attribute = 147632
neuron_id = 602, conn_type = 0, conn_attribute = 147632
neuron_id = 603, conn_type = 0, conn_attribute = 147632
neuron_id = 584, conn_type = 0, conn_attribute = 143536
neuron_id = 585, conn_type = 0, conn_attribute = 143536
neuron_id = 600, conn_type = 0, conn_attribute = 143536
neuron_id = 601, conn_type = 0, conn_attribute = 143536
neuron_id = 582, conn_type = 0, conn_attribute = 139440
neuron_id = 583, conn_type = 0, conn_attribute = 139440
neuron_id = 598, conn_type = 0, conn_attribute = 139440
neuron_id = 599, conn_type = 0, conn_attribute = 139440
neuron_id = 580, conn_type = 0, conn_attribute = 135344
neuron_id = 581, conn_type = 0, conn_attribute = 135344
neuron_id = 596, conn_type = 0, conn_attribute = 135344
neuron_id = 597, conn_type = 0, conn_attribute = 135344
neuron_id = 578, conn_type = 0, conn_attribute = 131248
neuron_id = 579, conn_type = 0, conn_attribute = 131248
neuron_id = 594, conn_type = 0, conn_attribute = 131248
neuron_id = 595, conn_type = 0, conn_attribute = 131248
neuron_id = 558, conn_type = 0, conn_attribute = 24752
neuron_id = 559, conn_type = 0, conn_attribute = 24752
neuron_id = 574, conn_type = 0, conn_attribute = 24752
neuron_id = 575, conn_type = 0, conn_attribute = 24752
neuron_id = 556, conn_type = 0, conn_attribute = 20656
neuron_id = 557, conn_type = 0, conn_attribute = 20656
neuron_id = 572, conn_type = 0, conn_attribute = 20656
neuron_id = 573, conn_type = 0, conn_attribute = 20656
neuron_id = 554, conn_type = 0, conn_attribute = 16560
neuron_id = 555, conn_type = 0, conn_attribute = 16560
neuron_id = 570, conn_type = 0, conn_attribute = 16560
neuron_id = 571, conn_type = 0, conn_attribute = 16560
neuron_id = 552, conn_type = 0, conn_attribute = 12464
neuron_id = 553, conn_type = 0, conn_attribute = 12464
neuron_id = 568, conn_type = 0, conn_attribute = 12464
neuron_id = 569, conn_type = 0, conn_attribute = 12464
neuron_id = 550, conn_type = 0, conn_attribute = 8368
neuron_id = 551, conn_type = 0, conn_attribute = 8368
neuron_id = 566, conn_type = 0, conn_attribute = 8368
neuron_id = 567, conn_type = 0, conn_attribute = 8368
neuron_id = 548, conn_type = 0, conn_attribute = 4272
neuron_id = 549, conn_type = 0, conn_attribute = 4272
neuron_id = 564, conn_type = 0, conn_attribute = 4272
neuron_id = 565, conn_type = 0, conn_attribute = 4272
neuron_id = 546, conn_type = 0, conn_attribute = 176
neuron_id = 547, conn_type = 0, conn_attribute = 176
neuron_id = 562, conn_type = 0, conn_attribute = 176
neuron_id = 563, conn_type = 0, conn_attribute = 176
neuron_id = 768, conn_type = 0, conn_attribute = 192
neuron_id = 769, conn_type = 0, conn_attribute = 192
neuron_id = 784, conn_type = 0, conn_attribute = 192
neuron_id = 785, conn_type = 0, conn_attribute = 192
neuron_id = 782, conn_type = 0, conn_attribute = 24784
neuron_id = 783, conn_type = 0, conn_attribute = 24784
neuron_id = 798, conn_type = 0, conn_attribute = 24784
neuron_id = 799, conn_type = 0, conn_attribute = 24784
neuron_id = 780, conn_type = 0, conn_attribute = 20688
neuron_id = 781, conn_type = 0, conn_attribute = 20688
neuron_id = 796, conn_type = 0, conn_attribute = 20688
neuron_id = 797, conn_type = 0, conn_attribute = 20688
neuron_id = 778, conn_type = 0, conn_attribute = 16592
neuron_id = 779, conn_type = 0, conn_attribute = 16592
neuron_id = 794, conn_type = 0, conn_attribute = 16592
neuron_id = 795, conn_type = 0, conn_attribute = 16592
neuron_id = 776, conn_type = 0, conn_attribute = 12496
neuron_id = 777, conn_type = 0, conn_attribute = 12496
neuron_id = 792, conn_type = 0, conn_attribute = 12496
neuron_id = 793, conn_type = 0, conn_attribute = 12496
neuron_id = 774, conn_type = 0, conn_attribute = 8400
neuron_id = 775, conn_type = 0, conn_attribute = 8400
neuron_id = 790, conn_type = 0, conn_attribute = 8400
neuron_id = 791, conn_type = 0, conn_attribute = 8400
neuron_id = 772, conn_type = 0, conn_attribute = 4304
neuron_id = 773, conn_type = 0, conn_attribute = 4304
neuron_id = 788, conn_type = 0, conn_attribute = 4304
neuron_id = 789, conn_type = 0, conn_attribute = 4304
neuron_id = 770, conn_type = 0, conn_attribute = 208
neuron_id = 771, conn_type = 0, conn_attribute = 208
neuron_id = 786, conn_type = 0, conn_attribute = 208
neuron_id = 787, conn_type = 0, conn_attribute = 208
neuron_id = 992, conn_type = 0, conn_attribute = 786656
neuron_id = 993, conn_type = 0, conn_attribute = 786656
neuron_id = 1008, conn_type = 0, conn_attribute = 786656
neuron_id = 1009, conn_type = 0, conn_attribute = 786656
neuron_id = 960, conn_type = 0, conn_attribute = 655584
neuron_id = 961, conn_type = 0, conn_attribute = 655584
neuron_id = 976, conn_type = 0, conn_attribute = 655584
neuron_id = 977, conn_type = 0, conn_attribute = 655584
neuron_id = 928, conn_type = 0, conn_attribute = 524512
neuron_id = 929, conn_type = 0, conn_attribute = 524512
neuron_id = 944, conn_type = 0, conn_attribute = 524512
neuron_id = 945, conn_type = 0, conn_attribute = 524512
neuron_id = 896, conn_type = 0, conn_attribute = 393440
neuron_id = 897, conn_type = 0, conn_attribute = 393440
neuron_id = 912, conn_type = 0, conn_attribute = 393440
neuron_id = 913, conn_type = 0, conn_attribute = 393440
neuron_id = 864, conn_type = 0, conn_attribute = 262368
neuron_id = 865, conn_type = 0, conn_attribute = 262368
neuron_id = 880, conn_type = 0, conn_attribute = 262368
neuron_id = 881, conn_type = 0, conn_attribute = 262368
neuron_id = 832, conn_type = 0, conn_attribute = 131296
neuron_id = 833, conn_type = 0, conn_attribute = 131296
neuron_id = 848, conn_type = 0, conn_attribute = 131296
neuron_id = 849, conn_type = 0, conn_attribute = 131296
neuron_id = 800, conn_type = 0, conn_attribute = 224
neuron_id = 801, conn_type = 0, conn_attribute = 224
neuron_id = 816, conn_type = 0, conn_attribute = 224
neuron_id = 817, conn_type = 0, conn_attribute = 224
neuron_id = 1006, conn_type = 0, conn_attribute = 811248
neuron_id = 1007, conn_type = 0, conn_attribute = 811248
neuron_id = 1022, conn_type = 0, conn_attribute = 811248
neuron_id = 1023, conn_type = 0, conn_attribute = 811248
neuron_id = 1004, conn_type = 0, conn_attribute = 807152
neuron_id = 1005, conn_type = 0, conn_attribute = 807152
neuron_id = 1020, conn_type = 0, conn_attribute = 807152
neuron_id = 1021, conn_type = 0, conn_attribute = 807152
neuron_id = 1002, conn_type = 0, conn_attribute = 803056
neuron_id = 1003, conn_type = 0, conn_attribute = 803056
neuron_id = 1018, conn_type = 0, conn_attribute = 803056
neuron_id = 1019, conn_type = 0, conn_attribute = 803056
neuron_id = 1000, conn_type = 0, conn_attribute = 798960
neuron_id = 1001, conn_type = 0, conn_attribute = 798960
neuron_id = 1016, conn_type = 0, conn_attribute = 798960
neuron_id = 1017, conn_type = 0, conn_attribute = 798960
neuron_id = 998, conn_type = 0, conn_attribute = 794864
neuron_id = 999, conn_type = 0, conn_attribute = 794864
neuron_id = 1014, conn_type = 0, conn_attribute = 794864
neuron_id = 1015, conn_type = 0, conn_attribute = 794864
neuron_id = 996, conn_type = 0, conn_attribute = 790768
neuron_id = 997, conn_type = 0, conn_attribute = 790768
neuron_id = 1012, conn_type = 0, conn_attribute = 790768
neuron_id = 1013, conn_type = 0, conn_attribute = 790768
neuron_id = 994, conn_type = 0, conn_attribute = 786672
neuron_id = 995, conn_type = 0, conn_attribute = 786672
neuron_id = 1010, conn_type = 0, conn_attribute = 786672
neuron_id = 1011, conn_type = 0, conn_attribute = 786672
neuron_id = 974, conn_type = 0, conn_attribute = 680176
neuron_id = 975, conn_type = 0, conn_attribute = 680176
neuron_id = 990, conn_type = 0, conn_attribute = 680176
neuron_id = 991, conn_type = 0, conn_attribute = 680176
neuron_id = 972, conn_type = 0, conn_attribute = 676080
neuron_id = 973, conn_type = 0, conn_attribute = 676080
neuron_id = 988, conn_type = 0, conn_attribute = 676080
neuron_id = 989, conn_type = 0, conn_attribute = 676080
neuron_id = 970, conn_type = 0, conn_attribute = 671984
neuron_id = 971, conn_type = 0, conn_attribute = 671984
neuron_id = 986, conn_type = 0, conn_attribute = 671984
neuron_id = 987, conn_type = 0, conn_attribute = 671984
neuron_id = 968, conn_type = 0, conn_attribute = 667888
neuron_id = 969, conn_type = 0, conn_attribute = 667888
neuron_id = 984, conn_type = 0, conn_attribute = 667888
neuron_id = 985, conn_type = 0, conn_attribute = 667888
neuron_id = 966, conn_type = 0, conn_attribute = 663792
neuron_id = 967, conn_type = 0, conn_attribute = 663792
neuron_id = 982, conn_type = 0, conn_attribute = 663792
neuron_id = 983, conn_type = 0, conn_attribute = 663792
neuron_id = 964, conn_type = 0, conn_attribute = 659696
neuron_id = 965, conn_type = 0, conn_attribute = 659696
neuron_id = 980, conn_type = 0, conn_attribute = 659696
neuron_id = 981, conn_type = 0, conn_attribute = 659696
neuron_id = 962, conn_type = 0, conn_attribute = 655600
neuron_id = 963, conn_type = 0, conn_attribute = 655600
neuron_id = 978, conn_type = 0, conn_attribute = 655600
neuron_id = 979, conn_type = 0, conn_attribute = 655600
neuron_id = 942, conn_type = 0, conn_attribute = 549104
neuron_id = 943, conn_type = 0, conn_attribute = 549104
neuron_id = 958, conn_type = 0, conn_attribute = 549104
neuron_id = 959, conn_type = 0, conn_attribute = 549104
neuron_id = 940, conn_type = 0, conn_attribute = 545008
neuron_id = 941, conn_type = 0, conn_attribute = 545008
neuron_id = 956, conn_type = 0, conn_attribute = 545008
neuron_id = 957, conn_type = 0, conn_attribute = 545008
neuron_id = 938, conn_type = 0, conn_attribute = 540912
neuron_id = 939, conn_type = 0, conn_attribute = 540912
neuron_id = 954, conn_type = 0, conn_attribute = 540912
neuron_id = 955, conn_type = 0, conn_attribute = 540912
neuron_id = 936, conn_type = 0, conn_attribute = 536816
neuron_id = 937, conn_type = 0, conn_attribute = 536816
neuron_id = 952, conn_type = 0, conn_attribute = 536816
neuron_id = 953, conn_type = 0, conn_attribute = 536816
neuron_id = 934, conn_type = 0, conn_attribute = 532720
neuron_id = 935, conn_type = 0, conn_attribute = 532720
neuron_id = 950, conn_type = 0, conn_attribute = 532720
neuron_id = 951, conn_type = 0, conn_attribute = 532720
neuron_id = 932, conn_type = 0, conn_attribute = 528624
neuron_id = 933, conn_type = 0, conn_attribute = 528624
neuron_id = 948, conn_type = 0, conn_attribute = 528624
neuron_id = 949, conn_type = 0, conn_attribute = 528624
neuron_id = 930, conn_type = 0, conn_attribute = 524528
neuron_id = 931, conn_type = 0, conn_attribute = 524528
neuron_id = 946, conn_type = 0, conn_attribute = 524528
neuron_id = 947, conn_type = 0, conn_attribute = 524528
neuron_id = 910, conn_type = 0, conn_attribute = 418032
neuron_id = 911, conn_type = 0, conn_attribute = 418032
neuron_id = 926, conn_type = 0, conn_attribute = 418032
neuron_id = 927, conn_type = 0, conn_attribute = 418032
neuron_id = 908, conn_type = 0, conn_attribute = 413936
neuron_id = 909, conn_type = 0, conn_attribute = 413936
neuron_id = 924, conn_type = 0, conn_attribute = 413936
neuron_id = 925, conn_type = 0, conn_attribute = 413936
neuron_id = 906, conn_type = 0, conn_attribute = 409840
neuron_id = 907, conn_type = 0, conn_attribute = 409840
neuron_id = 922, conn_type = 0, conn_attribute = 409840
neuron_id = 923, conn_type = 0, conn_attribute = 409840
neuron_id = 904, conn_type = 0, conn_attribute = 405744
neuron_id = 905, conn_type = 0, conn_attribute = 405744
neuron_id = 920, conn_type = 0, conn_attribute = 405744
neuron_id = 921, conn_type = 0, conn_attribute = 405744
neuron_id = 902, conn_type = 0, conn_attribute = 401648
neuron_id = 903, conn_type = 0, conn_attribute = 401648
neuron_id = 918, conn_type = 0, conn_attribute = 401648
neuron_id = 919, conn_type = 0, conn_attribute = 401648
neuron_id = 900, conn_type = 0, conn_attribute = 397552
neuron_id = 901, conn_type = 0, conn_attribute = 397552
neuron_id = 916, conn_type = 0, conn_attribute = 397552
neuron_id = 917, conn_type = 0, conn_attribute = 397552
neuron_id = 898, conn_type = 0, conn_attribute = 393456
neuron_id = 899, conn_type = 0, conn_attribute = 393456
neuron_id = 914, conn_type = 0, conn_attribute = 393456
neuron_id = 915, conn_type = 0, conn_attribute = 393456
neuron_id = 878, conn_type = 0, conn_attribute = 286960
neuron_id = 879, conn_type = 0, conn_attribute = 286960
neuron_id = 894, conn_type = 0, conn_attribute = 286960
neuron_id = 895, conn_type = 0, conn_attribute = 286960
neuron_id = 876, conn_type = 0, conn_attribute = 282864
neuron_id = 877, conn_type = 0, conn_attribute = 282864
neuron_id = 892, conn_type = 0, conn_attribute = 282864
neuron_id = 893, conn_type = 0, conn_attribute = 282864
neuron_id = 874, conn_type = 0, conn_attribute = 278768
neuron_id = 875, conn_type = 0, conn_attribute = 278768
neuron_id = 890, conn_type = 0, conn_attribute = 278768
neuron_id = 891, conn_type = 0, conn_attribute = 278768
neuron_id = 872, conn_type = 0, conn_attribute = 274672
neuron_id = 873, conn_type = 0, conn_attribute = 274672
neuron_id = 888, conn_type = 0, conn_attribute = 274672
neuron_id = 889, conn_type = 0, conn_attribute = 274672
neuron_id = 870, conn_type = 0, conn_attribute = 270576
neuron_id = 871, conn_type = 0, conn_attribute = 270576
neuron_id = 886, conn_type = 0, conn_attribute = 270576
neuron_id = 887, conn_type = 0, conn_attribute = 270576
neuron_id = 868, conn_type = 0, conn_attribute = 266480
neuron_id = 869, conn_type = 0, conn_attribute = 266480
neuron_id = 884, conn_type = 0, conn_attribute = 266480
neuron_id = 885, conn_type = 0, conn_attribute = 266480
neuron_id = 866, conn_type = 0, conn_attribute = 262384
neuron_id = 867, conn_type = 0, conn_attribute = 262384
neuron_id = 882, conn_type = 0, conn_attribute = 262384
neuron_id = 883, conn_type = 0, conn_attribute = 262384
neuron_id = 846, conn_type = 0, conn_attribute = 155888
neuron_id = 847, conn_type = 0, conn_attribute = 155888
neuron_id = 862, conn_type = 0, conn_attribute = 155888
neuron_id = 863, conn_type = 0, conn_attribute = 155888
neuron_id = 844, conn_type = 0, conn_attribute = 151792
neuron_id = 845, conn_type = 0, conn_attribute = 151792
neuron_id = 860, conn_type = 0, conn_attribute = 151792
neuron_id = 861, conn_type = 0, conn_attribute = 151792
neuron_id = 842, conn_type = 0, conn_attribute = 147696
neuron_id = 843, conn_type = 0, conn_attribute = 147696
neuron_id = 858, conn_type = 0, conn_attribute = 147696
neuron_id = 859, conn_type = 0, conn_attribute = 147696
neuron_id = 840, conn_type = 0, conn_attribute = 143600
neuron_id = 841, conn_type = 0, conn_attribute = 143600
neuron_id = 856, conn_type = 0, conn_attribute = 143600
neuron_id = 857, conn_type = 0, conn_attribute = 143600
neuron_id = 838, conn_type = 0, conn_attribute = 139504
neuron_id = 839, conn_type = 0, conn_attribute = 139504
neuron_id = 854, conn_type = 0, conn_attribute = 139504
neuron_id = 855, conn_type = 0, conn_attribute = 139504
neuron_id = 836, conn_type = 0, conn_attribute = 135408
neuron_id = 837, conn_type = 0, conn_attribute = 135408
neuron_id = 852, conn_type = 0, conn_attribute = 135408
neuron_id = 853, conn_type = 0, conn_attribute = 135408
neuron_id = 834, conn_type = 0, conn_attribute = 131312
neuron_id = 835, conn_type = 0, conn_attribute = 131312
neuron_id = 850, conn_type = 0, conn_attribute = 131312
neuron_id = 851, conn_type = 0, conn_attribute = 131312
neuron_id = 814, conn_type = 0, conn_attribute = 24816
neuron_id = 815, conn_type = 0, conn_attribute = 24816
neuron_id = 830, conn_type = 0, conn_attribute = 24816
neuron_id = 831, conn_type = 0, conn_attribute = 24816
neuron_id = 812, conn_type = 0, conn_attribute = 20720
neuron_id = 813, conn_type = 0, conn_attribute = 20720
neuron_id = 828, conn_type = 0, conn_attribute = 20720
neuron_id = 829, conn_type = 0, conn_attribute = 20720
neuron_id = 810, conn_type = 0, conn_attribute = 16624
neuron_id = 811, conn_type = 0, conn_attribute = 16624
neuron_id = 826, conn_type = 0, conn_attribute = 16624
neuron_id = 827, conn_type = 0, conn_attribute = 16624
neuron_id = 808, conn_type = 0, conn_attribute = 12528
neuron_id = 809, conn_type = 0, conn_attribute = 12528
neuron_id = 824, conn_type = 0, conn_attribute = 12528
neuron_id = 825, conn_type = 0, conn_attribute = 12528
neuron_id = 806, conn_type = 0, conn_attribute = 8432
neuron_id = 807, conn_type = 0, conn_attribute = 8432
neuron_id = 822, conn_type = 0, conn_attribute = 8432
neuron_id = 823, conn_type = 0, conn_attribute = 8432
neuron_id = 804, conn_type = 0, conn_attribute = 4336
neuron_id = 805, conn_type = 0, conn_attribute = 4336
neuron_id = 820, conn_type = 0, conn_attribute = 4336
neuron_id = 821, conn_type = 0, conn_attribute = 4336
neuron_id = 802, conn_type = 0, conn_attribute = 240
neuron_id = 803, conn_type = 0, conn_attribute = 240
neuron_id = 818, conn_type = 0, conn_attribute = 240
neuron_id = 819, conn_type = 0, conn_attribute = 240
