pattern_id = 0, pattern_type = 1, fm_start_nid = 0, fm_log_size_x = 5, fm_size_y = 31, pattern_mem_start = 0
pattern_id = 1, pattern_type = 1, fm_start_nid = 0, fm_log_size_x = 5, fm_size_y = 31, pattern_mem_start = 9
pattern_id = 2, pattern_type = 1, fm_start_nid = 0, fm_log_size_x = 5, fm_size_y = 31, pattern_mem_start = 18
pattern_id = 3, pattern_type = 1, fm_start_nid = 0, fm_log_size_x = 5, fm_size_y = 31, pattern_mem_start = 27
