pat_addr = 0, pre_stop = 3, walk = 3, weight = 37
pat_addr = 1, pre_stop = 3, walk = 3, weight = 35
pat_addr = 2, pre_stop = 3, walk = 1, weight = 50
pat_addr = 3, pre_stop = 3, walk = 2, weight = -34
pat_addr = 4, pre_stop = 3, walk = 2, weight = 21
pat_addr = 5, pre_stop = 3, walk = 1, weight = -21
pat_addr = 6, pre_stop = 2, walk = 3, weight = -35
pat_addr = 7, pre_stop = 1, walk = 3, weight = 33
pat_addr = 8, pre_stop = 0, walk = 0, weight = 22
pat_addr = 9, pre_stop = 3, walk = 3, weight = 74
pat_addr = 10, pre_stop = 3, walk = 3, weight = 30
pat_addr = 11, pre_stop = 3, walk = 1, weight = 18
pat_addr = 12, pre_stop = 3, walk = 2, weight = 35
pat_addr = 13, pre_stop = 3, walk = 2, weight = -13
pat_addr = 14, pre_stop = 3, walk = 1, weight = 30
pat_addr = 15, pre_stop = 2, walk = 3, weight = 77
pat_addr = 16, pre_stop = 1, walk = 3, weight = -36
pat_addr = 17, pre_stop = 0, walk = 0, weight = -9
pat_addr = 18, pre_stop = 3, walk = 3, weight = -52
pat_addr = 19, pre_stop = 3, walk = 3, weight = 23
pat_addr = 20, pre_stop = 3, walk = 1, weight = -11
pat_addr = 21, pre_stop = 3, walk = 2, weight = -12
pat_addr = 22, pre_stop = 3, walk = 2, weight = 71
pat_addr = 23, pre_stop = 3, walk = 1, weight = 24
pat_addr = 24, pre_stop = 2, walk = 3, weight = 69
pat_addr = 25, pre_stop = 1, walk = 3, weight = -37
pat_addr = 26, pre_stop = 0, walk = 0, weight = -41
pat_addr = 27, pre_stop = 3, walk = 3, weight = 24
pat_addr = 28, pre_stop = 3, walk = 3, weight = 9
pat_addr = 29, pre_stop = 3, walk = 1, weight = -44
pat_addr = 30, pre_stop = 3, walk = 2, weight = -27
pat_addr = 31, pre_stop = 3, walk = 2, weight = 0
pat_addr = 32, pre_stop = 3, walk = 1, weight = 44
pat_addr = 33, pre_stop = 2, walk = 3, weight = 74
pat_addr = 34, pre_stop = 1, walk = 3, weight = 5
pat_addr = 35, pre_stop = 0, walk = 0, weight = 10
