neuron_id = 0, flag3 = 6, flag2 = 6, flag1 = 6, flag0 = 6
neuron_id = 1, flag3 = 6, flag2 = 6, flag1 = 6, flag0 = 6
neuron_id = 2, flag3 = 6, flag2 = 6, flag1 = 6, flag0 = 6
neuron_id = 3, flag3 = 6, flag2 = 6, flag1 = 6, flag0 = 6
neuron_id = 4, flag3 = 6, flag2 = 6, flag1 = 6, flag0 = 6
neuron_id = 5, flag3 = 6, flag2 = 6, flag1 = 6, flag0 = 6
neuron_id = 6, flag3 = 6, flag2 = 6, flag1 = 6, flag0 = 6
neuron_id = 7, flag3 = 6, flag2 = 6, flag1 = 6, flag0 = 6
neuron_id = 8, flag3 = 6, flag2 = 6, flag1 = 6, flag0 = 6
neuron_id = 9, flag3 = 6, flag2 = 6, flag1 = 6, flag0 = 6
neuron_id = 10, flag3 = 6, flag2 = 6, flag1 = 6, flag0 = 6
neuron_id = 11, flag3 = 6, flag2 = 6, flag1 = 6, flag0 = 6
neuron_id = 12, flag3 = 6, flag2 = 6, flag1 = 6, flag0 = 6
neuron_id = 13, flag3 = 6, flag2 = 6, flag1 = 6, flag0 = 6
neuron_id = 14, flag3 = 6, flag2 = 6, flag1 = 6, flag0 = 6
neuron_id = 15, flag3 = 6, flag2 = 6, flag1 = 6, flag0 = 6
neuron_id = 16, flag3 = 7, flag2 = 7, flag1 = 7, flag0 = 7
neuron_id = 17, flag3 = 7, flag2 = 7, flag1 = 7, flag0 = 7
neuron_id = 18, flag3 = 7, flag2 = 7, flag1 = 7, flag0 = 7
neuron_id = 19, flag3 = 7, flag2 = 7, flag1 = 7, flag0 = 7
neuron_id = 20, flag3 = 7, flag2 = 7, flag1 = 7, flag0 = 7
neuron_id = 21, flag3 = 7, flag2 = 7, flag1 = 7, flag0 = 7
neuron_id = 22, flag3 = 7, flag2 = 7, flag1 = 7, flag0 = 7
neuron_id = 23, flag3 = 7, flag2 = 7, flag1 = 7, flag0 = 7
neuron_id = 24, flag3 = 7, flag2 = 7, flag1 = 7, flag0 = 7
neuron_id = 25, flag3 = 7, flag2 = 7, flag1 = 7, flag0 = 7
neuron_id = 26, flag3 = 7, flag2 = 7, flag1 = 7, flag0 = 7
neuron_id = 27, flag3 = 7, flag2 = 7, flag1 = 7, flag0 = 7
neuron_id = 28, flag3 = 7, flag2 = 7, flag1 = 7, flag0 = 7
neuron_id = 29, flag3 = 7, flag2 = 7, flag1 = 7, flag0 = 7
neuron_id = 30, flag3 = 7, flag2 = 7, flag1 = 7, flag0 = 7
neuron_id = 31, flag3 = 7, flag2 = 7, flag1 = 7, flag0 = 7
neuron_id = 32, flag3 = 7, flag2 = 7, flag1 = 7, flag0 = 7
neuron_id = 33, flag3 = 7, flag2 = 7, flag1 = 7, flag0 = 7
neuron_id = 34, flag3 = 7, flag2 = 7, flag1 = 7, flag0 = 7
neuron_id = 35, flag3 = 7, flag2 = 7, flag1 = 7, flag0 = 7
neuron_id = 36, flag3 = 7, flag2 = 7, flag1 = 7, flag0 = 7
neuron_id = 37, flag3 = 7, flag2 = 7, flag1 = 7, flag0 = 7
neuron_id = 38, flag3 = 7, flag2 = 7, flag1 = 7, flag0 = 7
neuron_id = 39, flag3 = 7, flag2 = 7, flag1 = 7, flag0 = 7
neuron_id = 40, flag3 = 7, flag2 = 7, flag1 = 7, flag0 = 7
neuron_id = 41, flag3 = 7, flag2 = 7, flag1 = 7, flag0 = 7
neuron_id = 42, flag3 = 7, flag2 = 7, flag1 = 7, flag0 = 7
neuron_id = 43, flag3 = 7, flag2 = 7, flag1 = 7, flag0 = 7
neuron_id = 44, flag3 = 7, flag2 = 7, flag1 = 7, flag0 = 7
neuron_id = 45, flag3 = 7, flag2 = 7, flag1 = 7, flag0 = 7
neuron_id = 46, flag3 = 7, flag2 = 7, flag1 = 7, flag0 = 7
neuron_id = 47, flag3 = 7, flag2 = 7, flag1 = 7, flag0 = 7
neuron_id = 48, flag3 = 7, flag2 = 7, flag1 = 7, flag0 = 7
neuron_id = 49, flag3 = 7, flag2 = 7, flag1 = 7, flag0 = 7
neuron_id = 50, flag3 = 7, flag2 = 7, flag1 = 7, flag0 = 7
neuron_id = 51, flag3 = 7, flag2 = 7, flag1 = 7, flag0 = 7
neuron_id = 52, flag3 = 7, flag2 = 7, flag1 = 7, flag0 = 7
neuron_id = 53, flag3 = 7, flag2 = 7, flag1 = 7, flag0 = 7
neuron_id = 54, flag3 = 7, flag2 = 7, flag1 = 7, flag0 = 7
neuron_id = 55, flag3 = 7, flag2 = 7, flag1 = 7, flag0 = 7
neuron_id = 56, flag3 = 7, flag2 = 7, flag1 = 7, flag0 = 7
neuron_id = 57, flag3 = 7, flag2 = 7, flag1 = 7, flag0 = 7
neuron_id = 58, flag3 = 7, flag2 = 7, flag1 = 7, flag0 = 7
neuron_id = 59, flag3 = 7, flag2 = 7, flag1 = 7, flag0 = 7
neuron_id = 60, flag3 = 7, flag2 = 7, flag1 = 7, flag0 = 7
neuron_id = 61, flag3 = 7, flag2 = 7, flag1 = 7, flag0 = 7
neuron_id = 62, flag3 = 7, flag2 = 7, flag1 = 7, flag0 = 7
neuron_id = 63, flag3 = 7, flag2 = 7, flag1 = 7, flag0 = 7
neuron_id = 64, flag3 = 7, flag2 = 7, flag1 = 7, flag0 = 7
neuron_id = 65, flag3 = 7, flag2 = 7, flag1 = 7, flag0 = 7
neuron_id = 66, flag3 = 7, flag2 = 7, flag1 = 7, flag0 = 7
neuron_id = 67, flag3 = 7, flag2 = 7, flag1 = 7, flag0 = 7
neuron_id = 68, flag3 = 7, flag2 = 7, flag1 = 7, flag0 = 7
neuron_id = 69, flag3 = 7, flag2 = 7, flag1 = 7, flag0 = 7
neuron_id = 70, flag3 = 7, flag2 = 7, flag1 = 7, flag0 = 7
neuron_id = 71, flag3 = 7, flag2 = 7, flag1 = 7, flag0 = 7
neuron_id = 72, flag3 = 7, flag2 = 7, flag1 = 7, flag0 = 7
neuron_id = 73, flag3 = 7, flag2 = 7, flag1 = 7, flag0 = 7
neuron_id = 74, flag3 = 7, flag2 = 7, flag1 = 7, flag0 = 7
neuron_id = 75, flag3 = 7, flag2 = 7, flag1 = 7, flag0 = 7
neuron_id = 76, flag3 = 7, flag2 = 7, flag1 = 7, flag0 = 7
neuron_id = 77, flag3 = 7, flag2 = 7, flag1 = 7, flag0 = 7
neuron_id = 78, flag3 = 7, flag2 = 7, flag1 = 7, flag0 = 7
neuron_id = 79, flag3 = 7, flag2 = 7, flag1 = 7, flag0 = 7
neuron_id = 80, flag3 = 7, flag2 = 7, flag1 = 7, flag0 = 7
neuron_id = 81, flag3 = 7, flag2 = 7, flag1 = 7, flag0 = 7
neuron_id = 82, flag3 = 7, flag2 = 7, flag1 = 7, flag0 = 7
neuron_id = 83, flag3 = 7, flag2 = 7, flag1 = 7, flag0 = 7
neuron_id = 84, flag3 = 7, flag2 = 7, flag1 = 7, flag0 = 7
neuron_id = 85, flag3 = 7, flag2 = 7, flag1 = 7, flag0 = 7
neuron_id = 86, flag3 = 7, flag2 = 7, flag1 = 7, flag0 = 7
neuron_id = 87, flag3 = 7, flag2 = 7, flag1 = 7, flag0 = 7
neuron_id = 88, flag3 = 7, flag2 = 7, flag1 = 7, flag0 = 7
neuron_id = 89, flag3 = 7, flag2 = 7, flag1 = 7, flag0 = 7
neuron_id = 90, flag3 = 7, flag2 = 7, flag1 = 7, flag0 = 7
neuron_id = 91, flag3 = 7, flag2 = 7, flag1 = 7, flag0 = 7
neuron_id = 92, flag3 = 7, flag2 = 7, flag1 = 7, flag0 = 7
neuron_id = 93, flag3 = 7, flag2 = 7, flag1 = 7, flag0 = 7
neuron_id = 94, flag3 = 7, flag2 = 7, flag1 = 7, flag0 = 7
neuron_id = 95, flag3 = 7, flag2 = 7, flag1 = 7, flag0 = 7
neuron_id = 96, flag3 = 7, flag2 = 7, flag1 = 7, flag0 = 7
neuron_id = 97, flag3 = 7, flag2 = 7, flag1 = 7, flag0 = 7
neuron_id = 98, flag3 = 7, flag2 = 7, flag1 = 7, flag0 = 7
neuron_id = 99, flag3 = 7, flag2 = 7, flag1 = 7, flag0 = 7
neuron_id = 100, flag3 = 7, flag2 = 7, flag1 = 7, flag0 = 7
neuron_id = 101, flag3 = 7, flag2 = 7, flag1 = 7, flag0 = 7
neuron_id = 102, flag3 = 7, flag2 = 7, flag1 = 7, flag0 = 7
neuron_id = 103, flag3 = 7, flag2 = 7, flag1 = 7, flag0 = 7
neuron_id = 104, flag3 = 7, flag2 = 7, flag1 = 7, flag0 = 7
neuron_id = 105, flag3 = 7, flag2 = 7, flag1 = 7, flag0 = 7
neuron_id = 106, flag3 = 7, flag2 = 7, flag1 = 7, flag0 = 7
neuron_id = 107, flag3 = 7, flag2 = 7, flag1 = 7, flag0 = 7
neuron_id = 108, flag3 = 7, flag2 = 7, flag1 = 7, flag0 = 7
neuron_id = 109, flag3 = 7, flag2 = 7, flag1 = 7, flag0 = 7
neuron_id = 110, flag3 = 7, flag2 = 7, flag1 = 7, flag0 = 7
neuron_id = 111, flag3 = 7, flag2 = 7, flag1 = 7, flag0 = 7
neuron_id = 112, flag3 = 7, flag2 = 7, flag1 = 7, flag0 = 7
neuron_id = 113, flag3 = 7, flag2 = 7, flag1 = 7, flag0 = 7
neuron_id = 114, flag3 = 7, flag2 = 7, flag1 = 7, flag0 = 7
neuron_id = 115, flag3 = 7, flag2 = 7, flag1 = 7, flag0 = 7
neuron_id = 116, flag3 = 7, flag2 = 7, flag1 = 7, flag0 = 7
neuron_id = 117, flag3 = 7, flag2 = 7, flag1 = 7, flag0 = 7
neuron_id = 118, flag3 = 7, flag2 = 7, flag1 = 7, flag0 = 7
neuron_id = 119, flag3 = 7, flag2 = 7, flag1 = 7, flag0 = 7
neuron_id = 120, flag3 = 7, flag2 = 7, flag1 = 7, flag0 = 7
neuron_id = 121, flag3 = 7, flag2 = 7, flag1 = 7, flag0 = 7
neuron_id = 122, flag3 = 7, flag2 = 7, flag1 = 7, flag0 = 7
neuron_id = 123, flag3 = 7, flag2 = 7, flag1 = 7, flag0 = 7
neuron_id = 124, flag3 = 7, flag2 = 7, flag1 = 7, flag0 = 7
neuron_id = 125, flag3 = 7, flag2 = 7, flag1 = 7, flag0 = 7
neuron_id = 126, flag3 = 7, flag2 = 7, flag1 = 7, flag0 = 7
neuron_id = 127, flag3 = 7, flag2 = 7, flag1 = 7, flag0 = 7
neuron_id = 128, flag3 = 7, flag2 = 7, flag1 = 7, flag0 = 7
neuron_id = 129, flag3 = 7, flag2 = 7, flag1 = 7, flag0 = 7
neuron_id = 130, flag3 = 7, flag2 = 7, flag1 = 7, flag0 = 7
neuron_id = 131, flag3 = 7, flag2 = 7, flag1 = 7, flag0 = 7
neuron_id = 132, flag3 = 7, flag2 = 7, flag1 = 7, flag0 = 7
neuron_id = 133, flag3 = 7, flag2 = 7, flag1 = 7, flag0 = 7
neuron_id = 134, flag3 = 7, flag2 = 7, flag1 = 7, flag0 = 7
neuron_id = 135, flag3 = 7, flag2 = 7, flag1 = 7, flag0 = 7
neuron_id = 136, flag3 = 7, flag2 = 7, flag1 = 7, flag0 = 7
neuron_id = 137, flag3 = 7, flag2 = 7, flag1 = 7, flag0 = 7
neuron_id = 138, flag3 = 7, flag2 = 7, flag1 = 7, flag0 = 7
neuron_id = 139, flag3 = 7, flag2 = 7, flag1 = 7, flag0 = 7
neuron_id = 140, flag3 = 7, flag2 = 7, flag1 = 7, flag0 = 7
neuron_id = 141, flag3 = 7, flag2 = 7, flag1 = 7, flag0 = 7
neuron_id = 142, flag3 = 7, flag2 = 7, flag1 = 7, flag0 = 7
neuron_id = 143, flag3 = 7, flag2 = 7, flag1 = 7, flag0 = 7
neuron_id = 144, flag3 = 7, flag2 = 7, flag1 = 7, flag0 = 7
neuron_id = 145, flag3 = 7, flag2 = 7, flag1 = 7, flag0 = 7
neuron_id = 146, flag3 = 7, flag2 = 7, flag1 = 7, flag0 = 7
neuron_id = 147, flag3 = 7, flag2 = 7, flag1 = 7, flag0 = 7
neuron_id = 148, flag3 = 7, flag2 = 7, flag1 = 7, flag0 = 7
neuron_id = 149, flag3 = 7, flag2 = 7, flag1 = 7, flag0 = 7
neuron_id = 150, flag3 = 7, flag2 = 7, flag1 = 7, flag0 = 7
neuron_id = 151, flag3 = 7, flag2 = 7, flag1 = 7, flag0 = 7
neuron_id = 152, flag3 = 7, flag2 = 7, flag1 = 7, flag0 = 7
neuron_id = 153, flag3 = 7, flag2 = 7, flag1 = 7, flag0 = 7
neuron_id = 154, flag3 = 7, flag2 = 7, flag1 = 7, flag0 = 7
neuron_id = 155, flag3 = 7, flag2 = 7, flag1 = 7, flag0 = 7
neuron_id = 156, flag3 = 7, flag2 = 7, flag1 = 7, flag0 = 7
neuron_id = 157, flag3 = 7, flag2 = 7, flag1 = 7, flag0 = 7
neuron_id = 158, flag3 = 7, flag2 = 7, flag1 = 7, flag0 = 7
neuron_id = 159, flag3 = 7, flag2 = 7, flag1 = 7, flag0 = 7
neuron_id = 160, flag3 = 7, flag2 = 7, flag1 = 7, flag0 = 7
neuron_id = 161, flag3 = 7, flag2 = 7, flag1 = 7, flag0 = 7
neuron_id = 162, flag3 = 7, flag2 = 7, flag1 = 7, flag0 = 7
neuron_id = 163, flag3 = 7, flag2 = 7, flag1 = 7, flag0 = 7
neuron_id = 164, flag3 = 7, flag2 = 7, flag1 = 7, flag0 = 7
neuron_id = 165, flag3 = 7, flag2 = 7, flag1 = 7, flag0 = 7
neuron_id = 166, flag3 = 7, flag2 = 7, flag1 = 7, flag0 = 7
neuron_id = 167, flag3 = 7, flag2 = 7, flag1 = 7, flag0 = 7
neuron_id = 168, flag3 = 7, flag2 = 7, flag1 = 7, flag0 = 7
neuron_id = 169, flag3 = 7, flag2 = 7, flag1 = 7, flag0 = 7
neuron_id = 170, flag3 = 7, flag2 = 7, flag1 = 7, flag0 = 7
neuron_id = 171, flag3 = 7, flag2 = 7, flag1 = 7, flag0 = 7
neuron_id = 172, flag3 = 7, flag2 = 7, flag1 = 7, flag0 = 7
neuron_id = 173, flag3 = 7, flag2 = 7, flag1 = 7, flag0 = 7
neuron_id = 174, flag3 = 7, flag2 = 7, flag1 = 7, flag0 = 7
neuron_id = 175, flag3 = 7, flag2 = 7, flag1 = 7, flag0 = 7
neuron_id = 176, flag3 = 7, flag2 = 7, flag1 = 7, flag0 = 7
neuron_id = 177, flag3 = 7, flag2 = 7, flag1 = 7, flag0 = 7
neuron_id = 178, flag3 = 7, flag2 = 7, flag1 = 7, flag0 = 7
neuron_id = 179, flag3 = 7, flag2 = 7, flag1 = 7, flag0 = 7
neuron_id = 180, flag3 = 7, flag2 = 7, flag1 = 7, flag0 = 7
neuron_id = 181, flag3 = 7, flag2 = 7, flag1 = 7, flag0 = 7
neuron_id = 182, flag3 = 7, flag2 = 7, flag1 = 7, flag0 = 7
neuron_id = 183, flag3 = 7, flag2 = 7, flag1 = 7, flag0 = 7
neuron_id = 184, flag3 = 7, flag2 = 7, flag1 = 7, flag0 = 7
neuron_id = 185, flag3 = 7, flag2 = 7, flag1 = 7, flag0 = 7
neuron_id = 186, flag3 = 7, flag2 = 7, flag1 = 7, flag0 = 7
neuron_id = 187, flag3 = 7, flag2 = 7, flag1 = 7, flag0 = 7
neuron_id = 188, flag3 = 7, flag2 = 7, flag1 = 7, flag0 = 7
neuron_id = 189, flag3 = 7, flag2 = 7, flag1 = 7, flag0 = 7
neuron_id = 190, flag3 = 7, flag2 = 7, flag1 = 7, flag0 = 7
neuron_id = 191, flag3 = 7, flag2 = 7, flag1 = 7, flag0 = 7
neuron_id = 192, flag3 = 7, flag2 = 7, flag1 = 7, flag0 = 7
neuron_id = 193, flag3 = 7, flag2 = 7, flag1 = 7, flag0 = 7
neuron_id = 194, flag3 = 7, flag2 = 7, flag1 = 7, flag0 = 7
neuron_id = 195, flag3 = 7, flag2 = 7, flag1 = 7, flag0 = 7
neuron_id = 196, flag3 = 7, flag2 = 7, flag1 = 7, flag0 = 7
neuron_id = 197, flag3 = 7, flag2 = 7, flag1 = 7, flag0 = 7
neuron_id = 198, flag3 = 7, flag2 = 7, flag1 = 7, flag0 = 7
neuron_id = 199, flag3 = 7, flag2 = 7, flag1 = 7, flag0 = 7
neuron_id = 200, flag3 = 7, flag2 = 7, flag1 = 7, flag0 = 7
neuron_id = 201, flag3 = 7, flag2 = 7, flag1 = 7, flag0 = 7
neuron_id = 202, flag3 = 7, flag2 = 7, flag1 = 7, flag0 = 7
neuron_id = 203, flag3 = 7, flag2 = 7, flag1 = 7, flag0 = 7
neuron_id = 204, flag3 = 7, flag2 = 7, flag1 = 7, flag0 = 7
neuron_id = 205, flag3 = 7, flag2 = 7, flag1 = 7, flag0 = 7
neuron_id = 206, flag3 = 7, flag2 = 7, flag1 = 7, flag0 = 7
neuron_id = 207, flag3 = 7, flag2 = 7, flag1 = 7, flag0 = 7
neuron_id = 208, flag3 = 7, flag2 = 7, flag1 = 7, flag0 = 7
neuron_id = 209, flag3 = 7, flag2 = 7, flag1 = 7, flag0 = 7
neuron_id = 210, flag3 = 7, flag2 = 7, flag1 = 7, flag0 = 7
neuron_id = 211, flag3 = 7, flag2 = 7, flag1 = 7, flag0 = 7
neuron_id = 212, flag3 = 7, flag2 = 7, flag1 = 7, flag0 = 7
neuron_id = 213, flag3 = 7, flag2 = 7, flag1 = 7, flag0 = 7
neuron_id = 214, flag3 = 7, flag2 = 7, flag1 = 7, flag0 = 7
neuron_id = 215, flag3 = 7, flag2 = 7, flag1 = 7, flag0 = 7
neuron_id = 216, flag3 = 7, flag2 = 7, flag1 = 7, flag0 = 7
neuron_id = 217, flag3 = 7, flag2 = 7, flag1 = 7, flag0 = 7
neuron_id = 218, flag3 = 7, flag2 = 7, flag1 = 7, flag0 = 7
neuron_id = 219, flag3 = 7, flag2 = 7, flag1 = 7, flag0 = 7
neuron_id = 220, flag3 = 7, flag2 = 7, flag1 = 7, flag0 = 7
neuron_id = 221, flag3 = 7, flag2 = 7, flag1 = 7, flag0 = 7
neuron_id = 222, flag3 = 7, flag2 = 7, flag1 = 7, flag0 = 7
neuron_id = 223, flag3 = 7, flag2 = 7, flag1 = 7, flag0 = 7
neuron_id = 224, flag3 = 7, flag2 = 7, flag1 = 7, flag0 = 7
neuron_id = 225, flag3 = 7, flag2 = 7, flag1 = 7, flag0 = 7
neuron_id = 226, flag3 = 7, flag2 = 7, flag1 = 7, flag0 = 7
neuron_id = 227, flag3 = 7, flag2 = 7, flag1 = 7, flag0 = 7
neuron_id = 228, flag3 = 7, flag2 = 7, flag1 = 7, flag0 = 7
neuron_id = 229, flag3 = 7, flag2 = 7, flag1 = 7, flag0 = 7
neuron_id = 230, flag3 = 7, flag2 = 7, flag1 = 7, flag0 = 7
neuron_id = 231, flag3 = 7, flag2 = 7, flag1 = 7, flag0 = 7
neuron_id = 232, flag3 = 7, flag2 = 7, flag1 = 7, flag0 = 7
neuron_id = 233, flag3 = 7, flag2 = 7, flag1 = 7, flag0 = 7
neuron_id = 234, flag3 = 7, flag2 = 7, flag1 = 7, flag0 = 7
neuron_id = 235, flag3 = 7, flag2 = 7, flag1 = 7, flag0 = 7
neuron_id = 236, flag3 = 7, flag2 = 7, flag1 = 7, flag0 = 7
neuron_id = 237, flag3 = 7, flag2 = 7, flag1 = 7, flag0 = 7
neuron_id = 238, flag3 = 7, flag2 = 7, flag1 = 7, flag0 = 7
neuron_id = 239, flag3 = 7, flag2 = 7, flag1 = 7, flag0 = 7
neuron_id = 240, flag3 = 7, flag2 = 7, flag1 = 7, flag0 = 7
neuron_id = 241, flag3 = 7, flag2 = 7, flag1 = 7, flag0 = 7
neuron_id = 242, flag3 = 7, flag2 = 7, flag1 = 7, flag0 = 7
neuron_id = 243, flag3 = 7, flag2 = 7, flag1 = 7, flag0 = 7
neuron_id = 244, flag3 = 7, flag2 = 7, flag1 = 7, flag0 = 7
neuron_id = 245, flag3 = 7, flag2 = 7, flag1 = 7, flag0 = 7
neuron_id = 246, flag3 = 7, flag2 = 7, flag1 = 7, flag0 = 7
neuron_id = 247, flag3 = 7, flag2 = 7, flag1 = 7, flag0 = 7
neuron_id = 248, flag3 = 7, flag2 = 7, flag1 = 7, flag0 = 7
neuron_id = 249, flag3 = 7, flag2 = 7, flag1 = 7, flag0 = 7
neuron_id = 250, flag3 = 7, flag2 = 7, flag1 = 7, flag0 = 7
neuron_id = 251, flag3 = 7, flag2 = 7, flag1 = 7, flag0 = 7
neuron_id = 252, flag3 = 7, flag2 = 7, flag1 = 7, flag0 = 7
neuron_id = 253, flag3 = 7, flag2 = 7, flag1 = 7, flag0 = 7
neuron_id = 254, flag3 = 7, flag2 = 7, flag1 = 7, flag0 = 7
neuron_id = 255, flag3 = 7, flag2 = 7, flag1 = 7, flag0 = 7
