neuron_id = 0, state_value = 0, neuron_type_thr = 19, snn_ndfg = 0
neuron_id = 1, state_value = 0, neuron_type_thr = 19, snn_ndfg = 0
neuron_id = 2, state_value = 0, neuron_type_thr = 19, snn_ndfg = 0
neuron_id = 3, state_value = 0, neuron_type_thr = 19, snn_ndfg = 0
neuron_id = 4, state_value = 0, neuron_type_thr = 19, snn_ndfg = 0
neuron_id = 5, state_value = 0, neuron_type_thr = 19, snn_ndfg = 0
neuron_id = 6, state_value = 0, neuron_type_thr = 19, snn_ndfg = 0
neuron_id = 7, state_value = 0, neuron_type_thr = 19, snn_ndfg = 0
neuron_id = 8, state_value = 0, neuron_type_thr = 19, snn_ndfg = 0
neuron_id = 9, state_value = 0, neuron_type_thr = 19, snn_ndfg = 0
neuron_id = 10, state_value = 0, neuron_type_thr = 19, snn_ndfg = 0
neuron_id = 11, state_value = 0, neuron_type_thr = 19, snn_ndfg = 0
neuron_id = 12, state_value = 0, neuron_type_thr = 19, snn_ndfg = 0
neuron_id = 13, state_value = 0, neuron_type_thr = 19, snn_ndfg = 0
neuron_id = 14, state_value = 0, neuron_type_thr = 19, snn_ndfg = 0
neuron_id = 15, state_value = 0, neuron_type_thr = 19, snn_ndfg = 0
neuron_id = 16, state_value = 0, neuron_type_thr = 19, snn_ndfg = 0
neuron_id = 17, state_value = 0, neuron_type_thr = 19, snn_ndfg = 0
neuron_id = 18, state_value = 0, neuron_type_thr = 19, snn_ndfg = 0
neuron_id = 19, state_value = 0, neuron_type_thr = 19, snn_ndfg = 0
neuron_id = 20, state_value = 0, neuron_type_thr = 19, snn_ndfg = 0
neuron_id = 21, state_value = 0, neuron_type_thr = 19, snn_ndfg = 0
neuron_id = 22, state_value = 0, neuron_type_thr = 19, snn_ndfg = 0
neuron_id = 23, state_value = 0, neuron_type_thr = 19, snn_ndfg = 0
neuron_id = 24, state_value = 0, neuron_type_thr = 19, snn_ndfg = 0
neuron_id = 25, state_value = 0, neuron_type_thr = 19, snn_ndfg = 0
neuron_id = 26, state_value = 0, neuron_type_thr = 19, snn_ndfg = 0
neuron_id = 27, state_value = 0, neuron_type_thr = 19, snn_ndfg = 0
neuron_id = 28, state_value = 0, neuron_type_thr = 19, snn_ndfg = 0
neuron_id = 29, state_value = 0, neuron_type_thr = 19, snn_ndfg = 0
neuron_id = 30, state_value = 0, neuron_type_thr = 19, snn_ndfg = 0
neuron_id = 31, state_value = 0, neuron_type_thr = 19, snn_ndfg = 0
neuron_id = 32, state_value = 0, neuron_type_thr = 19, snn_ndfg = 0
neuron_id = 33, state_value = 0, neuron_type_thr = 19, snn_ndfg = 0
neuron_id = 34, state_value = 0, neuron_type_thr = 19, snn_ndfg = 0
neuron_id = 35, state_value = 0, neuron_type_thr = 19, snn_ndfg = 0
neuron_id = 36, state_value = 0, neuron_type_thr = 19, snn_ndfg = 0
neuron_id = 37, state_value = 0, neuron_type_thr = 19, snn_ndfg = 0
neuron_id = 38, state_value = 0, neuron_type_thr = 19, snn_ndfg = 0
neuron_id = 39, state_value = 0, neuron_type_thr = 19, snn_ndfg = 0
neuron_id = 40, state_value = 0, neuron_type_thr = 19, snn_ndfg = 0
neuron_id = 41, state_value = 0, neuron_type_thr = 19, snn_ndfg = 0
neuron_id = 42, state_value = 0, neuron_type_thr = 19, snn_ndfg = 0
neuron_id = 43, state_value = 0, neuron_type_thr = 19, snn_ndfg = 0
neuron_id = 44, state_value = 0, neuron_type_thr = 19, snn_ndfg = 0
neuron_id = 45, state_value = 0, neuron_type_thr = 19, snn_ndfg = 0
neuron_id = 46, state_value = 0, neuron_type_thr = 19, snn_ndfg = 0
neuron_id = 47, state_value = 0, neuron_type_thr = 19, snn_ndfg = 0
neuron_id = 48, state_value = 0, neuron_type_thr = 19, snn_ndfg = 0
neuron_id = 49, state_value = 0, neuron_type_thr = 19, snn_ndfg = 0
neuron_id = 50, state_value = 0, neuron_type_thr = 19, snn_ndfg = 0
neuron_id = 51, state_value = 0, neuron_type_thr = 19, snn_ndfg = 0
neuron_id = 52, state_value = 0, neuron_type_thr = 19, snn_ndfg = 0
neuron_id = 53, state_value = 0, neuron_type_thr = 19, snn_ndfg = 0
neuron_id = 54, state_value = 0, neuron_type_thr = 19, snn_ndfg = 0
neuron_id = 55, state_value = 0, neuron_type_thr = 19, snn_ndfg = 0
neuron_id = 56, state_value = 0, neuron_type_thr = 19, snn_ndfg = 0
neuron_id = 57, state_value = 0, neuron_type_thr = 19, snn_ndfg = 0
neuron_id = 58, state_value = 0, neuron_type_thr = 19, snn_ndfg = 0
neuron_id = 59, state_value = 0, neuron_type_thr = 19, snn_ndfg = 0
neuron_id = 60, state_value = 0, neuron_type_thr = 19, snn_ndfg = 0
neuron_id = 61, state_value = 0, neuron_type_thr = 19, snn_ndfg = 0
neuron_id = 62, state_value = 0, neuron_type_thr = 19, snn_ndfg = 0
neuron_id = 63, state_value = 0, neuron_type_thr = 19, snn_ndfg = 0
neuron_id = 64, state_value = 0, neuron_type_thr = 19, snn_ndfg = 0
neuron_id = 65, state_value = 0, neuron_type_thr = 19, snn_ndfg = 0
neuron_id = 66, state_value = 0, neuron_type_thr = 19, snn_ndfg = 0
neuron_id = 67, state_value = 0, neuron_type_thr = 19, snn_ndfg = 0
neuron_id = 68, state_value = 0, neuron_type_thr = 19, snn_ndfg = 0
neuron_id = 69, state_value = 0, neuron_type_thr = 19, snn_ndfg = 0
neuron_id = 70, state_value = 0, neuron_type_thr = 19, snn_ndfg = 0
neuron_id = 71, state_value = 0, neuron_type_thr = 19, snn_ndfg = 0
neuron_id = 72, state_value = 0, neuron_type_thr = 19, snn_ndfg = 0
neuron_id = 73, state_value = 0, neuron_type_thr = 19, snn_ndfg = 0
neuron_id = 74, state_value = 0, neuron_type_thr = 19, snn_ndfg = 0
neuron_id = 75, state_value = 0, neuron_type_thr = 19, snn_ndfg = 0
neuron_id = 76, state_value = 0, neuron_type_thr = 19, snn_ndfg = 0
neuron_id = 77, state_value = 0, neuron_type_thr = 19, snn_ndfg = 0
neuron_id = 78, state_value = 0, neuron_type_thr = 19, snn_ndfg = 0
neuron_id = 79, state_value = 0, neuron_type_thr = 19, snn_ndfg = 0
neuron_id = 80, state_value = 0, neuron_type_thr = 19, snn_ndfg = 0
neuron_id = 81, state_value = 0, neuron_type_thr = 19, snn_ndfg = 0
neuron_id = 82, state_value = 0, neuron_type_thr = 19, snn_ndfg = 0
neuron_id = 83, state_value = 0, neuron_type_thr = 19, snn_ndfg = 0
neuron_id = 84, state_value = 0, neuron_type_thr = 19, snn_ndfg = 0
neuron_id = 85, state_value = 0, neuron_type_thr = 19, snn_ndfg = 0
neuron_id = 86, state_value = 0, neuron_type_thr = 19, snn_ndfg = 0
neuron_id = 87, state_value = 0, neuron_type_thr = 19, snn_ndfg = 0
neuron_id = 88, state_value = 0, neuron_type_thr = 19, snn_ndfg = 0
neuron_id = 89, state_value = 0, neuron_type_thr = 19, snn_ndfg = 0
neuron_id = 90, state_value = 0, neuron_type_thr = 19, snn_ndfg = 0
neuron_id = 91, state_value = 0, neuron_type_thr = 19, snn_ndfg = 0
neuron_id = 92, state_value = 0, neuron_type_thr = 19, snn_ndfg = 0
neuron_id = 93, state_value = 0, neuron_type_thr = 19, snn_ndfg = 0
neuron_id = 94, state_value = 0, neuron_type_thr = 19, snn_ndfg = 0
neuron_id = 95, state_value = 0, neuron_type_thr = 19, snn_ndfg = 0
neuron_id = 96, state_value = 0, neuron_type_thr = 19, snn_ndfg = 0
neuron_id = 97, state_value = 0, neuron_type_thr = 19, snn_ndfg = 0
neuron_id = 98, state_value = 0, neuron_type_thr = 19, snn_ndfg = 0
neuron_id = 99, state_value = 0, neuron_type_thr = 19, snn_ndfg = 0
neuron_id = 100, state_value = 0, neuron_type_thr = 19, snn_ndfg = 0
neuron_id = 101, state_value = 0, neuron_type_thr = 19, snn_ndfg = 0
neuron_id = 102, state_value = 0, neuron_type_thr = 19, snn_ndfg = 0
neuron_id = 103, state_value = 0, neuron_type_thr = 19, snn_ndfg = 0
neuron_id = 104, state_value = 0, neuron_type_thr = 19, snn_ndfg = 0
neuron_id = 105, state_value = 0, neuron_type_thr = 19, snn_ndfg = 0
neuron_id = 106, state_value = 0, neuron_type_thr = 19, snn_ndfg = 0
neuron_id = 107, state_value = 0, neuron_type_thr = 19, snn_ndfg = 0
neuron_id = 108, state_value = 0, neuron_type_thr = 19, snn_ndfg = 0
neuron_id = 109, state_value = 0, neuron_type_thr = 19, snn_ndfg = 0
neuron_id = 110, state_value = 0, neuron_type_thr = 19, snn_ndfg = 0
neuron_id = 111, state_value = 0, neuron_type_thr = 19, snn_ndfg = 0
neuron_id = 112, state_value = 0, neuron_type_thr = 19, snn_ndfg = 0
neuron_id = 113, state_value = 0, neuron_type_thr = 19, snn_ndfg = 0
neuron_id = 114, state_value = 0, neuron_type_thr = 19, snn_ndfg = 0
neuron_id = 115, state_value = 0, neuron_type_thr = 19, snn_ndfg = 0
neuron_id = 116, state_value = 0, neuron_type_thr = 19, snn_ndfg = 0
neuron_id = 117, state_value = 0, neuron_type_thr = 19, snn_ndfg = 0
neuron_id = 118, state_value = 0, neuron_type_thr = 19, snn_ndfg = 0
neuron_id = 119, state_value = 0, neuron_type_thr = 19, snn_ndfg = 0
neuron_id = 120, state_value = 0, neuron_type_thr = 19, snn_ndfg = 0
neuron_id = 121, state_value = 0, neuron_type_thr = 19, snn_ndfg = 0
neuron_id = 122, state_value = 0, neuron_type_thr = 19, snn_ndfg = 0
neuron_id = 123, state_value = 0, neuron_type_thr = 19, snn_ndfg = 0
neuron_id = 124, state_value = 0, neuron_type_thr = 19, snn_ndfg = 0
neuron_id = 125, state_value = 0, neuron_type_thr = 19, snn_ndfg = 0
neuron_id = 126, state_value = 0, neuron_type_thr = 19, snn_ndfg = 0
neuron_id = 127, state_value = 0, neuron_type_thr = 19, snn_ndfg = 0
neuron_id = 128, state_value = 0, neuron_type_thr = 19, snn_ndfg = 0
neuron_id = 129, state_value = 0, neuron_type_thr = 19, snn_ndfg = 0
neuron_id = 130, state_value = 0, neuron_type_thr = 19, snn_ndfg = 0
neuron_id = 131, state_value = 0, neuron_type_thr = 19, snn_ndfg = 0
neuron_id = 132, state_value = 0, neuron_type_thr = 19, snn_ndfg = 0
neuron_id = 133, state_value = 0, neuron_type_thr = 19, snn_ndfg = 0
neuron_id = 134, state_value = 0, neuron_type_thr = 19, snn_ndfg = 0
neuron_id = 135, state_value = 0, neuron_type_thr = 19, snn_ndfg = 0
neuron_id = 136, state_value = 0, neuron_type_thr = 19, snn_ndfg = 0
neuron_id = 137, state_value = 0, neuron_type_thr = 19, snn_ndfg = 0
neuron_id = 138, state_value = 0, neuron_type_thr = 19, snn_ndfg = 0
neuron_id = 139, state_value = 0, neuron_type_thr = 19, snn_ndfg = 0
neuron_id = 140, state_value = 0, neuron_type_thr = 19, snn_ndfg = 0
neuron_id = 141, state_value = 0, neuron_type_thr = 19, snn_ndfg = 0
neuron_id = 142, state_value = 0, neuron_type_thr = 19, snn_ndfg = 0
neuron_id = 143, state_value = 0, neuron_type_thr = 19, snn_ndfg = 0
neuron_id = 144, state_value = 0, neuron_type_thr = 19, snn_ndfg = 0
neuron_id = 145, state_value = 0, neuron_type_thr = 19, snn_ndfg = 0
neuron_id = 146, state_value = 0, neuron_type_thr = 19, snn_ndfg = 0
neuron_id = 147, state_value = 0, neuron_type_thr = 19, snn_ndfg = 0
neuron_id = 148, state_value = 0, neuron_type_thr = 19, snn_ndfg = 0
neuron_id = 149, state_value = 0, neuron_type_thr = 19, snn_ndfg = 0
neuron_id = 150, state_value = 0, neuron_type_thr = 19, snn_ndfg = 0
neuron_id = 151, state_value = 0, neuron_type_thr = 19, snn_ndfg = 0
neuron_id = 152, state_value = 0, neuron_type_thr = 19, snn_ndfg = 0
neuron_id = 153, state_value = 0, neuron_type_thr = 19, snn_ndfg = 0
neuron_id = 154, state_value = 0, neuron_type_thr = 19, snn_ndfg = 0
neuron_id = 155, state_value = 0, neuron_type_thr = 19, snn_ndfg = 0
neuron_id = 156, state_value = 0, neuron_type_thr = 19, snn_ndfg = 0
neuron_id = 157, state_value = 0, neuron_type_thr = 19, snn_ndfg = 0
neuron_id = 158, state_value = 0, neuron_type_thr = 19, snn_ndfg = 0
neuron_id = 159, state_value = 0, neuron_type_thr = 19, snn_ndfg = 0
neuron_id = 160, state_value = 0, neuron_type_thr = 19, snn_ndfg = 0
neuron_id = 161, state_value = 0, neuron_type_thr = 19, snn_ndfg = 0
neuron_id = 162, state_value = 0, neuron_type_thr = 19, snn_ndfg = 0
neuron_id = 163, state_value = 0, neuron_type_thr = 19, snn_ndfg = 0
neuron_id = 164, state_value = 0, neuron_type_thr = 19, snn_ndfg = 0
neuron_id = 165, state_value = 0, neuron_type_thr = 19, snn_ndfg = 0
neuron_id = 166, state_value = 0, neuron_type_thr = 19, snn_ndfg = 0
neuron_id = 167, state_value = 0, neuron_type_thr = 19, snn_ndfg = 0
neuron_id = 168, state_value = 0, neuron_type_thr = 19, snn_ndfg = 0
neuron_id = 169, state_value = 0, neuron_type_thr = 19, snn_ndfg = 0
neuron_id = 170, state_value = 0, neuron_type_thr = 19, snn_ndfg = 0
neuron_id = 171, state_value = 0, neuron_type_thr = 19, snn_ndfg = 0
neuron_id = 172, state_value = 0, neuron_type_thr = 19, snn_ndfg = 0
neuron_id = 173, state_value = 0, neuron_type_thr = 19, snn_ndfg = 0
neuron_id = 174, state_value = 0, neuron_type_thr = 19, snn_ndfg = 0
neuron_id = 175, state_value = 0, neuron_type_thr = 19, snn_ndfg = 0
neuron_id = 176, state_value = 0, neuron_type_thr = 19, snn_ndfg = 0
neuron_id = 177, state_value = 0, neuron_type_thr = 19, snn_ndfg = 0
neuron_id = 178, state_value = 0, neuron_type_thr = 19, snn_ndfg = 0
neuron_id = 179, state_value = 0, neuron_type_thr = 19, snn_ndfg = 0
neuron_id = 180, state_value = 0, neuron_type_thr = 19, snn_ndfg = 0
neuron_id = 181, state_value = 0, neuron_type_thr = 19, snn_ndfg = 0
neuron_id = 182, state_value = 0, neuron_type_thr = 19, snn_ndfg = 0
neuron_id = 183, state_value = 0, neuron_type_thr = 19, snn_ndfg = 0
neuron_id = 184, state_value = 0, neuron_type_thr = 19, snn_ndfg = 0
neuron_id = 185, state_value = 0, neuron_type_thr = 19, snn_ndfg = 0
neuron_id = 186, state_value = 0, neuron_type_thr = 19, snn_ndfg = 0
neuron_id = 187, state_value = 0, neuron_type_thr = 19, snn_ndfg = 0
neuron_id = 188, state_value = 0, neuron_type_thr = 19, snn_ndfg = 0
neuron_id = 189, state_value = 0, neuron_type_thr = 19, snn_ndfg = 0
neuron_id = 190, state_value = 0, neuron_type_thr = 19, snn_ndfg = 0
neuron_id = 191, state_value = 0, neuron_type_thr = 19, snn_ndfg = 0
neuron_id = 192, state_value = 0, neuron_type_thr = 19, snn_ndfg = 0
neuron_id = 193, state_value = 0, neuron_type_thr = 19, snn_ndfg = 0
neuron_id = 194, state_value = 0, neuron_type_thr = 19, snn_ndfg = 0
neuron_id = 195, state_value = 0, neuron_type_thr = 19, snn_ndfg = 0
neuron_id = 196, state_value = 0, neuron_type_thr = 19, snn_ndfg = 0
neuron_id = 197, state_value = 0, neuron_type_thr = 19, snn_ndfg = 0
neuron_id = 198, state_value = 0, neuron_type_thr = 19, snn_ndfg = 0
neuron_id = 199, state_value = 0, neuron_type_thr = 19, snn_ndfg = 0
neuron_id = 200, state_value = 0, neuron_type_thr = 19, snn_ndfg = 0
neuron_id = 201, state_value = 0, neuron_type_thr = 19, snn_ndfg = 0
neuron_id = 202, state_value = 0, neuron_type_thr = 19, snn_ndfg = 0
neuron_id = 203, state_value = 0, neuron_type_thr = 19, snn_ndfg = 0
neuron_id = 204, state_value = 0, neuron_type_thr = 19, snn_ndfg = 0
neuron_id = 205, state_value = 0, neuron_type_thr = 19, snn_ndfg = 0
neuron_id = 206, state_value = 0, neuron_type_thr = 19, snn_ndfg = 0
neuron_id = 207, state_value = 0, neuron_type_thr = 19, snn_ndfg = 0
neuron_id = 208, state_value = 0, neuron_type_thr = 19, snn_ndfg = 0
neuron_id = 209, state_value = 0, neuron_type_thr = 19, snn_ndfg = 0
neuron_id = 210, state_value = 0, neuron_type_thr = 19, snn_ndfg = 0
neuron_id = 211, state_value = 0, neuron_type_thr = 19, snn_ndfg = 0
neuron_id = 212, state_value = 0, neuron_type_thr = 19, snn_ndfg = 0
neuron_id = 213, state_value = 0, neuron_type_thr = 19, snn_ndfg = 0
neuron_id = 214, state_value = 0, neuron_type_thr = 19, snn_ndfg = 0
neuron_id = 215, state_value = 0, neuron_type_thr = 19, snn_ndfg = 0
neuron_id = 216, state_value = 0, neuron_type_thr = 19, snn_ndfg = 0
neuron_id = 217, state_value = 0, neuron_type_thr = 19, snn_ndfg = 0
neuron_id = 218, state_value = 0, neuron_type_thr = 19, snn_ndfg = 0
neuron_id = 219, state_value = 0, neuron_type_thr = 19, snn_ndfg = 0
neuron_id = 220, state_value = 0, neuron_type_thr = 19, snn_ndfg = 0
neuron_id = 221, state_value = 0, neuron_type_thr = 19, snn_ndfg = 0
neuron_id = 222, state_value = 0, neuron_type_thr = 19, snn_ndfg = 0
neuron_id = 223, state_value = 0, neuron_type_thr = 19, snn_ndfg = 0
neuron_id = 224, state_value = 0, neuron_type_thr = 19, snn_ndfg = 0
neuron_id = 225, state_value = 0, neuron_type_thr = 19, snn_ndfg = 0
neuron_id = 226, state_value = 0, neuron_type_thr = 19, snn_ndfg = 0
neuron_id = 227, state_value = 0, neuron_type_thr = 19, snn_ndfg = 0
neuron_id = 228, state_value = 0, neuron_type_thr = 19, snn_ndfg = 0
neuron_id = 229, state_value = 0, neuron_type_thr = 19, snn_ndfg = 0
neuron_id = 230, state_value = 0, neuron_type_thr = 19, snn_ndfg = 0
neuron_id = 231, state_value = 0, neuron_type_thr = 19, snn_ndfg = 0
neuron_id = 232, state_value = 0, neuron_type_thr = 19, snn_ndfg = 0
neuron_id = 233, state_value = 0, neuron_type_thr = 19, snn_ndfg = 0
neuron_id = 234, state_value = 0, neuron_type_thr = 19, snn_ndfg = 0
neuron_id = 235, state_value = 0, neuron_type_thr = 19, snn_ndfg = 0
neuron_id = 236, state_value = 0, neuron_type_thr = 19, snn_ndfg = 0
neuron_id = 237, state_value = 0, neuron_type_thr = 19, snn_ndfg = 0
neuron_id = 238, state_value = 0, neuron_type_thr = 19, snn_ndfg = 0
neuron_id = 239, state_value = 0, neuron_type_thr = 19, snn_ndfg = 0
neuron_id = 240, state_value = 0, neuron_type_thr = 19, snn_ndfg = 0
neuron_id = 241, state_value = 0, neuron_type_thr = 19, snn_ndfg = 0
neuron_id = 242, state_value = 0, neuron_type_thr = 19, snn_ndfg = 0
neuron_id = 243, state_value = 0, neuron_type_thr = 19, snn_ndfg = 0
neuron_id = 244, state_value = 0, neuron_type_thr = 19, snn_ndfg = 0
neuron_id = 245, state_value = 0, neuron_type_thr = 19, snn_ndfg = 0
neuron_id = 246, state_value = 0, neuron_type_thr = 19, snn_ndfg = 0
neuron_id = 247, state_value = 0, neuron_type_thr = 19, snn_ndfg = 0
neuron_id = 248, state_value = 0, neuron_type_thr = 19, snn_ndfg = 0
neuron_id = 249, state_value = 0, neuron_type_thr = 19, snn_ndfg = 0
neuron_id = 250, state_value = 0, neuron_type_thr = 19, snn_ndfg = 0
neuron_id = 251, state_value = 0, neuron_type_thr = 19, snn_ndfg = 0
neuron_id = 252, state_value = 0, neuron_type_thr = 19, snn_ndfg = 0
neuron_id = 253, state_value = 0, neuron_type_thr = 19, snn_ndfg = 0
neuron_id = 254, state_value = 0, neuron_type_thr = 19, snn_ndfg = 0
neuron_id = 255, state_value = 0, neuron_type_thr = 19, snn_ndfg = 0
neuron_id = 256, state_value = 0, neuron_type_thr = 19, snn_ndfg = 0
neuron_id = 257, state_value = 0, neuron_type_thr = 19, snn_ndfg = 0
neuron_id = 258, state_value = 0, neuron_type_thr = 19, snn_ndfg = 0
neuron_id = 259, state_value = 0, neuron_type_thr = 19, snn_ndfg = 0
neuron_id = 260, state_value = 0, neuron_type_thr = 19, snn_ndfg = 0
neuron_id = 261, state_value = 0, neuron_type_thr = 19, snn_ndfg = 0
neuron_id = 262, state_value = 0, neuron_type_thr = 19, snn_ndfg = 0
neuron_id = 263, state_value = 0, neuron_type_thr = 19, snn_ndfg = 0
neuron_id = 264, state_value = 0, neuron_type_thr = 19, snn_ndfg = 0
neuron_id = 265, state_value = 0, neuron_type_thr = 19, snn_ndfg = 0
neuron_id = 266, state_value = 0, neuron_type_thr = 19, snn_ndfg = 0
neuron_id = 267, state_value = 0, neuron_type_thr = 19, snn_ndfg = 0
neuron_id = 268, state_value = 0, neuron_type_thr = 19, snn_ndfg = 0
neuron_id = 269, state_value = 0, neuron_type_thr = 19, snn_ndfg = 0
neuron_id = 270, state_value = 0, neuron_type_thr = 19, snn_ndfg = 0
neuron_id = 271, state_value = 0, neuron_type_thr = 19, snn_ndfg = 0
neuron_id = 272, state_value = 0, neuron_type_thr = 19, snn_ndfg = 0
neuron_id = 273, state_value = 0, neuron_type_thr = 19, snn_ndfg = 0
neuron_id = 274, state_value = 0, neuron_type_thr = 19, snn_ndfg = 0
neuron_id = 275, state_value = 0, neuron_type_thr = 19, snn_ndfg = 0
neuron_id = 276, state_value = 0, neuron_type_thr = 19, snn_ndfg = 0
neuron_id = 277, state_value = 0, neuron_type_thr = 19, snn_ndfg = 0
neuron_id = 278, state_value = 0, neuron_type_thr = 19, snn_ndfg = 0
neuron_id = 279, state_value = 0, neuron_type_thr = 19, snn_ndfg = 0
neuron_id = 280, state_value = 0, neuron_type_thr = 19, snn_ndfg = 0
neuron_id = 281, state_value = 0, neuron_type_thr = 19, snn_ndfg = 0
neuron_id = 282, state_value = 0, neuron_type_thr = 19, snn_ndfg = 0
neuron_id = 283, state_value = 0, neuron_type_thr = 19, snn_ndfg = 0
neuron_id = 284, state_value = 0, neuron_type_thr = 19, snn_ndfg = 0
neuron_id = 285, state_value = 0, neuron_type_thr = 19, snn_ndfg = 0
neuron_id = 286, state_value = 0, neuron_type_thr = 19, snn_ndfg = 0
neuron_id = 287, state_value = 0, neuron_type_thr = 19, snn_ndfg = 0
neuron_id = 288, state_value = 0, neuron_type_thr = 19, snn_ndfg = 0
neuron_id = 289, state_value = 0, neuron_type_thr = 19, snn_ndfg = 0
neuron_id = 290, state_value = 0, neuron_type_thr = 19, snn_ndfg = 0
neuron_id = 291, state_value = 0, neuron_type_thr = 19, snn_ndfg = 0
neuron_id = 292, state_value = 0, neuron_type_thr = 19, snn_ndfg = 0
neuron_id = 293, state_value = 0, neuron_type_thr = 19, snn_ndfg = 0
neuron_id = 294, state_value = 0, neuron_type_thr = 19, snn_ndfg = 0
neuron_id = 295, state_value = 0, neuron_type_thr = 19, snn_ndfg = 0
neuron_id = 296, state_value = 0, neuron_type_thr = 19, snn_ndfg = 0
neuron_id = 297, state_value = 0, neuron_type_thr = 19, snn_ndfg = 0
neuron_id = 298, state_value = 0, neuron_type_thr = 19, snn_ndfg = 0
neuron_id = 299, state_value = 0, neuron_type_thr = 19, snn_ndfg = 0
neuron_id = 300, state_value = 0, neuron_type_thr = 19, snn_ndfg = 0
neuron_id = 301, state_value = 0, neuron_type_thr = 19, snn_ndfg = 0
neuron_id = 302, state_value = 0, neuron_type_thr = 19, snn_ndfg = 0
neuron_id = 303, state_value = 0, neuron_type_thr = 19, snn_ndfg = 0
neuron_id = 304, state_value = 0, neuron_type_thr = 19, snn_ndfg = 0
neuron_id = 305, state_value = 0, neuron_type_thr = 19, snn_ndfg = 0
neuron_id = 306, state_value = 0, neuron_type_thr = 19, snn_ndfg = 0
neuron_id = 307, state_value = 0, neuron_type_thr = 19, snn_ndfg = 0
neuron_id = 308, state_value = 0, neuron_type_thr = 19, snn_ndfg = 0
neuron_id = 309, state_value = 0, neuron_type_thr = 19, snn_ndfg = 0
neuron_id = 310, state_value = 0, neuron_type_thr = 19, snn_ndfg = 0
neuron_id = 311, state_value = 0, neuron_type_thr = 19, snn_ndfg = 0
neuron_id = 312, state_value = 0, neuron_type_thr = 19, snn_ndfg = 0
neuron_id = 313, state_value = 0, neuron_type_thr = 19, snn_ndfg = 0
neuron_id = 314, state_value = 0, neuron_type_thr = 19, snn_ndfg = 0
neuron_id = 315, state_value = 0, neuron_type_thr = 19, snn_ndfg = 0
neuron_id = 316, state_value = 0, neuron_type_thr = 19, snn_ndfg = 0
neuron_id = 317, state_value = 0, neuron_type_thr = 19, snn_ndfg = 0
neuron_id = 318, state_value = 0, neuron_type_thr = 19, snn_ndfg = 0
neuron_id = 319, state_value = 0, neuron_type_thr = 19, snn_ndfg = 0
neuron_id = 320, state_value = 0, neuron_type_thr = 19, snn_ndfg = 0
neuron_id = 321, state_value = 0, neuron_type_thr = 19, snn_ndfg = 0
neuron_id = 322, state_value = 0, neuron_type_thr = 19, snn_ndfg = 0
neuron_id = 323, state_value = 0, neuron_type_thr = 19, snn_ndfg = 0
neuron_id = 324, state_value = 0, neuron_type_thr = 19, snn_ndfg = 0
neuron_id = 325, state_value = 0, neuron_type_thr = 19, snn_ndfg = 0
neuron_id = 326, state_value = 0, neuron_type_thr = 19, snn_ndfg = 0
neuron_id = 327, state_value = 0, neuron_type_thr = 19, snn_ndfg = 0
neuron_id = 328, state_value = 0, neuron_type_thr = 19, snn_ndfg = 0
neuron_id = 329, state_value = 0, neuron_type_thr = 19, snn_ndfg = 0
neuron_id = 330, state_value = 0, neuron_type_thr = 19, snn_ndfg = 0
neuron_id = 331, state_value = 0, neuron_type_thr = 19, snn_ndfg = 0
neuron_id = 332, state_value = 0, neuron_type_thr = 19, snn_ndfg = 0
neuron_id = 333, state_value = 0, neuron_type_thr = 19, snn_ndfg = 0
neuron_id = 334, state_value = 0, neuron_type_thr = 19, snn_ndfg = 0
neuron_id = 335, state_value = 0, neuron_type_thr = 19, snn_ndfg = 0
neuron_id = 336, state_value = 0, neuron_type_thr = 19, snn_ndfg = 0
neuron_id = 337, state_value = 0, neuron_type_thr = 19, snn_ndfg = 0
neuron_id = 338, state_value = 0, neuron_type_thr = 19, snn_ndfg = 0
neuron_id = 339, state_value = 0, neuron_type_thr = 19, snn_ndfg = 0
neuron_id = 340, state_value = 0, neuron_type_thr = 19, snn_ndfg = 0
neuron_id = 341, state_value = 0, neuron_type_thr = 19, snn_ndfg = 0
neuron_id = 342, state_value = 0, neuron_type_thr = 19, snn_ndfg = 0
neuron_id = 343, state_value = 0, neuron_type_thr = 19, snn_ndfg = 0
neuron_id = 344, state_value = 0, neuron_type_thr = 19, snn_ndfg = 0
neuron_id = 345, state_value = 0, neuron_type_thr = 19, snn_ndfg = 0
neuron_id = 346, state_value = 0, neuron_type_thr = 19, snn_ndfg = 0
neuron_id = 347, state_value = 0, neuron_type_thr = 19, snn_ndfg = 0
neuron_id = 348, state_value = 0, neuron_type_thr = 19, snn_ndfg = 0
neuron_id = 349, state_value = 0, neuron_type_thr = 19, snn_ndfg = 0
neuron_id = 350, state_value = 0, neuron_type_thr = 19, snn_ndfg = 0
neuron_id = 351, state_value = 0, neuron_type_thr = 19, snn_ndfg = 0
neuron_id = 352, state_value = 0, neuron_type_thr = 19, snn_ndfg = 0
neuron_id = 353, state_value = 0, neuron_type_thr = 19, snn_ndfg = 0
neuron_id = 354, state_value = 0, neuron_type_thr = 19, snn_ndfg = 0
neuron_id = 355, state_value = 0, neuron_type_thr = 19, snn_ndfg = 0
neuron_id = 356, state_value = 0, neuron_type_thr = 19, snn_ndfg = 0
neuron_id = 357, state_value = 0, neuron_type_thr = 19, snn_ndfg = 0
neuron_id = 358, state_value = 0, neuron_type_thr = 19, snn_ndfg = 0
neuron_id = 359, state_value = 0, neuron_type_thr = 19, snn_ndfg = 0
neuron_id = 360, state_value = 0, neuron_type_thr = 19, snn_ndfg = 0
neuron_id = 361, state_value = 0, neuron_type_thr = 19, snn_ndfg = 0
neuron_id = 362, state_value = 0, neuron_type_thr = 19, snn_ndfg = 0
neuron_id = 363, state_value = 0, neuron_type_thr = 19, snn_ndfg = 0
neuron_id = 364, state_value = 0, neuron_type_thr = 19, snn_ndfg = 0
neuron_id = 365, state_value = 0, neuron_type_thr = 19, snn_ndfg = 0
neuron_id = 366, state_value = 0, neuron_type_thr = 19, snn_ndfg = 0
neuron_id = 367, state_value = 0, neuron_type_thr = 19, snn_ndfg = 0
neuron_id = 368, state_value = 0, neuron_type_thr = 19, snn_ndfg = 0
neuron_id = 369, state_value = 0, neuron_type_thr = 19, snn_ndfg = 0
neuron_id = 370, state_value = 0, neuron_type_thr = 19, snn_ndfg = 0
neuron_id = 371, state_value = 0, neuron_type_thr = 19, snn_ndfg = 0
neuron_id = 372, state_value = 0, neuron_type_thr = 19, snn_ndfg = 0
neuron_id = 373, state_value = 0, neuron_type_thr = 19, snn_ndfg = 0
neuron_id = 374, state_value = 0, neuron_type_thr = 19, snn_ndfg = 0
neuron_id = 375, state_value = 0, neuron_type_thr = 19, snn_ndfg = 0
neuron_id = 376, state_value = 0, neuron_type_thr = 19, snn_ndfg = 0
neuron_id = 377, state_value = 0, neuron_type_thr = 19, snn_ndfg = 0
neuron_id = 378, state_value = 0, neuron_type_thr = 19, snn_ndfg = 0
neuron_id = 379, state_value = 0, neuron_type_thr = 19, snn_ndfg = 0
neuron_id = 380, state_value = 0, neuron_type_thr = 19, snn_ndfg = 0
neuron_id = 381, state_value = 0, neuron_type_thr = 19, snn_ndfg = 0
neuron_id = 382, state_value = 0, neuron_type_thr = 19, snn_ndfg = 0
neuron_id = 383, state_value = 0, neuron_type_thr = 19, snn_ndfg = 0
neuron_id = 384, state_value = 0, neuron_type_thr = 19, snn_ndfg = 0
neuron_id = 385, state_value = 0, neuron_type_thr = 19, snn_ndfg = 0
neuron_id = 386, state_value = 0, neuron_type_thr = 19, snn_ndfg = 0
neuron_id = 387, state_value = 0, neuron_type_thr = 19, snn_ndfg = 0
neuron_id = 388, state_value = 0, neuron_type_thr = 19, snn_ndfg = 0
neuron_id = 389, state_value = 0, neuron_type_thr = 19, snn_ndfg = 0
neuron_id = 390, state_value = 0, neuron_type_thr = 19, snn_ndfg = 0
neuron_id = 391, state_value = 0, neuron_type_thr = 19, snn_ndfg = 0
neuron_id = 392, state_value = 0, neuron_type_thr = 19, snn_ndfg = 0
neuron_id = 393, state_value = 0, neuron_type_thr = 19, snn_ndfg = 0
neuron_id = 394, state_value = 0, neuron_type_thr = 19, snn_ndfg = 0
neuron_id = 395, state_value = 0, neuron_type_thr = 19, snn_ndfg = 0
neuron_id = 396, state_value = 0, neuron_type_thr = 19, snn_ndfg = 0
neuron_id = 397, state_value = 0, neuron_type_thr = 19, snn_ndfg = 0
neuron_id = 398, state_value = 0, neuron_type_thr = 19, snn_ndfg = 0
neuron_id = 399, state_value = 0, neuron_type_thr = 19, snn_ndfg = 0
neuron_id = 400, state_value = 0, neuron_type_thr = 19, snn_ndfg = 0
neuron_id = 401, state_value = 0, neuron_type_thr = 19, snn_ndfg = 0
neuron_id = 402, state_value = 0, neuron_type_thr = 19, snn_ndfg = 0
neuron_id = 403, state_value = 0, neuron_type_thr = 19, snn_ndfg = 0
neuron_id = 404, state_value = 0, neuron_type_thr = 19, snn_ndfg = 0
neuron_id = 405, state_value = 0, neuron_type_thr = 19, snn_ndfg = 0
neuron_id = 406, state_value = 0, neuron_type_thr = 19, snn_ndfg = 0
neuron_id = 407, state_value = 0, neuron_type_thr = 19, snn_ndfg = 0
neuron_id = 408, state_value = 0, neuron_type_thr = 19, snn_ndfg = 0
neuron_id = 409, state_value = 0, neuron_type_thr = 19, snn_ndfg = 0
neuron_id = 410, state_value = 0, neuron_type_thr = 19, snn_ndfg = 0
neuron_id = 411, state_value = 0, neuron_type_thr = 19, snn_ndfg = 0
neuron_id = 412, state_value = 0, neuron_type_thr = 19, snn_ndfg = 0
neuron_id = 413, state_value = 0, neuron_type_thr = 19, snn_ndfg = 0
neuron_id = 414, state_value = 0, neuron_type_thr = 19, snn_ndfg = 0
neuron_id = 415, state_value = 0, neuron_type_thr = 19, snn_ndfg = 0
neuron_id = 416, state_value = 0, neuron_type_thr = 19, snn_ndfg = 0
neuron_id = 417, state_value = 0, neuron_type_thr = 19, snn_ndfg = 0
neuron_id = 418, state_value = 0, neuron_type_thr = 19, snn_ndfg = 0
neuron_id = 419, state_value = 0, neuron_type_thr = 19, snn_ndfg = 0
neuron_id = 420, state_value = 0, neuron_type_thr = 19, snn_ndfg = 0
neuron_id = 421, state_value = 0, neuron_type_thr = 19, snn_ndfg = 0
neuron_id = 422, state_value = 0, neuron_type_thr = 19, snn_ndfg = 0
neuron_id = 423, state_value = 0, neuron_type_thr = 19, snn_ndfg = 0
neuron_id = 424, state_value = 0, neuron_type_thr = 19, snn_ndfg = 0
neuron_id = 425, state_value = 0, neuron_type_thr = 19, snn_ndfg = 0
neuron_id = 426, state_value = 0, neuron_type_thr = 19, snn_ndfg = 0
neuron_id = 427, state_value = 0, neuron_type_thr = 19, snn_ndfg = 0
neuron_id = 428, state_value = 0, neuron_type_thr = 19, snn_ndfg = 0
neuron_id = 429, state_value = 0, neuron_type_thr = 19, snn_ndfg = 0
neuron_id = 430, state_value = 0, neuron_type_thr = 19, snn_ndfg = 0
neuron_id = 431, state_value = 0, neuron_type_thr = 19, snn_ndfg = 0
neuron_id = 432, state_value = 0, neuron_type_thr = 19, snn_ndfg = 0
neuron_id = 433, state_value = 0, neuron_type_thr = 19, snn_ndfg = 0
neuron_id = 434, state_value = 0, neuron_type_thr = 19, snn_ndfg = 0
neuron_id = 435, state_value = 0, neuron_type_thr = 19, snn_ndfg = 0
neuron_id = 436, state_value = 0, neuron_type_thr = 19, snn_ndfg = 0
neuron_id = 437, state_value = 0, neuron_type_thr = 19, snn_ndfg = 0
neuron_id = 438, state_value = 0, neuron_type_thr = 19, snn_ndfg = 0
neuron_id = 439, state_value = 0, neuron_type_thr = 19, snn_ndfg = 0
neuron_id = 440, state_value = 0, neuron_type_thr = 19, snn_ndfg = 0
neuron_id = 441, state_value = 0, neuron_type_thr = 19, snn_ndfg = 0
neuron_id = 442, state_value = 0, neuron_type_thr = 19, snn_ndfg = 0
neuron_id = 443, state_value = 0, neuron_type_thr = 19, snn_ndfg = 0
neuron_id = 444, state_value = 0, neuron_type_thr = 19, snn_ndfg = 0
neuron_id = 445, state_value = 0, neuron_type_thr = 19, snn_ndfg = 0
neuron_id = 446, state_value = 0, neuron_type_thr = 19, snn_ndfg = 0
neuron_id = 447, state_value = 0, neuron_type_thr = 19, snn_ndfg = 0
neuron_id = 448, state_value = 0, neuron_type_thr = 19, snn_ndfg = 0
neuron_id = 449, state_value = 0, neuron_type_thr = 19, snn_ndfg = 0
neuron_id = 450, state_value = 0, neuron_type_thr = 19, snn_ndfg = 0
neuron_id = 451, state_value = 0, neuron_type_thr = 19, snn_ndfg = 0
neuron_id = 452, state_value = 0, neuron_type_thr = 19, snn_ndfg = 0
neuron_id = 453, state_value = 0, neuron_type_thr = 19, snn_ndfg = 0
neuron_id = 454, state_value = 0, neuron_type_thr = 19, snn_ndfg = 0
neuron_id = 455, state_value = 0, neuron_type_thr = 19, snn_ndfg = 0
neuron_id = 456, state_value = 0, neuron_type_thr = 19, snn_ndfg = 0
neuron_id = 457, state_value = 0, neuron_type_thr = 19, snn_ndfg = 0
neuron_id = 458, state_value = 0, neuron_type_thr = 19, snn_ndfg = 0
neuron_id = 459, state_value = 0, neuron_type_thr = 19, snn_ndfg = 0
neuron_id = 460, state_value = 0, neuron_type_thr = 19, snn_ndfg = 0
neuron_id = 461, state_value = 0, neuron_type_thr = 19, snn_ndfg = 0
neuron_id = 462, state_value = 0, neuron_type_thr = 19, snn_ndfg = 0
neuron_id = 463, state_value = 0, neuron_type_thr = 19, snn_ndfg = 0
neuron_id = 464, state_value = 0, neuron_type_thr = 19, snn_ndfg = 0
neuron_id = 465, state_value = 0, neuron_type_thr = 19, snn_ndfg = 0
neuron_id = 466, state_value = 0, neuron_type_thr = 19, snn_ndfg = 0
neuron_id = 467, state_value = 0, neuron_type_thr = 19, snn_ndfg = 0
neuron_id = 468, state_value = 0, neuron_type_thr = 19, snn_ndfg = 0
neuron_id = 469, state_value = 0, neuron_type_thr = 19, snn_ndfg = 0
neuron_id = 470, state_value = 0, neuron_type_thr = 19, snn_ndfg = 0
neuron_id = 471, state_value = 0, neuron_type_thr = 19, snn_ndfg = 0
neuron_id = 472, state_value = 0, neuron_type_thr = 19, snn_ndfg = 0
neuron_id = 473, state_value = 0, neuron_type_thr = 19, snn_ndfg = 0
neuron_id = 474, state_value = 0, neuron_type_thr = 19, snn_ndfg = 0
neuron_id = 475, state_value = 0, neuron_type_thr = 19, snn_ndfg = 0
neuron_id = 476, state_value = 0, neuron_type_thr = 19, snn_ndfg = 0
neuron_id = 477, state_value = 0, neuron_type_thr = 19, snn_ndfg = 0
neuron_id = 478, state_value = 0, neuron_type_thr = 19, snn_ndfg = 0
neuron_id = 479, state_value = 0, neuron_type_thr = 19, snn_ndfg = 0
neuron_id = 480, state_value = 0, neuron_type_thr = 19, snn_ndfg = 0
neuron_id = 481, state_value = 0, neuron_type_thr = 19, snn_ndfg = 0
neuron_id = 482, state_value = 0, neuron_type_thr = 19, snn_ndfg = 0
neuron_id = 483, state_value = 0, neuron_type_thr = 19, snn_ndfg = 0
neuron_id = 484, state_value = 0, neuron_type_thr = 19, snn_ndfg = 0
neuron_id = 485, state_value = 0, neuron_type_thr = 19, snn_ndfg = 0
neuron_id = 486, state_value = 0, neuron_type_thr = 19, snn_ndfg = 0
neuron_id = 487, state_value = 0, neuron_type_thr = 19, snn_ndfg = 0
neuron_id = 488, state_value = 0, neuron_type_thr = 19, snn_ndfg = 0
neuron_id = 489, state_value = 0, neuron_type_thr = 19, snn_ndfg = 0
neuron_id = 490, state_value = 0, neuron_type_thr = 19, snn_ndfg = 0
neuron_id = 491, state_value = 0, neuron_type_thr = 19, snn_ndfg = 0
neuron_id = 492, state_value = 0, neuron_type_thr = 19, snn_ndfg = 0
neuron_id = 493, state_value = 0, neuron_type_thr = 19, snn_ndfg = 0
neuron_id = 494, state_value = 0, neuron_type_thr = 19, snn_ndfg = 0
neuron_id = 495, state_value = 0, neuron_type_thr = 19, snn_ndfg = 0
neuron_id = 496, state_value = 0, neuron_type_thr = 19, snn_ndfg = 0
neuron_id = 497, state_value = 0, neuron_type_thr = 19, snn_ndfg = 0
neuron_id = 498, state_value = 0, neuron_type_thr = 19, snn_ndfg = 0
neuron_id = 499, state_value = 0, neuron_type_thr = 19, snn_ndfg = 0
neuron_id = 500, state_value = 0, neuron_type_thr = 19, snn_ndfg = 0
neuron_id = 501, state_value = 0, neuron_type_thr = 19, snn_ndfg = 0
neuron_id = 502, state_value = 0, neuron_type_thr = 19, snn_ndfg = 0
neuron_id = 503, state_value = 0, neuron_type_thr = 19, snn_ndfg = 0
neuron_id = 504, state_value = 0, neuron_type_thr = 19, snn_ndfg = 0
neuron_id = 505, state_value = 0, neuron_type_thr = 19, snn_ndfg = 0
neuron_id = 506, state_value = 0, neuron_type_thr = 19, snn_ndfg = 0
neuron_id = 507, state_value = 0, neuron_type_thr = 19, snn_ndfg = 0
neuron_id = 508, state_value = 0, neuron_type_thr = 19, snn_ndfg = 0
neuron_id = 509, state_value = 0, neuron_type_thr = 19, snn_ndfg = 0
neuron_id = 510, state_value = 0, neuron_type_thr = 19, snn_ndfg = 0
neuron_id = 511, state_value = 0, neuron_type_thr = 19, snn_ndfg = 0
neuron_id = 512, state_value = 0, neuron_type_thr = 19, snn_ndfg = 0
neuron_id = 513, state_value = 0, neuron_type_thr = 19, snn_ndfg = 0
neuron_id = 514, state_value = 0, neuron_type_thr = 19, snn_ndfg = 0
neuron_id = 515, state_value = 0, neuron_type_thr = 19, snn_ndfg = 0
neuron_id = 516, state_value = 0, neuron_type_thr = 19, snn_ndfg = 0
neuron_id = 517, state_value = 0, neuron_type_thr = 19, snn_ndfg = 0
neuron_id = 518, state_value = 0, neuron_type_thr = 19, snn_ndfg = 0
neuron_id = 519, state_value = 0, neuron_type_thr = 19, snn_ndfg = 0
neuron_id = 520, state_value = 0, neuron_type_thr = 19, snn_ndfg = 0
neuron_id = 521, state_value = 0, neuron_type_thr = 19, snn_ndfg = 0
neuron_id = 522, state_value = 0, neuron_type_thr = 19, snn_ndfg = 0
neuron_id = 523, state_value = 0, neuron_type_thr = 19, snn_ndfg = 0
neuron_id = 524, state_value = 0, neuron_type_thr = 19, snn_ndfg = 0
neuron_id = 525, state_value = 0, neuron_type_thr = 19, snn_ndfg = 0
neuron_id = 526, state_value = 0, neuron_type_thr = 19, snn_ndfg = 0
neuron_id = 527, state_value = 0, neuron_type_thr = 19, snn_ndfg = 0
neuron_id = 528, state_value = 0, neuron_type_thr = 19, snn_ndfg = 0
neuron_id = 529, state_value = 0, neuron_type_thr = 19, snn_ndfg = 0
neuron_id = 530, state_value = 0, neuron_type_thr = 19, snn_ndfg = 0
neuron_id = 531, state_value = 0, neuron_type_thr = 19, snn_ndfg = 0
neuron_id = 532, state_value = 0, neuron_type_thr = 19, snn_ndfg = 0
neuron_id = 533, state_value = 0, neuron_type_thr = 19, snn_ndfg = 0
neuron_id = 534, state_value = 0, neuron_type_thr = 19, snn_ndfg = 0
neuron_id = 535, state_value = 0, neuron_type_thr = 19, snn_ndfg = 0
neuron_id = 536, state_value = 0, neuron_type_thr = 19, snn_ndfg = 0
neuron_id = 537, state_value = 0, neuron_type_thr = 19, snn_ndfg = 0
neuron_id = 538, state_value = 0, neuron_type_thr = 19, snn_ndfg = 0
neuron_id = 539, state_value = 0, neuron_type_thr = 19, snn_ndfg = 0
neuron_id = 540, state_value = 0, neuron_type_thr = 19, snn_ndfg = 0
neuron_id = 541, state_value = 0, neuron_type_thr = 19, snn_ndfg = 0
neuron_id = 542, state_value = 0, neuron_type_thr = 19, snn_ndfg = 0
neuron_id = 543, state_value = 0, neuron_type_thr = 19, snn_ndfg = 0
neuron_id = 544, state_value = 0, neuron_type_thr = 19, snn_ndfg = 0
neuron_id = 545, state_value = 0, neuron_type_thr = 19, snn_ndfg = 0
neuron_id = 546, state_value = 0, neuron_type_thr = 19, snn_ndfg = 0
neuron_id = 547, state_value = 0, neuron_type_thr = 19, snn_ndfg = 0
neuron_id = 548, state_value = 0, neuron_type_thr = 19, snn_ndfg = 0
neuron_id = 549, state_value = 0, neuron_type_thr = 19, snn_ndfg = 0
neuron_id = 550, state_value = 0, neuron_type_thr = 19, snn_ndfg = 0
neuron_id = 551, state_value = 0, neuron_type_thr = 19, snn_ndfg = 0
neuron_id = 552, state_value = 0, neuron_type_thr = 19, snn_ndfg = 0
neuron_id = 553, state_value = 0, neuron_type_thr = 19, snn_ndfg = 0
neuron_id = 554, state_value = 0, neuron_type_thr = 19, snn_ndfg = 0
neuron_id = 555, state_value = 0, neuron_type_thr = 19, snn_ndfg = 0
neuron_id = 556, state_value = 0, neuron_type_thr = 19, snn_ndfg = 0
neuron_id = 557, state_value = 0, neuron_type_thr = 19, snn_ndfg = 0
neuron_id = 558, state_value = 0, neuron_type_thr = 19, snn_ndfg = 0
neuron_id = 559, state_value = 0, neuron_type_thr = 19, snn_ndfg = 0
neuron_id = 560, state_value = 0, neuron_type_thr = 19, snn_ndfg = 0
neuron_id = 561, state_value = 0, neuron_type_thr = 19, snn_ndfg = 0
neuron_id = 562, state_value = 0, neuron_type_thr = 19, snn_ndfg = 0
neuron_id = 563, state_value = 0, neuron_type_thr = 19, snn_ndfg = 0
neuron_id = 564, state_value = 0, neuron_type_thr = 19, snn_ndfg = 0
neuron_id = 565, state_value = 0, neuron_type_thr = 19, snn_ndfg = 0
neuron_id = 566, state_value = 0, neuron_type_thr = 19, snn_ndfg = 0
neuron_id = 567, state_value = 0, neuron_type_thr = 19, snn_ndfg = 0
neuron_id = 568, state_value = 0, neuron_type_thr = 19, snn_ndfg = 0
neuron_id = 569, state_value = 0, neuron_type_thr = 19, snn_ndfg = 0
neuron_id = 570, state_value = 0, neuron_type_thr = 19, snn_ndfg = 0
neuron_id = 571, state_value = 0, neuron_type_thr = 19, snn_ndfg = 0
neuron_id = 572, state_value = 0, neuron_type_thr = 19, snn_ndfg = 0
neuron_id = 573, state_value = 0, neuron_type_thr = 19, snn_ndfg = 0
neuron_id = 574, state_value = 0, neuron_type_thr = 19, snn_ndfg = 0
neuron_id = 575, state_value = 0, neuron_type_thr = 19, snn_ndfg = 0
neuron_id = 576, state_value = 0, neuron_type_thr = 19, snn_ndfg = 0
neuron_id = 577, state_value = 0, neuron_type_thr = 19, snn_ndfg = 0
neuron_id = 578, state_value = 0, neuron_type_thr = 19, snn_ndfg = 0
neuron_id = 579, state_value = 0, neuron_type_thr = 19, snn_ndfg = 0
neuron_id = 580, state_value = 0, neuron_type_thr = 19, snn_ndfg = 0
neuron_id = 581, state_value = 0, neuron_type_thr = 19, snn_ndfg = 0
neuron_id = 582, state_value = 0, neuron_type_thr = 19, snn_ndfg = 0
neuron_id = 583, state_value = 0, neuron_type_thr = 19, snn_ndfg = 0
neuron_id = 584, state_value = 0, neuron_type_thr = 19, snn_ndfg = 0
neuron_id = 585, state_value = 0, neuron_type_thr = 19, snn_ndfg = 0
neuron_id = 586, state_value = 0, neuron_type_thr = 19, snn_ndfg = 0
neuron_id = 587, state_value = 0, neuron_type_thr = 19, snn_ndfg = 0
neuron_id = 588, state_value = 0, neuron_type_thr = 19, snn_ndfg = 0
neuron_id = 589, state_value = 0, neuron_type_thr = 19, snn_ndfg = 0
neuron_id = 590, state_value = 0, neuron_type_thr = 19, snn_ndfg = 0
neuron_id = 591, state_value = 0, neuron_type_thr = 19, snn_ndfg = 0
neuron_id = 592, state_value = 0, neuron_type_thr = 19, snn_ndfg = 0
neuron_id = 593, state_value = 0, neuron_type_thr = 19, snn_ndfg = 0
neuron_id = 594, state_value = 0, neuron_type_thr = 19, snn_ndfg = 0
neuron_id = 595, state_value = 0, neuron_type_thr = 19, snn_ndfg = 0
neuron_id = 596, state_value = 0, neuron_type_thr = 19, snn_ndfg = 0
neuron_id = 597, state_value = 0, neuron_type_thr = 19, snn_ndfg = 0
neuron_id = 598, state_value = 0, neuron_type_thr = 19, snn_ndfg = 0
neuron_id = 599, state_value = 0, neuron_type_thr = 19, snn_ndfg = 0
neuron_id = 600, state_value = 0, neuron_type_thr = 19, snn_ndfg = 0
neuron_id = 601, state_value = 0, neuron_type_thr = 19, snn_ndfg = 0
neuron_id = 602, state_value = 0, neuron_type_thr = 19, snn_ndfg = 0
neuron_id = 603, state_value = 0, neuron_type_thr = 19, snn_ndfg = 0
neuron_id = 604, state_value = 0, neuron_type_thr = 19, snn_ndfg = 0
neuron_id = 605, state_value = 0, neuron_type_thr = 19, snn_ndfg = 0
neuron_id = 606, state_value = 0, neuron_type_thr = 19, snn_ndfg = 0
neuron_id = 607, state_value = 0, neuron_type_thr = 19, snn_ndfg = 0
neuron_id = 608, state_value = 0, neuron_type_thr = 19, snn_ndfg = 0
neuron_id = 609, state_value = 0, neuron_type_thr = 19, snn_ndfg = 0
neuron_id = 610, state_value = 0, neuron_type_thr = 19, snn_ndfg = 0
neuron_id = 611, state_value = 0, neuron_type_thr = 19, snn_ndfg = 0
neuron_id = 612, state_value = 0, neuron_type_thr = 19, snn_ndfg = 0
neuron_id = 613, state_value = 0, neuron_type_thr = 19, snn_ndfg = 0
neuron_id = 614, state_value = 0, neuron_type_thr = 19, snn_ndfg = 0
neuron_id = 615, state_value = 0, neuron_type_thr = 19, snn_ndfg = 0
neuron_id = 616, state_value = 0, neuron_type_thr = 19, snn_ndfg = 0
neuron_id = 617, state_value = 0, neuron_type_thr = 19, snn_ndfg = 0
neuron_id = 618, state_value = 0, neuron_type_thr = 19, snn_ndfg = 0
neuron_id = 619, state_value = 0, neuron_type_thr = 19, snn_ndfg = 0
neuron_id = 620, state_value = 0, neuron_type_thr = 19, snn_ndfg = 0
neuron_id = 621, state_value = 0, neuron_type_thr = 19, snn_ndfg = 0
neuron_id = 622, state_value = 0, neuron_type_thr = 19, snn_ndfg = 0
neuron_id = 623, state_value = 0, neuron_type_thr = 19, snn_ndfg = 0
neuron_id = 624, state_value = 0, neuron_type_thr = 19, snn_ndfg = 0
neuron_id = 625, state_value = 0, neuron_type_thr = 19, snn_ndfg = 0
neuron_id = 626, state_value = 0, neuron_type_thr = 19, snn_ndfg = 0
neuron_id = 627, state_value = 0, neuron_type_thr = 19, snn_ndfg = 0
neuron_id = 628, state_value = 0, neuron_type_thr = 19, snn_ndfg = 0
neuron_id = 629, state_value = 0, neuron_type_thr = 19, snn_ndfg = 0
neuron_id = 630, state_value = 0, neuron_type_thr = 19, snn_ndfg = 0
neuron_id = 631, state_value = 0, neuron_type_thr = 19, snn_ndfg = 0
neuron_id = 632, state_value = 0, neuron_type_thr = 19, snn_ndfg = 0
neuron_id = 633, state_value = 0, neuron_type_thr = 19, snn_ndfg = 0
neuron_id = 634, state_value = 0, neuron_type_thr = 19, snn_ndfg = 0
neuron_id = 635, state_value = 0, neuron_type_thr = 19, snn_ndfg = 0
neuron_id = 636, state_value = 0, neuron_type_thr = 19, snn_ndfg = 0
neuron_id = 637, state_value = 0, neuron_type_thr = 19, snn_ndfg = 0
neuron_id = 638, state_value = 0, neuron_type_thr = 19, snn_ndfg = 0
neuron_id = 639, state_value = 0, neuron_type_thr = 19, snn_ndfg = 0
neuron_id = 640, state_value = 0, neuron_type_thr = 19, snn_ndfg = 0
neuron_id = 641, state_value = 0, neuron_type_thr = 19, snn_ndfg = 0
neuron_id = 642, state_value = 0, neuron_type_thr = 19, snn_ndfg = 0
neuron_id = 643, state_value = 0, neuron_type_thr = 19, snn_ndfg = 0
neuron_id = 644, state_value = 0, neuron_type_thr = 19, snn_ndfg = 0
neuron_id = 645, state_value = 0, neuron_type_thr = 19, snn_ndfg = 0
neuron_id = 646, state_value = 0, neuron_type_thr = 19, snn_ndfg = 0
neuron_id = 647, state_value = 0, neuron_type_thr = 19, snn_ndfg = 0
neuron_id = 648, state_value = 0, neuron_type_thr = 19, snn_ndfg = 0
neuron_id = 649, state_value = 0, neuron_type_thr = 19, snn_ndfg = 0
neuron_id = 650, state_value = 0, neuron_type_thr = 19, snn_ndfg = 0
neuron_id = 651, state_value = 0, neuron_type_thr = 19, snn_ndfg = 0
neuron_id = 652, state_value = 0, neuron_type_thr = 19, snn_ndfg = 0
neuron_id = 653, state_value = 0, neuron_type_thr = 19, snn_ndfg = 0
neuron_id = 654, state_value = 0, neuron_type_thr = 19, snn_ndfg = 0
neuron_id = 655, state_value = 0, neuron_type_thr = 19, snn_ndfg = 0
neuron_id = 656, state_value = 0, neuron_type_thr = 19, snn_ndfg = 0
neuron_id = 657, state_value = 0, neuron_type_thr = 19, snn_ndfg = 0
neuron_id = 658, state_value = 0, neuron_type_thr = 19, snn_ndfg = 0
neuron_id = 659, state_value = 0, neuron_type_thr = 19, snn_ndfg = 0
neuron_id = 660, state_value = 0, neuron_type_thr = 19, snn_ndfg = 0
neuron_id = 661, state_value = 0, neuron_type_thr = 19, snn_ndfg = 0
neuron_id = 662, state_value = 0, neuron_type_thr = 19, snn_ndfg = 0
neuron_id = 663, state_value = 0, neuron_type_thr = 19, snn_ndfg = 0
neuron_id = 664, state_value = 0, neuron_type_thr = 19, snn_ndfg = 0
neuron_id = 665, state_value = 0, neuron_type_thr = 19, snn_ndfg = 0
neuron_id = 666, state_value = 0, neuron_type_thr = 19, snn_ndfg = 0
neuron_id = 667, state_value = 0, neuron_type_thr = 19, snn_ndfg = 0
neuron_id = 668, state_value = 0, neuron_type_thr = 19, snn_ndfg = 0
neuron_id = 669, state_value = 0, neuron_type_thr = 19, snn_ndfg = 0
neuron_id = 670, state_value = 0, neuron_type_thr = 19, snn_ndfg = 0
neuron_id = 671, state_value = 0, neuron_type_thr = 19, snn_ndfg = 0
neuron_id = 672, state_value = 0, neuron_type_thr = 19, snn_ndfg = 0
neuron_id = 673, state_value = 0, neuron_type_thr = 19, snn_ndfg = 0
neuron_id = 674, state_value = 0, neuron_type_thr = 19, snn_ndfg = 0
neuron_id = 675, state_value = 0, neuron_type_thr = 19, snn_ndfg = 0
neuron_id = 676, state_value = 0, neuron_type_thr = 19, snn_ndfg = 0
neuron_id = 677, state_value = 0, neuron_type_thr = 19, snn_ndfg = 0
neuron_id = 678, state_value = 0, neuron_type_thr = 19, snn_ndfg = 0
neuron_id = 679, state_value = 0, neuron_type_thr = 19, snn_ndfg = 0
neuron_id = 680, state_value = 0, neuron_type_thr = 19, snn_ndfg = 0
neuron_id = 681, state_value = 0, neuron_type_thr = 19, snn_ndfg = 0
neuron_id = 682, state_value = 0, neuron_type_thr = 19, snn_ndfg = 0
neuron_id = 683, state_value = 0, neuron_type_thr = 19, snn_ndfg = 0
neuron_id = 684, state_value = 0, neuron_type_thr = 19, snn_ndfg = 0
neuron_id = 685, state_value = 0, neuron_type_thr = 19, snn_ndfg = 0
neuron_id = 686, state_value = 0, neuron_type_thr = 19, snn_ndfg = 0
neuron_id = 687, state_value = 0, neuron_type_thr = 19, snn_ndfg = 0
neuron_id = 688, state_value = 0, neuron_type_thr = 19, snn_ndfg = 0
neuron_id = 689, state_value = 0, neuron_type_thr = 19, snn_ndfg = 0
neuron_id = 690, state_value = 0, neuron_type_thr = 19, snn_ndfg = 0
neuron_id = 691, state_value = 0, neuron_type_thr = 19, snn_ndfg = 0
neuron_id = 692, state_value = 0, neuron_type_thr = 19, snn_ndfg = 0
neuron_id = 693, state_value = 0, neuron_type_thr = 19, snn_ndfg = 0
neuron_id = 694, state_value = 0, neuron_type_thr = 19, snn_ndfg = 0
neuron_id = 695, state_value = 0, neuron_type_thr = 19, snn_ndfg = 0
neuron_id = 696, state_value = 0, neuron_type_thr = 19, snn_ndfg = 0
neuron_id = 697, state_value = 0, neuron_type_thr = 19, snn_ndfg = 0
neuron_id = 698, state_value = 0, neuron_type_thr = 19, snn_ndfg = 0
neuron_id = 699, state_value = 0, neuron_type_thr = 19, snn_ndfg = 0
neuron_id = 700, state_value = 0, neuron_type_thr = 19, snn_ndfg = 0
neuron_id = 701, state_value = 0, neuron_type_thr = 19, snn_ndfg = 0
neuron_id = 702, state_value = 0, neuron_type_thr = 19, snn_ndfg = 0
neuron_id = 703, state_value = 0, neuron_type_thr = 19, snn_ndfg = 0
neuron_id = 704, state_value = 0, neuron_type_thr = 19, snn_ndfg = 0
neuron_id = 705, state_value = 0, neuron_type_thr = 19, snn_ndfg = 0
neuron_id = 706, state_value = 0, neuron_type_thr = 19, snn_ndfg = 0
neuron_id = 707, state_value = 0, neuron_type_thr = 19, snn_ndfg = 0
neuron_id = 708, state_value = 0, neuron_type_thr = 19, snn_ndfg = 0
neuron_id = 709, state_value = 0, neuron_type_thr = 19, snn_ndfg = 0
neuron_id = 710, state_value = 0, neuron_type_thr = 19, snn_ndfg = 0
neuron_id = 711, state_value = 0, neuron_type_thr = 19, snn_ndfg = 0
neuron_id = 712, state_value = 0, neuron_type_thr = 19, snn_ndfg = 0
neuron_id = 713, state_value = 0, neuron_type_thr = 19, snn_ndfg = 0
neuron_id = 714, state_value = 0, neuron_type_thr = 19, snn_ndfg = 0
neuron_id = 715, state_value = 0, neuron_type_thr = 19, snn_ndfg = 0
neuron_id = 716, state_value = 0, neuron_type_thr = 19, snn_ndfg = 0
neuron_id = 717, state_value = 0, neuron_type_thr = 19, snn_ndfg = 0
neuron_id = 718, state_value = 0, neuron_type_thr = 19, snn_ndfg = 0
neuron_id = 719, state_value = 0, neuron_type_thr = 19, snn_ndfg = 0
neuron_id = 720, state_value = 0, neuron_type_thr = 19, snn_ndfg = 0
neuron_id = 721, state_value = 0, neuron_type_thr = 19, snn_ndfg = 0
neuron_id = 722, state_value = 0, neuron_type_thr = 19, snn_ndfg = 0
neuron_id = 723, state_value = 0, neuron_type_thr = 19, snn_ndfg = 0
neuron_id = 724, state_value = 0, neuron_type_thr = 19, snn_ndfg = 0
neuron_id = 725, state_value = 0, neuron_type_thr = 19, snn_ndfg = 0
neuron_id = 726, state_value = 0, neuron_type_thr = 19, snn_ndfg = 0
neuron_id = 727, state_value = 0, neuron_type_thr = 19, snn_ndfg = 0
neuron_id = 728, state_value = 0, neuron_type_thr = 19, snn_ndfg = 0
neuron_id = 729, state_value = 0, neuron_type_thr = 19, snn_ndfg = 0
neuron_id = 730, state_value = 0, neuron_type_thr = 19, snn_ndfg = 0
neuron_id = 731, state_value = 0, neuron_type_thr = 19, snn_ndfg = 0
neuron_id = 732, state_value = 0, neuron_type_thr = 19, snn_ndfg = 0
neuron_id = 733, state_value = 0, neuron_type_thr = 19, snn_ndfg = 0
neuron_id = 734, state_value = 0, neuron_type_thr = 19, snn_ndfg = 0
neuron_id = 735, state_value = 0, neuron_type_thr = 19, snn_ndfg = 0
neuron_id = 736, state_value = 0, neuron_type_thr = 19, snn_ndfg = 0
neuron_id = 737, state_value = 0, neuron_type_thr = 19, snn_ndfg = 0
neuron_id = 738, state_value = 0, neuron_type_thr = 19, snn_ndfg = 0
neuron_id = 739, state_value = 0, neuron_type_thr = 19, snn_ndfg = 0
neuron_id = 740, state_value = 0, neuron_type_thr = 19, snn_ndfg = 0
neuron_id = 741, state_value = 0, neuron_type_thr = 19, snn_ndfg = 0
neuron_id = 742, state_value = 0, neuron_type_thr = 19, snn_ndfg = 0
neuron_id = 743, state_value = 0, neuron_type_thr = 19, snn_ndfg = 0
neuron_id = 744, state_value = 0, neuron_type_thr = 19, snn_ndfg = 0
neuron_id = 745, state_value = 0, neuron_type_thr = 19, snn_ndfg = 0
neuron_id = 746, state_value = 0, neuron_type_thr = 19, snn_ndfg = 0
neuron_id = 747, state_value = 0, neuron_type_thr = 19, snn_ndfg = 0
neuron_id = 748, state_value = 0, neuron_type_thr = 19, snn_ndfg = 0
neuron_id = 749, state_value = 0, neuron_type_thr = 19, snn_ndfg = 0
neuron_id = 750, state_value = 0, neuron_type_thr = 19, snn_ndfg = 0
neuron_id = 751, state_value = 0, neuron_type_thr = 19, snn_ndfg = 0
neuron_id = 752, state_value = 0, neuron_type_thr = 19, snn_ndfg = 0
neuron_id = 753, state_value = 0, neuron_type_thr = 19, snn_ndfg = 0
neuron_id = 754, state_value = 0, neuron_type_thr = 19, snn_ndfg = 0
neuron_id = 755, state_value = 0, neuron_type_thr = 19, snn_ndfg = 0
neuron_id = 756, state_value = 0, neuron_type_thr = 19, snn_ndfg = 0
neuron_id = 757, state_value = 0, neuron_type_thr = 19, snn_ndfg = 0
neuron_id = 758, state_value = 0, neuron_type_thr = 19, snn_ndfg = 0
neuron_id = 759, state_value = 0, neuron_type_thr = 19, snn_ndfg = 0
neuron_id = 760, state_value = 0, neuron_type_thr = 19, snn_ndfg = 0
neuron_id = 761, state_value = 0, neuron_type_thr = 19, snn_ndfg = 0
neuron_id = 762, state_value = 0, neuron_type_thr = 19, snn_ndfg = 0
neuron_id = 763, state_value = 0, neuron_type_thr = 19, snn_ndfg = 0
neuron_id = 764, state_value = 0, neuron_type_thr = 19, snn_ndfg = 0
neuron_id = 765, state_value = 0, neuron_type_thr = 19, snn_ndfg = 0
neuron_id = 766, state_value = 0, neuron_type_thr = 19, snn_ndfg = 0
neuron_id = 767, state_value = 0, neuron_type_thr = 19, snn_ndfg = 0
neuron_id = 768, state_value = 0, neuron_type_thr = 19, snn_ndfg = 0
neuron_id = 769, state_value = 0, neuron_type_thr = 19, snn_ndfg = 0
neuron_id = 770, state_value = 0, neuron_type_thr = 19, snn_ndfg = 0
neuron_id = 771, state_value = 0, neuron_type_thr = 19, snn_ndfg = 0
neuron_id = 772, state_value = 0, neuron_type_thr = 19, snn_ndfg = 0
neuron_id = 773, state_value = 0, neuron_type_thr = 19, snn_ndfg = 0
neuron_id = 774, state_value = 0, neuron_type_thr = 19, snn_ndfg = 0
neuron_id = 775, state_value = 0, neuron_type_thr = 19, snn_ndfg = 0
neuron_id = 776, state_value = 0, neuron_type_thr = 19, snn_ndfg = 0
neuron_id = 777, state_value = 0, neuron_type_thr = 19, snn_ndfg = 0
neuron_id = 778, state_value = 0, neuron_type_thr = 19, snn_ndfg = 0
neuron_id = 779, state_value = 0, neuron_type_thr = 19, snn_ndfg = 0
neuron_id = 780, state_value = 0, neuron_type_thr = 19, snn_ndfg = 0
neuron_id = 781, state_value = 0, neuron_type_thr = 19, snn_ndfg = 0
neuron_id = 782, state_value = 0, neuron_type_thr = 19, snn_ndfg = 0
neuron_id = 783, state_value = 0, neuron_type_thr = 19, snn_ndfg = 0
neuron_id = 784, state_value = 0, neuron_type_thr = 19, snn_ndfg = 0
neuron_id = 785, state_value = 0, neuron_type_thr = 19, snn_ndfg = 0
neuron_id = 786, state_value = 0, neuron_type_thr = 19, snn_ndfg = 0
neuron_id = 787, state_value = 0, neuron_type_thr = 19, snn_ndfg = 0
neuron_id = 788, state_value = 0, neuron_type_thr = 19, snn_ndfg = 0
neuron_id = 789, state_value = 0, neuron_type_thr = 19, snn_ndfg = 0
neuron_id = 790, state_value = 0, neuron_type_thr = 19, snn_ndfg = 0
neuron_id = 791, state_value = 0, neuron_type_thr = 19, snn_ndfg = 0
neuron_id = 792, state_value = 0, neuron_type_thr = 19, snn_ndfg = 0
neuron_id = 793, state_value = 0, neuron_type_thr = 19, snn_ndfg = 0
neuron_id = 794, state_value = 0, neuron_type_thr = 19, snn_ndfg = 0
neuron_id = 795, state_value = 0, neuron_type_thr = 19, snn_ndfg = 0
neuron_id = 796, state_value = 0, neuron_type_thr = 19, snn_ndfg = 0
neuron_id = 797, state_value = 0, neuron_type_thr = 19, snn_ndfg = 0
neuron_id = 798, state_value = 0, neuron_type_thr = 19, snn_ndfg = 0
neuron_id = 799, state_value = 0, neuron_type_thr = 19, snn_ndfg = 0
neuron_id = 800, state_value = 0, neuron_type_thr = 19, snn_ndfg = 0
neuron_id = 801, state_value = 0, neuron_type_thr = 19, snn_ndfg = 0
neuron_id = 802, state_value = 0, neuron_type_thr = 19, snn_ndfg = 0
neuron_id = 803, state_value = 0, neuron_type_thr = 19, snn_ndfg = 0
neuron_id = 804, state_value = 0, neuron_type_thr = 19, snn_ndfg = 0
neuron_id = 805, state_value = 0, neuron_type_thr = 19, snn_ndfg = 0
neuron_id = 806, state_value = 0, neuron_type_thr = 19, snn_ndfg = 0
neuron_id = 807, state_value = 0, neuron_type_thr = 19, snn_ndfg = 0
neuron_id = 808, state_value = 0, neuron_type_thr = 19, snn_ndfg = 0
neuron_id = 809, state_value = 0, neuron_type_thr = 19, snn_ndfg = 0
neuron_id = 810, state_value = 0, neuron_type_thr = 19, snn_ndfg = 0
neuron_id = 811, state_value = 0, neuron_type_thr = 19, snn_ndfg = 0
neuron_id = 812, state_value = 0, neuron_type_thr = 19, snn_ndfg = 0
neuron_id = 813, state_value = 0, neuron_type_thr = 19, snn_ndfg = 0
neuron_id = 814, state_value = 0, neuron_type_thr = 19, snn_ndfg = 0
neuron_id = 815, state_value = 0, neuron_type_thr = 19, snn_ndfg = 0
neuron_id = 816, state_value = 0, neuron_type_thr = 19, snn_ndfg = 0
neuron_id = 817, state_value = 0, neuron_type_thr = 19, snn_ndfg = 0
neuron_id = 818, state_value = 0, neuron_type_thr = 19, snn_ndfg = 0
neuron_id = 819, state_value = 0, neuron_type_thr = 19, snn_ndfg = 0
neuron_id = 820, state_value = 0, neuron_type_thr = 19, snn_ndfg = 0
neuron_id = 821, state_value = 0, neuron_type_thr = 19, snn_ndfg = 0
neuron_id = 822, state_value = 0, neuron_type_thr = 19, snn_ndfg = 0
neuron_id = 823, state_value = 0, neuron_type_thr = 19, snn_ndfg = 0
neuron_id = 824, state_value = 0, neuron_type_thr = 19, snn_ndfg = 0
neuron_id = 825, state_value = 0, neuron_type_thr = 19, snn_ndfg = 0
neuron_id = 826, state_value = 0, neuron_type_thr = 19, snn_ndfg = 0
neuron_id = 827, state_value = 0, neuron_type_thr = 19, snn_ndfg = 0
neuron_id = 828, state_value = 0, neuron_type_thr = 19, snn_ndfg = 0
neuron_id = 829, state_value = 0, neuron_type_thr = 19, snn_ndfg = 0
neuron_id = 830, state_value = 0, neuron_type_thr = 19, snn_ndfg = 0
neuron_id = 831, state_value = 0, neuron_type_thr = 19, snn_ndfg = 0
neuron_id = 832, state_value = 0, neuron_type_thr = 19, snn_ndfg = 0
neuron_id = 833, state_value = 0, neuron_type_thr = 19, snn_ndfg = 0
neuron_id = 834, state_value = 0, neuron_type_thr = 19, snn_ndfg = 0
neuron_id = 835, state_value = 0, neuron_type_thr = 19, snn_ndfg = 0
neuron_id = 836, state_value = 0, neuron_type_thr = 19, snn_ndfg = 0
neuron_id = 837, state_value = 0, neuron_type_thr = 19, snn_ndfg = 0
neuron_id = 838, state_value = 0, neuron_type_thr = 19, snn_ndfg = 0
neuron_id = 839, state_value = 0, neuron_type_thr = 19, snn_ndfg = 0
neuron_id = 840, state_value = 0, neuron_type_thr = 19, snn_ndfg = 0
neuron_id = 841, state_value = 0, neuron_type_thr = 19, snn_ndfg = 0
neuron_id = 842, state_value = 0, neuron_type_thr = 19, snn_ndfg = 0
neuron_id = 843, state_value = 0, neuron_type_thr = 19, snn_ndfg = 0
neuron_id = 844, state_value = 0, neuron_type_thr = 19, snn_ndfg = 0
neuron_id = 845, state_value = 0, neuron_type_thr = 19, snn_ndfg = 0
neuron_id = 846, state_value = 0, neuron_type_thr = 19, snn_ndfg = 0
neuron_id = 847, state_value = 0, neuron_type_thr = 19, snn_ndfg = 0
neuron_id = 848, state_value = 0, neuron_type_thr = 19, snn_ndfg = 0
neuron_id = 849, state_value = 0, neuron_type_thr = 19, snn_ndfg = 0
neuron_id = 850, state_value = 0, neuron_type_thr = 19, snn_ndfg = 0
neuron_id = 851, state_value = 0, neuron_type_thr = 19, snn_ndfg = 0
neuron_id = 852, state_value = 0, neuron_type_thr = 19, snn_ndfg = 0
neuron_id = 853, state_value = 0, neuron_type_thr = 19, snn_ndfg = 0
neuron_id = 854, state_value = 0, neuron_type_thr = 19, snn_ndfg = 0
neuron_id = 855, state_value = 0, neuron_type_thr = 19, snn_ndfg = 0
neuron_id = 856, state_value = 0, neuron_type_thr = 19, snn_ndfg = 0
neuron_id = 857, state_value = 0, neuron_type_thr = 19, snn_ndfg = 0
neuron_id = 858, state_value = 0, neuron_type_thr = 19, snn_ndfg = 0
neuron_id = 859, state_value = 0, neuron_type_thr = 19, snn_ndfg = 0
neuron_id = 860, state_value = 0, neuron_type_thr = 19, snn_ndfg = 0
neuron_id = 861, state_value = 0, neuron_type_thr = 19, snn_ndfg = 0
neuron_id = 862, state_value = 0, neuron_type_thr = 19, snn_ndfg = 0
neuron_id = 863, state_value = 0, neuron_type_thr = 19, snn_ndfg = 0
neuron_id = 864, state_value = 0, neuron_type_thr = 19, snn_ndfg = 0
neuron_id = 865, state_value = 0, neuron_type_thr = 19, snn_ndfg = 0
neuron_id = 866, state_value = 0, neuron_type_thr = 19, snn_ndfg = 0
neuron_id = 867, state_value = 0, neuron_type_thr = 19, snn_ndfg = 0
neuron_id = 868, state_value = 0, neuron_type_thr = 19, snn_ndfg = 0
neuron_id = 869, state_value = 0, neuron_type_thr = 19, snn_ndfg = 0
neuron_id = 870, state_value = 0, neuron_type_thr = 19, snn_ndfg = 0
neuron_id = 871, state_value = 0, neuron_type_thr = 19, snn_ndfg = 0
neuron_id = 872, state_value = 0, neuron_type_thr = 19, snn_ndfg = 0
neuron_id = 873, state_value = 0, neuron_type_thr = 19, snn_ndfg = 0
neuron_id = 874, state_value = 0, neuron_type_thr = 19, snn_ndfg = 0
neuron_id = 875, state_value = 0, neuron_type_thr = 19, snn_ndfg = 0
neuron_id = 876, state_value = 0, neuron_type_thr = 19, snn_ndfg = 0
neuron_id = 877, state_value = 0, neuron_type_thr = 19, snn_ndfg = 0
neuron_id = 878, state_value = 0, neuron_type_thr = 19, snn_ndfg = 0
neuron_id = 879, state_value = 0, neuron_type_thr = 19, snn_ndfg = 0
neuron_id = 880, state_value = 0, neuron_type_thr = 19, snn_ndfg = 0
neuron_id = 881, state_value = 0, neuron_type_thr = 19, snn_ndfg = 0
neuron_id = 882, state_value = 0, neuron_type_thr = 19, snn_ndfg = 0
neuron_id = 883, state_value = 0, neuron_type_thr = 19, snn_ndfg = 0
neuron_id = 884, state_value = 0, neuron_type_thr = 19, snn_ndfg = 0
neuron_id = 885, state_value = 0, neuron_type_thr = 19, snn_ndfg = 0
neuron_id = 886, state_value = 0, neuron_type_thr = 19, snn_ndfg = 0
neuron_id = 887, state_value = 0, neuron_type_thr = 19, snn_ndfg = 0
neuron_id = 888, state_value = 0, neuron_type_thr = 19, snn_ndfg = 0
neuron_id = 889, state_value = 0, neuron_type_thr = 19, snn_ndfg = 0
neuron_id = 890, state_value = 0, neuron_type_thr = 19, snn_ndfg = 0
neuron_id = 891, state_value = 0, neuron_type_thr = 19, snn_ndfg = 0
neuron_id = 892, state_value = 0, neuron_type_thr = 19, snn_ndfg = 0
neuron_id = 893, state_value = 0, neuron_type_thr = 19, snn_ndfg = 0
neuron_id = 894, state_value = 0, neuron_type_thr = 19, snn_ndfg = 0
neuron_id = 895, state_value = 0, neuron_type_thr = 19, snn_ndfg = 0
neuron_id = 896, state_value = 0, neuron_type_thr = 19, snn_ndfg = 0
neuron_id = 897, state_value = 0, neuron_type_thr = 19, snn_ndfg = 0
neuron_id = 898, state_value = 0, neuron_type_thr = 19, snn_ndfg = 0
neuron_id = 899, state_value = 0, neuron_type_thr = 19, snn_ndfg = 0
neuron_id = 900, state_value = 0, neuron_type_thr = 19, snn_ndfg = 0
neuron_id = 901, state_value = 0, neuron_type_thr = 19, snn_ndfg = 0
neuron_id = 902, state_value = 0, neuron_type_thr = 19, snn_ndfg = 0
neuron_id = 903, state_value = 0, neuron_type_thr = 19, snn_ndfg = 0
neuron_id = 904, state_value = 0, neuron_type_thr = 19, snn_ndfg = 0
neuron_id = 905, state_value = 0, neuron_type_thr = 19, snn_ndfg = 0
neuron_id = 906, state_value = 0, neuron_type_thr = 19, snn_ndfg = 0
neuron_id = 907, state_value = 0, neuron_type_thr = 19, snn_ndfg = 0
neuron_id = 908, state_value = 0, neuron_type_thr = 19, snn_ndfg = 0
neuron_id = 909, state_value = 0, neuron_type_thr = 19, snn_ndfg = 0
neuron_id = 910, state_value = 0, neuron_type_thr = 19, snn_ndfg = 0
neuron_id = 911, state_value = 0, neuron_type_thr = 19, snn_ndfg = 0
neuron_id = 912, state_value = 0, neuron_type_thr = 19, snn_ndfg = 0
neuron_id = 913, state_value = 0, neuron_type_thr = 19, snn_ndfg = 0
neuron_id = 914, state_value = 0, neuron_type_thr = 19, snn_ndfg = 0
neuron_id = 915, state_value = 0, neuron_type_thr = 19, snn_ndfg = 0
neuron_id = 916, state_value = 0, neuron_type_thr = 19, snn_ndfg = 0
neuron_id = 917, state_value = 0, neuron_type_thr = 19, snn_ndfg = 0
neuron_id = 918, state_value = 0, neuron_type_thr = 19, snn_ndfg = 0
neuron_id = 919, state_value = 0, neuron_type_thr = 19, snn_ndfg = 0
neuron_id = 920, state_value = 0, neuron_type_thr = 19, snn_ndfg = 0
neuron_id = 921, state_value = 0, neuron_type_thr = 19, snn_ndfg = 0
neuron_id = 922, state_value = 0, neuron_type_thr = 19, snn_ndfg = 0
neuron_id = 923, state_value = 0, neuron_type_thr = 19, snn_ndfg = 0
neuron_id = 924, state_value = 0, neuron_type_thr = 19, snn_ndfg = 0
neuron_id = 925, state_value = 0, neuron_type_thr = 19, snn_ndfg = 0
neuron_id = 926, state_value = 0, neuron_type_thr = 19, snn_ndfg = 0
neuron_id = 927, state_value = 0, neuron_type_thr = 19, snn_ndfg = 0
neuron_id = 928, state_value = 0, neuron_type_thr = 19, snn_ndfg = 0
neuron_id = 929, state_value = 0, neuron_type_thr = 19, snn_ndfg = 0
neuron_id = 930, state_value = 0, neuron_type_thr = 19, snn_ndfg = 0
neuron_id = 931, state_value = 0, neuron_type_thr = 19, snn_ndfg = 0
neuron_id = 932, state_value = 0, neuron_type_thr = 19, snn_ndfg = 0
neuron_id = 933, state_value = 0, neuron_type_thr = 19, snn_ndfg = 0
neuron_id = 934, state_value = 0, neuron_type_thr = 19, snn_ndfg = 0
neuron_id = 935, state_value = 0, neuron_type_thr = 19, snn_ndfg = 0
neuron_id = 936, state_value = 0, neuron_type_thr = 19, snn_ndfg = 0
neuron_id = 937, state_value = 0, neuron_type_thr = 19, snn_ndfg = 0
neuron_id = 938, state_value = 0, neuron_type_thr = 19, snn_ndfg = 0
neuron_id = 939, state_value = 0, neuron_type_thr = 19, snn_ndfg = 0
neuron_id = 940, state_value = 0, neuron_type_thr = 19, snn_ndfg = 0
neuron_id = 941, state_value = 0, neuron_type_thr = 19, snn_ndfg = 0
neuron_id = 942, state_value = 0, neuron_type_thr = 19, snn_ndfg = 0
neuron_id = 943, state_value = 0, neuron_type_thr = 19, snn_ndfg = 0
neuron_id = 944, state_value = 0, neuron_type_thr = 19, snn_ndfg = 0
neuron_id = 945, state_value = 0, neuron_type_thr = 19, snn_ndfg = 0
neuron_id = 946, state_value = 0, neuron_type_thr = 19, snn_ndfg = 0
neuron_id = 947, state_value = 0, neuron_type_thr = 19, snn_ndfg = 0
neuron_id = 948, state_value = 0, neuron_type_thr = 19, snn_ndfg = 0
neuron_id = 949, state_value = 0, neuron_type_thr = 19, snn_ndfg = 0
neuron_id = 950, state_value = 0, neuron_type_thr = 19, snn_ndfg = 0
neuron_id = 951, state_value = 0, neuron_type_thr = 19, snn_ndfg = 0
neuron_id = 952, state_value = 0, neuron_type_thr = 19, snn_ndfg = 0
neuron_id = 953, state_value = 0, neuron_type_thr = 19, snn_ndfg = 0
neuron_id = 954, state_value = 0, neuron_type_thr = 19, snn_ndfg = 0
neuron_id = 955, state_value = 0, neuron_type_thr = 19, snn_ndfg = 0
neuron_id = 956, state_value = 0, neuron_type_thr = 19, snn_ndfg = 0
neuron_id = 957, state_value = 0, neuron_type_thr = 19, snn_ndfg = 0
neuron_id = 958, state_value = 0, neuron_type_thr = 19, snn_ndfg = 0
neuron_id = 959, state_value = 0, neuron_type_thr = 19, snn_ndfg = 0
neuron_id = 960, state_value = 0, neuron_type_thr = 19, snn_ndfg = 0
neuron_id = 961, state_value = 0, neuron_type_thr = 19, snn_ndfg = 0
neuron_id = 962, state_value = 0, neuron_type_thr = 19, snn_ndfg = 0
neuron_id = 963, state_value = 0, neuron_type_thr = 19, snn_ndfg = 0
neuron_id = 964, state_value = 0, neuron_type_thr = 19, snn_ndfg = 0
neuron_id = 965, state_value = 0, neuron_type_thr = 19, snn_ndfg = 0
neuron_id = 966, state_value = 0, neuron_type_thr = 19, snn_ndfg = 0
neuron_id = 967, state_value = 0, neuron_type_thr = 19, snn_ndfg = 0
neuron_id = 968, state_value = 0, neuron_type_thr = 19, snn_ndfg = 0
neuron_id = 969, state_value = 0, neuron_type_thr = 19, snn_ndfg = 0
neuron_id = 970, state_value = 0, neuron_type_thr = 19, snn_ndfg = 0
neuron_id = 971, state_value = 0, neuron_type_thr = 19, snn_ndfg = 0
neuron_id = 972, state_value = 0, neuron_type_thr = 19, snn_ndfg = 0
neuron_id = 973, state_value = 0, neuron_type_thr = 19, snn_ndfg = 0
neuron_id = 974, state_value = 0, neuron_type_thr = 19, snn_ndfg = 0
neuron_id = 975, state_value = 0, neuron_type_thr = 19, snn_ndfg = 0
neuron_id = 976, state_value = 0, neuron_type_thr = 19, snn_ndfg = 0
neuron_id = 977, state_value = 0, neuron_type_thr = 19, snn_ndfg = 0
neuron_id = 978, state_value = 0, neuron_type_thr = 19, snn_ndfg = 0
neuron_id = 979, state_value = 0, neuron_type_thr = 19, snn_ndfg = 0
neuron_id = 980, state_value = 0, neuron_type_thr = 19, snn_ndfg = 0
neuron_id = 981, state_value = 0, neuron_type_thr = 19, snn_ndfg = 0
neuron_id = 982, state_value = 0, neuron_type_thr = 19, snn_ndfg = 0
neuron_id = 983, state_value = 0, neuron_type_thr = 19, snn_ndfg = 0
neuron_id = 984, state_value = 0, neuron_type_thr = 19, snn_ndfg = 0
neuron_id = 985, state_value = 0, neuron_type_thr = 19, snn_ndfg = 0
neuron_id = 986, state_value = 0, neuron_type_thr = 19, snn_ndfg = 0
neuron_id = 987, state_value = 0, neuron_type_thr = 19, snn_ndfg = 0
neuron_id = 988, state_value = 0, neuron_type_thr = 19, snn_ndfg = 0
neuron_id = 989, state_value = 0, neuron_type_thr = 19, snn_ndfg = 0
neuron_id = 990, state_value = 0, neuron_type_thr = 19, snn_ndfg = 0
neuron_id = 991, state_value = 0, neuron_type_thr = 19, snn_ndfg = 0
neuron_id = 992, state_value = 0, neuron_type_thr = 19, snn_ndfg = 0
neuron_id = 993, state_value = 0, neuron_type_thr = 19, snn_ndfg = 0
neuron_id = 994, state_value = 0, neuron_type_thr = 19, snn_ndfg = 0
neuron_id = 995, state_value = 0, neuron_type_thr = 19, snn_ndfg = 0
neuron_id = 996, state_value = 0, neuron_type_thr = 19, snn_ndfg = 0
neuron_id = 997, state_value = 0, neuron_type_thr = 19, snn_ndfg = 0
neuron_id = 998, state_value = 0, neuron_type_thr = 19, snn_ndfg = 0
neuron_id = 999, state_value = 0, neuron_type_thr = 19, snn_ndfg = 0
neuron_id = 1000, state_value = 0, neuron_type_thr = 19, snn_ndfg = 0
neuron_id = 1001, state_value = 0, neuron_type_thr = 19, snn_ndfg = 0
neuron_id = 1002, state_value = 0, neuron_type_thr = 19, snn_ndfg = 0
neuron_id = 1003, state_value = 0, neuron_type_thr = 19, snn_ndfg = 0
neuron_id = 1004, state_value = 0, neuron_type_thr = 19, snn_ndfg = 0
neuron_id = 1005, state_value = 0, neuron_type_thr = 19, snn_ndfg = 0
neuron_id = 1006, state_value = 0, neuron_type_thr = 19, snn_ndfg = 0
neuron_id = 1007, state_value = 0, neuron_type_thr = 19, snn_ndfg = 0
neuron_id = 1008, state_value = 0, neuron_type_thr = 19, snn_ndfg = 0
neuron_id = 1009, state_value = 0, neuron_type_thr = 19, snn_ndfg = 0
neuron_id = 1010, state_value = 0, neuron_type_thr = 19, snn_ndfg = 0
neuron_id = 1011, state_value = 0, neuron_type_thr = 19, snn_ndfg = 0
neuron_id = 1012, state_value = 0, neuron_type_thr = 19, snn_ndfg = 0
neuron_id = 1013, state_value = 0, neuron_type_thr = 19, snn_ndfg = 0
neuron_id = 1014, state_value = 0, neuron_type_thr = 19, snn_ndfg = 0
neuron_id = 1015, state_value = 0, neuron_type_thr = 19, snn_ndfg = 0
neuron_id = 1016, state_value = 0, neuron_type_thr = 19, snn_ndfg = 0
neuron_id = 1017, state_value = 0, neuron_type_thr = 19, snn_ndfg = 0
neuron_id = 1018, state_value = 0, neuron_type_thr = 19, snn_ndfg = 0
neuron_id = 1019, state_value = 0, neuron_type_thr = 19, snn_ndfg = 0
neuron_id = 1020, state_value = 0, neuron_type_thr = 19, snn_ndfg = 0
neuron_id = 1021, state_value = 0, neuron_type_thr = 19, snn_ndfg = 0
neuron_id = 1022, state_value = 0, neuron_type_thr = 19, snn_ndfg = 0
neuron_id = 1023, state_value = 0, neuron_type_thr = 19, snn_ndfg = 0
