neuron_id = 544, conn_type = 0, conn_attribute = 2228224
neuron_id = 512, conn_type = 0, conn_attribute = 2097152
neuron_id = 480, conn_type = 0, conn_attribute = 1966080
neuron_id = 448, conn_type = 0, conn_attribute = 1835008
neuron_id = 416, conn_type = 0, conn_attribute = 1703936
neuron_id = 384, conn_type = 0, conn_attribute = 1572864
neuron_id = 352, conn_type = 0, conn_attribute = 1441792
neuron_id = 320, conn_type = 0, conn_attribute = 1310720
neuron_id = 288, conn_type = 0, conn_attribute = 1179648
neuron_id = 256, conn_type = 0, conn_attribute = 1048576
neuron_id = 224, conn_type = 0, conn_attribute = 917504
neuron_id = 192, conn_type = 0, conn_attribute = 786432
neuron_id = 160, conn_type = 0, conn_attribute = 655360
neuron_id = 128, conn_type = 0, conn_attribute = 524288
neuron_id = 96, conn_type = 0, conn_attribute = 393216
neuron_id = 64, conn_type = 0, conn_attribute = 262144
neuron_id = 32, conn_type = 0, conn_attribute = 131072
neuron_id = 0, conn_type = 0, conn_attribute = 0
neuron_id = 575, conn_type = 0, conn_attribute = 2351152
neuron_id = 574, conn_type = 0, conn_attribute = 2347056
neuron_id = 573, conn_type = 0, conn_attribute = 2342960
neuron_id = 572, conn_type = 0, conn_attribute = 2338864
neuron_id = 571, conn_type = 0, conn_attribute = 2334768
neuron_id = 570, conn_type = 0, conn_attribute = 2330672
neuron_id = 569, conn_type = 0, conn_attribute = 2326576
neuron_id = 568, conn_type = 0, conn_attribute = 2322480
neuron_id = 567, conn_type = 0, conn_attribute = 2318384
neuron_id = 566, conn_type = 0, conn_attribute = 2314288
neuron_id = 565, conn_type = 0, conn_attribute = 2310192
neuron_id = 564, conn_type = 0, conn_attribute = 2306096
neuron_id = 563, conn_type = 0, conn_attribute = 2302000
neuron_id = 562, conn_type = 0, conn_attribute = 2297904
neuron_id = 561, conn_type = 0, conn_attribute = 2293808
neuron_id = 560, conn_type = 0, conn_attribute = 2289712
neuron_id = 559, conn_type = 0, conn_attribute = 2285616
neuron_id = 558, conn_type = 0, conn_attribute = 2281520
neuron_id = 557, conn_type = 0, conn_attribute = 2277424
neuron_id = 556, conn_type = 0, conn_attribute = 2273328
neuron_id = 555, conn_type = 0, conn_attribute = 2269232
neuron_id = 554, conn_type = 0, conn_attribute = 2265136
neuron_id = 553, conn_type = 0, conn_attribute = 2261040
neuron_id = 552, conn_type = 0, conn_attribute = 2256944
neuron_id = 551, conn_type = 0, conn_attribute = 2252848
neuron_id = 550, conn_type = 0, conn_attribute = 2248752
neuron_id = 549, conn_type = 0, conn_attribute = 2244656
neuron_id = 548, conn_type = 0, conn_attribute = 2240560
neuron_id = 547, conn_type = 0, conn_attribute = 2236464
neuron_id = 546, conn_type = 0, conn_attribute = 2232368
neuron_id = 545, conn_type = 0, conn_attribute = 2228272
neuron_id = 543, conn_type = 0, conn_attribute = 2220080
neuron_id = 542, conn_type = 0, conn_attribute = 2215984
neuron_id = 541, conn_type = 0, conn_attribute = 2211888
neuron_id = 540, conn_type = 0, conn_attribute = 2207792
neuron_id = 539, conn_type = 0, conn_attribute = 2203696
neuron_id = 538, conn_type = 0, conn_attribute = 2199600
neuron_id = 537, conn_type = 0, conn_attribute = 2195504
neuron_id = 536, conn_type = 0, conn_attribute = 2191408
neuron_id = 535, conn_type = 0, conn_attribute = 2187312
neuron_id = 534, conn_type = 0, conn_attribute = 2183216
neuron_id = 533, conn_type = 0, conn_attribute = 2179120
neuron_id = 532, conn_type = 0, conn_attribute = 2175024
neuron_id = 531, conn_type = 0, conn_attribute = 2170928
neuron_id = 530, conn_type = 0, conn_attribute = 2166832
neuron_id = 529, conn_type = 0, conn_attribute = 2162736
neuron_id = 528, conn_type = 0, conn_attribute = 2158640
neuron_id = 527, conn_type = 0, conn_attribute = 2154544
neuron_id = 526, conn_type = 0, conn_attribute = 2150448
neuron_id = 525, conn_type = 0, conn_attribute = 2146352
neuron_id = 524, conn_type = 0, conn_attribute = 2142256
neuron_id = 523, conn_type = 0, conn_attribute = 2138160
neuron_id = 522, conn_type = 0, conn_attribute = 2134064
neuron_id = 521, conn_type = 0, conn_attribute = 2129968
neuron_id = 520, conn_type = 0, conn_attribute = 2125872
neuron_id = 519, conn_type = 0, conn_attribute = 2121776
neuron_id = 518, conn_type = 0, conn_attribute = 2117680
neuron_id = 517, conn_type = 0, conn_attribute = 2113584
neuron_id = 516, conn_type = 0, conn_attribute = 2109488
neuron_id = 515, conn_type = 0, conn_attribute = 2105392
neuron_id = 514, conn_type = 0, conn_attribute = 2101296
neuron_id = 513, conn_type = 0, conn_attribute = 2097200
neuron_id = 511, conn_type = 0, conn_attribute = 2089008
neuron_id = 510, conn_type = 0, conn_attribute = 2084912
neuron_id = 509, conn_type = 0, conn_attribute = 2080816
neuron_id = 508, conn_type = 0, conn_attribute = 2076720
neuron_id = 507, conn_type = 0, conn_attribute = 2072624
neuron_id = 506, conn_type = 0, conn_attribute = 2068528
neuron_id = 505, conn_type = 0, conn_attribute = 2064432
neuron_id = 504, conn_type = 0, conn_attribute = 2060336
neuron_id = 503, conn_type = 0, conn_attribute = 2056240
neuron_id = 502, conn_type = 0, conn_attribute = 2052144
neuron_id = 501, conn_type = 0, conn_attribute = 2048048
neuron_id = 500, conn_type = 0, conn_attribute = 2043952
neuron_id = 499, conn_type = 0, conn_attribute = 2039856
neuron_id = 498, conn_type = 0, conn_attribute = 2035760
neuron_id = 497, conn_type = 0, conn_attribute = 2031664
neuron_id = 496, conn_type = 0, conn_attribute = 2027568
neuron_id = 495, conn_type = 0, conn_attribute = 2023472
neuron_id = 494, conn_type = 0, conn_attribute = 2019376
neuron_id = 493, conn_type = 0, conn_attribute = 2015280
neuron_id = 492, conn_type = 0, conn_attribute = 2011184
neuron_id = 491, conn_type = 0, conn_attribute = 2007088
neuron_id = 490, conn_type = 0, conn_attribute = 2002992
neuron_id = 489, conn_type = 0, conn_attribute = 1998896
neuron_id = 488, conn_type = 0, conn_attribute = 1994800
neuron_id = 487, conn_type = 0, conn_attribute = 1990704
neuron_id = 486, conn_type = 0, conn_attribute = 1986608
neuron_id = 485, conn_type = 0, conn_attribute = 1982512
neuron_id = 484, conn_type = 0, conn_attribute = 1978416
neuron_id = 483, conn_type = 0, conn_attribute = 1974320
neuron_id = 482, conn_type = 0, conn_attribute = 1970224
neuron_id = 481, conn_type = 0, conn_attribute = 1966128
neuron_id = 479, conn_type = 0, conn_attribute = 1957936
neuron_id = 478, conn_type = 0, conn_attribute = 1953840
neuron_id = 477, conn_type = 0, conn_attribute = 1949744
neuron_id = 476, conn_type = 0, conn_attribute = 1945648
neuron_id = 475, conn_type = 0, conn_attribute = 1941552
neuron_id = 474, conn_type = 0, conn_attribute = 1937456
neuron_id = 473, conn_type = 0, conn_attribute = 1933360
neuron_id = 472, conn_type = 0, conn_attribute = 1929264
neuron_id = 471, conn_type = 0, conn_attribute = 1925168
neuron_id = 470, conn_type = 0, conn_attribute = 1921072
neuron_id = 469, conn_type = 0, conn_attribute = 1916976
neuron_id = 468, conn_type = 0, conn_attribute = 1912880
neuron_id = 467, conn_type = 0, conn_attribute = 1908784
neuron_id = 466, conn_type = 0, conn_attribute = 1904688
neuron_id = 465, conn_type = 0, conn_attribute = 1900592
neuron_id = 464, conn_type = 0, conn_attribute = 1896496
neuron_id = 463, conn_type = 0, conn_attribute = 1892400
neuron_id = 462, conn_type = 0, conn_attribute = 1888304
neuron_id = 461, conn_type = 0, conn_attribute = 1884208
neuron_id = 460, conn_type = 0, conn_attribute = 1880112
neuron_id = 459, conn_type = 0, conn_attribute = 1876016
neuron_id = 458, conn_type = 0, conn_attribute = 1871920
neuron_id = 457, conn_type = 0, conn_attribute = 1867824
neuron_id = 456, conn_type = 0, conn_attribute = 1863728
neuron_id = 455, conn_type = 0, conn_attribute = 1859632
neuron_id = 454, conn_type = 0, conn_attribute = 1855536
neuron_id = 453, conn_type = 0, conn_attribute = 1851440
neuron_id = 452, conn_type = 0, conn_attribute = 1847344
neuron_id = 451, conn_type = 0, conn_attribute = 1843248
neuron_id = 450, conn_type = 0, conn_attribute = 1839152
neuron_id = 449, conn_type = 0, conn_attribute = 1835056
neuron_id = 447, conn_type = 0, conn_attribute = 1826864
neuron_id = 446, conn_type = 0, conn_attribute = 1822768
neuron_id = 445, conn_type = 0, conn_attribute = 1818672
neuron_id = 444, conn_type = 0, conn_attribute = 1814576
neuron_id = 443, conn_type = 0, conn_attribute = 1810480
neuron_id = 442, conn_type = 0, conn_attribute = 1806384
neuron_id = 441, conn_type = 0, conn_attribute = 1802288
neuron_id = 440, conn_type = 0, conn_attribute = 1798192
neuron_id = 439, conn_type = 0, conn_attribute = 1794096
neuron_id = 438, conn_type = 0, conn_attribute = 1790000
neuron_id = 437, conn_type = 0, conn_attribute = 1785904
neuron_id = 436, conn_type = 0, conn_attribute = 1781808
neuron_id = 435, conn_type = 0, conn_attribute = 1777712
neuron_id = 434, conn_type = 0, conn_attribute = 1773616
neuron_id = 433, conn_type = 0, conn_attribute = 1769520
neuron_id = 432, conn_type = 0, conn_attribute = 1765424
neuron_id = 431, conn_type = 0, conn_attribute = 1761328
neuron_id = 430, conn_type = 0, conn_attribute = 1757232
neuron_id = 429, conn_type = 0, conn_attribute = 1753136
neuron_id = 428, conn_type = 0, conn_attribute = 1749040
neuron_id = 427, conn_type = 0, conn_attribute = 1744944
neuron_id = 426, conn_type = 0, conn_attribute = 1740848
neuron_id = 425, conn_type = 0, conn_attribute = 1736752
neuron_id = 424, conn_type = 0, conn_attribute = 1732656
neuron_id = 423, conn_type = 0, conn_attribute = 1728560
neuron_id = 422, conn_type = 0, conn_attribute = 1724464
neuron_id = 421, conn_type = 0, conn_attribute = 1720368
neuron_id = 420, conn_type = 0, conn_attribute = 1716272
neuron_id = 419, conn_type = 0, conn_attribute = 1712176
neuron_id = 418, conn_type = 0, conn_attribute = 1708080
neuron_id = 417, conn_type = 0, conn_attribute = 1703984
neuron_id = 415, conn_type = 0, conn_attribute = 1695792
neuron_id = 414, conn_type = 0, conn_attribute = 1691696
neuron_id = 413, conn_type = 0, conn_attribute = 1687600
neuron_id = 412, conn_type = 0, conn_attribute = 1683504
neuron_id = 411, conn_type = 0, conn_attribute = 1679408
neuron_id = 410, conn_type = 0, conn_attribute = 1675312
neuron_id = 409, conn_type = 0, conn_attribute = 1671216
neuron_id = 408, conn_type = 0, conn_attribute = 1667120
neuron_id = 407, conn_type = 0, conn_attribute = 1663024
neuron_id = 406, conn_type = 0, conn_attribute = 1658928
neuron_id = 405, conn_type = 0, conn_attribute = 1654832
neuron_id = 404, conn_type = 0, conn_attribute = 1650736
neuron_id = 403, conn_type = 0, conn_attribute = 1646640
neuron_id = 402, conn_type = 0, conn_attribute = 1642544
neuron_id = 401, conn_type = 0, conn_attribute = 1638448
neuron_id = 400, conn_type = 0, conn_attribute = 1634352
neuron_id = 399, conn_type = 0, conn_attribute = 1630256
neuron_id = 398, conn_type = 0, conn_attribute = 1626160
neuron_id = 397, conn_type = 0, conn_attribute = 1622064
neuron_id = 396, conn_type = 0, conn_attribute = 1617968
neuron_id = 395, conn_type = 0, conn_attribute = 1613872
neuron_id = 394, conn_type = 0, conn_attribute = 1609776
neuron_id = 393, conn_type = 0, conn_attribute = 1605680
neuron_id = 392, conn_type = 0, conn_attribute = 1601584
neuron_id = 391, conn_type = 0, conn_attribute = 1597488
neuron_id = 390, conn_type = 0, conn_attribute = 1593392
neuron_id = 389, conn_type = 0, conn_attribute = 1589296
neuron_id = 388, conn_type = 0, conn_attribute = 1585200
neuron_id = 387, conn_type = 0, conn_attribute = 1581104
neuron_id = 386, conn_type = 0, conn_attribute = 1577008
neuron_id = 385, conn_type = 0, conn_attribute = 1572912
neuron_id = 383, conn_type = 0, conn_attribute = 1564720
neuron_id = 382, conn_type = 0, conn_attribute = 1560624
neuron_id = 381, conn_type = 0, conn_attribute = 1556528
neuron_id = 380, conn_type = 0, conn_attribute = 1552432
neuron_id = 379, conn_type = 0, conn_attribute = 1548336
neuron_id = 378, conn_type = 0, conn_attribute = 1544240
neuron_id = 377, conn_type = 0, conn_attribute = 1540144
neuron_id = 376, conn_type = 0, conn_attribute = 1536048
neuron_id = 375, conn_type = 0, conn_attribute = 1531952
neuron_id = 374, conn_type = 0, conn_attribute = 1527856
neuron_id = 373, conn_type = 0, conn_attribute = 1523760
neuron_id = 372, conn_type = 0, conn_attribute = 1519664
neuron_id = 371, conn_type = 0, conn_attribute = 1515568
neuron_id = 370, conn_type = 0, conn_attribute = 1511472
neuron_id = 369, conn_type = 0, conn_attribute = 1507376
neuron_id = 368, conn_type = 0, conn_attribute = 1503280
neuron_id = 367, conn_type = 0, conn_attribute = 1499184
neuron_id = 366, conn_type = 0, conn_attribute = 1495088
neuron_id = 365, conn_type = 0, conn_attribute = 1490992
neuron_id = 364, conn_type = 0, conn_attribute = 1486896
neuron_id = 363, conn_type = 0, conn_attribute = 1482800
neuron_id = 362, conn_type = 0, conn_attribute = 1478704
neuron_id = 361, conn_type = 0, conn_attribute = 1474608
neuron_id = 360, conn_type = 0, conn_attribute = 1470512
neuron_id = 359, conn_type = 0, conn_attribute = 1466416
neuron_id = 358, conn_type = 0, conn_attribute = 1462320
neuron_id = 357, conn_type = 0, conn_attribute = 1458224
neuron_id = 356, conn_type = 0, conn_attribute = 1454128
neuron_id = 355, conn_type = 0, conn_attribute = 1450032
neuron_id = 354, conn_type = 0, conn_attribute = 1445936
neuron_id = 353, conn_type = 0, conn_attribute = 1441840
neuron_id = 351, conn_type = 0, conn_attribute = 1433648
neuron_id = 350, conn_type = 0, conn_attribute = 1429552
neuron_id = 349, conn_type = 0, conn_attribute = 1425456
neuron_id = 348, conn_type = 0, conn_attribute = 1421360
neuron_id = 347, conn_type = 0, conn_attribute = 1417264
neuron_id = 346, conn_type = 0, conn_attribute = 1413168
neuron_id = 345, conn_type = 0, conn_attribute = 1409072
neuron_id = 344, conn_type = 0, conn_attribute = 1404976
neuron_id = 343, conn_type = 0, conn_attribute = 1400880
neuron_id = 342, conn_type = 0, conn_attribute = 1396784
neuron_id = 341, conn_type = 0, conn_attribute = 1392688
neuron_id = 340, conn_type = 0, conn_attribute = 1388592
neuron_id = 339, conn_type = 0, conn_attribute = 1384496
neuron_id = 338, conn_type = 0, conn_attribute = 1380400
neuron_id = 337, conn_type = 0, conn_attribute = 1376304
neuron_id = 336, conn_type = 0, conn_attribute = 1372208
neuron_id = 335, conn_type = 0, conn_attribute = 1368112
neuron_id = 334, conn_type = 0, conn_attribute = 1364016
neuron_id = 333, conn_type = 0, conn_attribute = 1359920
neuron_id = 332, conn_type = 0, conn_attribute = 1355824
neuron_id = 331, conn_type = 0, conn_attribute = 1351728
neuron_id = 330, conn_type = 0, conn_attribute = 1347632
neuron_id = 329, conn_type = 0, conn_attribute = 1343536
neuron_id = 328, conn_type = 0, conn_attribute = 1339440
neuron_id = 327, conn_type = 0, conn_attribute = 1335344
neuron_id = 326, conn_type = 0, conn_attribute = 1331248
neuron_id = 325, conn_type = 0, conn_attribute = 1327152
neuron_id = 324, conn_type = 0, conn_attribute = 1323056
neuron_id = 323, conn_type = 0, conn_attribute = 1318960
neuron_id = 322, conn_type = 0, conn_attribute = 1314864
neuron_id = 321, conn_type = 0, conn_attribute = 1310768
neuron_id = 319, conn_type = 0, conn_attribute = 1302576
neuron_id = 318, conn_type = 0, conn_attribute = 1298480
neuron_id = 317, conn_type = 0, conn_attribute = 1294384
neuron_id = 316, conn_type = 0, conn_attribute = 1290288
neuron_id = 315, conn_type = 0, conn_attribute = 1286192
neuron_id = 314, conn_type = 0, conn_attribute = 1282096
neuron_id = 313, conn_type = 0, conn_attribute = 1278000
neuron_id = 312, conn_type = 0, conn_attribute = 1273904
neuron_id = 311, conn_type = 0, conn_attribute = 1269808
neuron_id = 310, conn_type = 0, conn_attribute = 1265712
neuron_id = 309, conn_type = 0, conn_attribute = 1261616
neuron_id = 308, conn_type = 0, conn_attribute = 1257520
neuron_id = 307, conn_type = 0, conn_attribute = 1253424
neuron_id = 306, conn_type = 0, conn_attribute = 1249328
neuron_id = 305, conn_type = 0, conn_attribute = 1245232
neuron_id = 304, conn_type = 0, conn_attribute = 1241136
neuron_id = 303, conn_type = 0, conn_attribute = 1237040
neuron_id = 302, conn_type = 0, conn_attribute = 1232944
neuron_id = 301, conn_type = 0, conn_attribute = 1228848
neuron_id = 300, conn_type = 0, conn_attribute = 1224752
neuron_id = 299, conn_type = 0, conn_attribute = 1220656
neuron_id = 298, conn_type = 0, conn_attribute = 1216560
neuron_id = 297, conn_type = 0, conn_attribute = 1212464
neuron_id = 296, conn_type = 0, conn_attribute = 1208368
neuron_id = 295, conn_type = 0, conn_attribute = 1204272
neuron_id = 294, conn_type = 0, conn_attribute = 1200176
neuron_id = 293, conn_type = 0, conn_attribute = 1196080
neuron_id = 292, conn_type = 0, conn_attribute = 1191984
neuron_id = 291, conn_type = 0, conn_attribute = 1187888
neuron_id = 290, conn_type = 0, conn_attribute = 1183792
neuron_id = 289, conn_type = 0, conn_attribute = 1179696
neuron_id = 287, conn_type = 0, conn_attribute = 1171504
neuron_id = 286, conn_type = 0, conn_attribute = 1167408
neuron_id = 285, conn_type = 0, conn_attribute = 1163312
neuron_id = 284, conn_type = 0, conn_attribute = 1159216
neuron_id = 283, conn_type = 0, conn_attribute = 1155120
neuron_id = 282, conn_type = 0, conn_attribute = 1151024
neuron_id = 281, conn_type = 0, conn_attribute = 1146928
neuron_id = 280, conn_type = 0, conn_attribute = 1142832
neuron_id = 279, conn_type = 0, conn_attribute = 1138736
neuron_id = 278, conn_type = 0, conn_attribute = 1134640
neuron_id = 277, conn_type = 0, conn_attribute = 1130544
neuron_id = 276, conn_type = 0, conn_attribute = 1126448
neuron_id = 275, conn_type = 0, conn_attribute = 1122352
neuron_id = 274, conn_type = 0, conn_attribute = 1118256
neuron_id = 273, conn_type = 0, conn_attribute = 1114160
neuron_id = 272, conn_type = 0, conn_attribute = 1110064
neuron_id = 271, conn_type = 0, conn_attribute = 1105968
neuron_id = 270, conn_type = 0, conn_attribute = 1101872
neuron_id = 269, conn_type = 0, conn_attribute = 1097776
neuron_id = 268, conn_type = 0, conn_attribute = 1093680
neuron_id = 267, conn_type = 0, conn_attribute = 1089584
neuron_id = 266, conn_type = 0, conn_attribute = 1085488
neuron_id = 265, conn_type = 0, conn_attribute = 1081392
neuron_id = 264, conn_type = 0, conn_attribute = 1077296
neuron_id = 263, conn_type = 0, conn_attribute = 1073200
neuron_id = 262, conn_type = 0, conn_attribute = 1069104
neuron_id = 261, conn_type = 0, conn_attribute = 1065008
neuron_id = 260, conn_type = 0, conn_attribute = 1060912
neuron_id = 259, conn_type = 0, conn_attribute = 1056816
neuron_id = 258, conn_type = 0, conn_attribute = 1052720
neuron_id = 257, conn_type = 0, conn_attribute = 1048624
neuron_id = 255, conn_type = 0, conn_attribute = 1040432
neuron_id = 254, conn_type = 0, conn_attribute = 1036336
neuron_id = 253, conn_type = 0, conn_attribute = 1032240
neuron_id = 252, conn_type = 0, conn_attribute = 1028144
neuron_id = 251, conn_type = 0, conn_attribute = 1024048
neuron_id = 250, conn_type = 0, conn_attribute = 1019952
neuron_id = 249, conn_type = 0, conn_attribute = 1015856
neuron_id = 248, conn_type = 0, conn_attribute = 1011760
neuron_id = 247, conn_type = 0, conn_attribute = 1007664
neuron_id = 246, conn_type = 0, conn_attribute = 1003568
neuron_id = 245, conn_type = 0, conn_attribute = 999472
neuron_id = 244, conn_type = 0, conn_attribute = 995376
neuron_id = 243, conn_type = 0, conn_attribute = 991280
neuron_id = 242, conn_type = 0, conn_attribute = 987184
neuron_id = 241, conn_type = 0, conn_attribute = 983088
neuron_id = 240, conn_type = 0, conn_attribute = 978992
neuron_id = 239, conn_type = 0, conn_attribute = 974896
neuron_id = 238, conn_type = 0, conn_attribute = 970800
neuron_id = 237, conn_type = 0, conn_attribute = 966704
neuron_id = 236, conn_type = 0, conn_attribute = 962608
neuron_id = 235, conn_type = 0, conn_attribute = 958512
neuron_id = 234, conn_type = 0, conn_attribute = 954416
neuron_id = 233, conn_type = 0, conn_attribute = 950320
neuron_id = 232, conn_type = 0, conn_attribute = 946224
neuron_id = 231, conn_type = 0, conn_attribute = 942128
neuron_id = 230, conn_type = 0, conn_attribute = 938032
neuron_id = 229, conn_type = 0, conn_attribute = 933936
neuron_id = 228, conn_type = 0, conn_attribute = 929840
neuron_id = 227, conn_type = 0, conn_attribute = 925744
neuron_id = 226, conn_type = 0, conn_attribute = 921648
neuron_id = 225, conn_type = 0, conn_attribute = 917552
neuron_id = 223, conn_type = 0, conn_attribute = 909360
neuron_id = 222, conn_type = 0, conn_attribute = 905264
neuron_id = 221, conn_type = 0, conn_attribute = 901168
neuron_id = 220, conn_type = 0, conn_attribute = 897072
neuron_id = 219, conn_type = 0, conn_attribute = 892976
neuron_id = 218, conn_type = 0, conn_attribute = 888880
neuron_id = 217, conn_type = 0, conn_attribute = 884784
neuron_id = 216, conn_type = 0, conn_attribute = 880688
neuron_id = 215, conn_type = 0, conn_attribute = 876592
neuron_id = 214, conn_type = 0, conn_attribute = 872496
neuron_id = 213, conn_type = 0, conn_attribute = 868400
neuron_id = 212, conn_type = 0, conn_attribute = 864304
neuron_id = 211, conn_type = 0, conn_attribute = 860208
neuron_id = 210, conn_type = 0, conn_attribute = 856112
neuron_id = 209, conn_type = 0, conn_attribute = 852016
neuron_id = 208, conn_type = 0, conn_attribute = 847920
neuron_id = 207, conn_type = 0, conn_attribute = 843824
neuron_id = 206, conn_type = 0, conn_attribute = 839728
neuron_id = 205, conn_type = 0, conn_attribute = 835632
neuron_id = 204, conn_type = 0, conn_attribute = 831536
neuron_id = 203, conn_type = 0, conn_attribute = 827440
neuron_id = 202, conn_type = 0, conn_attribute = 823344
neuron_id = 201, conn_type = 0, conn_attribute = 819248
neuron_id = 200, conn_type = 0, conn_attribute = 815152
neuron_id = 199, conn_type = 0, conn_attribute = 811056
neuron_id = 198, conn_type = 0, conn_attribute = 806960
neuron_id = 197, conn_type = 0, conn_attribute = 802864
neuron_id = 196, conn_type = 0, conn_attribute = 798768
neuron_id = 195, conn_type = 0, conn_attribute = 794672
neuron_id = 194, conn_type = 0, conn_attribute = 790576
neuron_id = 193, conn_type = 0, conn_attribute = 786480
neuron_id = 191, conn_type = 0, conn_attribute = 778288
neuron_id = 190, conn_type = 0, conn_attribute = 774192
neuron_id = 189, conn_type = 0, conn_attribute = 770096
neuron_id = 188, conn_type = 0, conn_attribute = 766000
neuron_id = 187, conn_type = 0, conn_attribute = 761904
neuron_id = 186, conn_type = 0, conn_attribute = 757808
neuron_id = 185, conn_type = 0, conn_attribute = 753712
neuron_id = 184, conn_type = 0, conn_attribute = 749616
neuron_id = 183, conn_type = 0, conn_attribute = 745520
neuron_id = 182, conn_type = 0, conn_attribute = 741424
neuron_id = 181, conn_type = 0, conn_attribute = 737328
neuron_id = 180, conn_type = 0, conn_attribute = 733232
neuron_id = 179, conn_type = 0, conn_attribute = 729136
neuron_id = 178, conn_type = 0, conn_attribute = 725040
neuron_id = 177, conn_type = 0, conn_attribute = 720944
neuron_id = 176, conn_type = 0, conn_attribute = 716848
neuron_id = 175, conn_type = 0, conn_attribute = 712752
neuron_id = 174, conn_type = 0, conn_attribute = 708656
neuron_id = 173, conn_type = 0, conn_attribute = 704560
neuron_id = 172, conn_type = 0, conn_attribute = 700464
neuron_id = 171, conn_type = 0, conn_attribute = 696368
neuron_id = 170, conn_type = 0, conn_attribute = 692272
neuron_id = 169, conn_type = 0, conn_attribute = 688176
neuron_id = 168, conn_type = 0, conn_attribute = 684080
neuron_id = 167, conn_type = 0, conn_attribute = 679984
neuron_id = 166, conn_type = 0, conn_attribute = 675888
neuron_id = 165, conn_type = 0, conn_attribute = 671792
neuron_id = 164, conn_type = 0, conn_attribute = 667696
neuron_id = 163, conn_type = 0, conn_attribute = 663600
neuron_id = 162, conn_type = 0, conn_attribute = 659504
neuron_id = 161, conn_type = 0, conn_attribute = 655408
neuron_id = 159, conn_type = 0, conn_attribute = 647216
neuron_id = 158, conn_type = 0, conn_attribute = 643120
neuron_id = 157, conn_type = 0, conn_attribute = 639024
neuron_id = 156, conn_type = 0, conn_attribute = 634928
neuron_id = 155, conn_type = 0, conn_attribute = 630832
neuron_id = 154, conn_type = 0, conn_attribute = 626736
neuron_id = 153, conn_type = 0, conn_attribute = 622640
neuron_id = 152, conn_type = 0, conn_attribute = 618544
neuron_id = 151, conn_type = 0, conn_attribute = 614448
neuron_id = 150, conn_type = 0, conn_attribute = 610352
neuron_id = 149, conn_type = 0, conn_attribute = 606256
neuron_id = 148, conn_type = 0, conn_attribute = 602160
neuron_id = 147, conn_type = 0, conn_attribute = 598064
neuron_id = 146, conn_type = 0, conn_attribute = 593968
neuron_id = 145, conn_type = 0, conn_attribute = 589872
neuron_id = 144, conn_type = 0, conn_attribute = 585776
neuron_id = 143, conn_type = 0, conn_attribute = 581680
neuron_id = 142, conn_type = 0, conn_attribute = 577584
neuron_id = 141, conn_type = 0, conn_attribute = 573488
neuron_id = 140, conn_type = 0, conn_attribute = 569392
neuron_id = 139, conn_type = 0, conn_attribute = 565296
neuron_id = 138, conn_type = 0, conn_attribute = 561200
neuron_id = 137, conn_type = 0, conn_attribute = 557104
neuron_id = 136, conn_type = 0, conn_attribute = 553008
neuron_id = 135, conn_type = 0, conn_attribute = 548912
neuron_id = 134, conn_type = 0, conn_attribute = 544816
neuron_id = 133, conn_type = 0, conn_attribute = 540720
neuron_id = 132, conn_type = 0, conn_attribute = 536624
neuron_id = 131, conn_type = 0, conn_attribute = 532528
neuron_id = 130, conn_type = 0, conn_attribute = 528432
neuron_id = 129, conn_type = 0, conn_attribute = 524336
neuron_id = 127, conn_type = 0, conn_attribute = 516144
neuron_id = 126, conn_type = 0, conn_attribute = 512048
neuron_id = 125, conn_type = 0, conn_attribute = 507952
neuron_id = 124, conn_type = 0, conn_attribute = 503856
neuron_id = 123, conn_type = 0, conn_attribute = 499760
neuron_id = 122, conn_type = 0, conn_attribute = 495664
neuron_id = 121, conn_type = 0, conn_attribute = 491568
neuron_id = 120, conn_type = 0, conn_attribute = 487472
neuron_id = 119, conn_type = 0, conn_attribute = 483376
neuron_id = 118, conn_type = 0, conn_attribute = 479280
neuron_id = 117, conn_type = 0, conn_attribute = 475184
neuron_id = 116, conn_type = 0, conn_attribute = 471088
neuron_id = 115, conn_type = 0, conn_attribute = 466992
neuron_id = 114, conn_type = 0, conn_attribute = 462896
neuron_id = 113, conn_type = 0, conn_attribute = 458800
neuron_id = 112, conn_type = 0, conn_attribute = 454704
neuron_id = 111, conn_type = 0, conn_attribute = 450608
neuron_id = 110, conn_type = 0, conn_attribute = 446512
neuron_id = 109, conn_type = 0, conn_attribute = 442416
neuron_id = 108, conn_type = 0, conn_attribute = 438320
neuron_id = 107, conn_type = 0, conn_attribute = 434224
neuron_id = 106, conn_type = 0, conn_attribute = 430128
neuron_id = 105, conn_type = 0, conn_attribute = 426032
neuron_id = 104, conn_type = 0, conn_attribute = 421936
neuron_id = 103, conn_type = 0, conn_attribute = 417840
neuron_id = 102, conn_type = 0, conn_attribute = 413744
neuron_id = 101, conn_type = 0, conn_attribute = 409648
neuron_id = 100, conn_type = 0, conn_attribute = 405552
neuron_id = 99, conn_type = 0, conn_attribute = 401456
neuron_id = 98, conn_type = 0, conn_attribute = 397360
neuron_id = 97, conn_type = 0, conn_attribute = 393264
neuron_id = 95, conn_type = 0, conn_attribute = 385072
neuron_id = 94, conn_type = 0, conn_attribute = 380976
neuron_id = 93, conn_type = 0, conn_attribute = 376880
neuron_id = 92, conn_type = 0, conn_attribute = 372784
neuron_id = 91, conn_type = 0, conn_attribute = 368688
neuron_id = 90, conn_type = 0, conn_attribute = 364592
neuron_id = 89, conn_type = 0, conn_attribute = 360496
neuron_id = 88, conn_type = 0, conn_attribute = 356400
neuron_id = 87, conn_type = 0, conn_attribute = 352304
neuron_id = 86, conn_type = 0, conn_attribute = 348208
neuron_id = 85, conn_type = 0, conn_attribute = 344112
neuron_id = 84, conn_type = 0, conn_attribute = 340016
neuron_id = 83, conn_type = 0, conn_attribute = 335920
neuron_id = 82, conn_type = 0, conn_attribute = 331824
neuron_id = 81, conn_type = 0, conn_attribute = 327728
neuron_id = 80, conn_type = 0, conn_attribute = 323632
neuron_id = 79, conn_type = 0, conn_attribute = 319536
neuron_id = 78, conn_type = 0, conn_attribute = 315440
neuron_id = 77, conn_type = 0, conn_attribute = 311344
neuron_id = 76, conn_type = 0, conn_attribute = 307248
neuron_id = 75, conn_type = 0, conn_attribute = 303152
neuron_id = 74, conn_type = 0, conn_attribute = 299056
neuron_id = 73, conn_type = 0, conn_attribute = 294960
neuron_id = 72, conn_type = 0, conn_attribute = 290864
neuron_id = 71, conn_type = 0, conn_attribute = 286768
neuron_id = 70, conn_type = 0, conn_attribute = 282672
neuron_id = 69, conn_type = 0, conn_attribute = 278576
neuron_id = 68, conn_type = 0, conn_attribute = 274480
neuron_id = 67, conn_type = 0, conn_attribute = 270384
neuron_id = 66, conn_type = 0, conn_attribute = 266288
neuron_id = 65, conn_type = 0, conn_attribute = 262192
neuron_id = 63, conn_type = 0, conn_attribute = 254000
neuron_id = 62, conn_type = 0, conn_attribute = 249904
neuron_id = 61, conn_type = 0, conn_attribute = 245808
neuron_id = 60, conn_type = 0, conn_attribute = 241712
neuron_id = 59, conn_type = 0, conn_attribute = 237616
neuron_id = 58, conn_type = 0, conn_attribute = 233520
neuron_id = 57, conn_type = 0, conn_attribute = 229424
neuron_id = 56, conn_type = 0, conn_attribute = 225328
neuron_id = 55, conn_type = 0, conn_attribute = 221232
neuron_id = 54, conn_type = 0, conn_attribute = 217136
neuron_id = 53, conn_type = 0, conn_attribute = 213040
neuron_id = 52, conn_type = 0, conn_attribute = 208944
neuron_id = 51, conn_type = 0, conn_attribute = 204848
neuron_id = 50, conn_type = 0, conn_attribute = 200752
neuron_id = 49, conn_type = 0, conn_attribute = 196656
neuron_id = 48, conn_type = 0, conn_attribute = 192560
neuron_id = 47, conn_type = 0, conn_attribute = 188464
neuron_id = 46, conn_type = 0, conn_attribute = 184368
neuron_id = 45, conn_type = 0, conn_attribute = 180272
neuron_id = 44, conn_type = 0, conn_attribute = 176176
neuron_id = 43, conn_type = 0, conn_attribute = 172080
neuron_id = 42, conn_type = 0, conn_attribute = 167984
neuron_id = 41, conn_type = 0, conn_attribute = 163888
neuron_id = 40, conn_type = 0, conn_attribute = 159792
neuron_id = 39, conn_type = 0, conn_attribute = 155696
neuron_id = 38, conn_type = 0, conn_attribute = 151600
neuron_id = 37, conn_type = 0, conn_attribute = 147504
neuron_id = 36, conn_type = 0, conn_attribute = 143408
neuron_id = 35, conn_type = 0, conn_attribute = 139312
neuron_id = 34, conn_type = 0, conn_attribute = 135216
neuron_id = 33, conn_type = 0, conn_attribute = 131120
neuron_id = 31, conn_type = 0, conn_attribute = 122928
neuron_id = 30, conn_type = 0, conn_attribute = 118832
neuron_id = 29, conn_type = 0, conn_attribute = 114736
neuron_id = 28, conn_type = 0, conn_attribute = 110640
neuron_id = 27, conn_type = 0, conn_attribute = 106544
neuron_id = 26, conn_type = 0, conn_attribute = 102448
neuron_id = 25, conn_type = 0, conn_attribute = 98352
neuron_id = 24, conn_type = 0, conn_attribute = 94256
neuron_id = 23, conn_type = 0, conn_attribute = 90160
neuron_id = 22, conn_type = 0, conn_attribute = 86064
neuron_id = 21, conn_type = 0, conn_attribute = 81968
neuron_id = 20, conn_type = 0, conn_attribute = 77872
neuron_id = 19, conn_type = 0, conn_attribute = 73776
neuron_id = 18, conn_type = 0, conn_attribute = 69680
neuron_id = 17, conn_type = 0, conn_attribute = 65584
neuron_id = 16, conn_type = 0, conn_attribute = 61488
neuron_id = 15, conn_type = 0, conn_attribute = 57392
neuron_id = 14, conn_type = 0, conn_attribute = 53296
neuron_id = 13, conn_type = 0, conn_attribute = 49200
neuron_id = 12, conn_type = 0, conn_attribute = 45104
neuron_id = 11, conn_type = 0, conn_attribute = 41008
neuron_id = 10, conn_type = 0, conn_attribute = 36912
neuron_id = 9, conn_type = 0, conn_attribute = 32816
neuron_id = 8, conn_type = 0, conn_attribute = 28720
neuron_id = 7, conn_type = 0, conn_attribute = 24624
neuron_id = 6, conn_type = 0, conn_attribute = 20528
neuron_id = 5, conn_type = 0, conn_attribute = 16432
neuron_id = 4, conn_type = 0, conn_attribute = 12336
neuron_id = 3, conn_type = 0, conn_attribute = 8240
neuron_id = 2, conn_type = 0, conn_attribute = 4144
neuron_id = 1, conn_type = 0, conn_attribute = 48
neuron_id = 576, conn_type = 2, conn_attribute = 2359300
neuron_id = 577, conn_type = 2, conn_attribute = 2363396
neuron_id = 578, conn_type = 0, conn_attribute = 97
