synapse_addr = 0, relative_dest_cl_id = -17, relative_dest_neu_id = 447, conn_attr = 640, continue = 1
synapse_addr = 1, relative_dest_cl_id = -16, relative_dest_neu_id = 447, conn_attr = 640, continue = 1
synapse_addr = 2, relative_dest_cl_id = -15, relative_dest_neu_id = 447, conn_attr = 640, continue = 1
synapse_addr = 3, relative_dest_cl_id = -14, relative_dest_neu_id = 447, conn_attr = 640, continue = 1
synapse_addr = 4, relative_dest_cl_id = -13, relative_dest_neu_id = 447, conn_attr = 640, continue = 1
synapse_addr = 5, relative_dest_cl_id = -12, relative_dest_neu_id = 447, conn_attr = 640, continue = 1
synapse_addr = 6, relative_dest_cl_id = -11, relative_dest_neu_id = 447, conn_attr = 640, continue = 1
synapse_addr = 7, relative_dest_cl_id = -10, relative_dest_neu_id = 447, conn_attr = 640, continue = 1
synapse_addr = 8, relative_dest_cl_id = -9, relative_dest_neu_id = 447, conn_attr = 640, continue = 1
synapse_addr = 9, relative_dest_cl_id = -8, relative_dest_neu_id = 447, conn_attr = 640, continue = 0
synapse_addr = 10, relative_dest_cl_id = -7, relative_dest_neu_id = 447, conn_attr = 640, continue = 0
synapse_addr = 11, relative_dest_cl_id = -4, relative_dest_neu_id = 447, conn_attr = 640, continue = 0
synapse_addr = 12, relative_dest_cl_id = -17, relative_dest_neu_id = 416, conn_attr = 512, continue = 1
synapse_addr = 13, relative_dest_cl_id = -16, relative_dest_neu_id = 416, conn_attr = 512, continue = 1
synapse_addr = 14, relative_dest_cl_id = -15, relative_dest_neu_id = 416, conn_attr = 512, continue = 1
synapse_addr = 15, relative_dest_cl_id = -14, relative_dest_neu_id = 416, conn_attr = 512, continue = 1
synapse_addr = 16, relative_dest_cl_id = -13, relative_dest_neu_id = 416, conn_attr = 512, continue = 1
synapse_addr = 17, relative_dest_cl_id = -12, relative_dest_neu_id = 416, conn_attr = 512, continue = 1
synapse_addr = 18, relative_dest_cl_id = -11, relative_dest_neu_id = 416, conn_attr = 512, continue = 1
synapse_addr = 19, relative_dest_cl_id = -10, relative_dest_neu_id = 416, conn_attr = 512, continue = 1
synapse_addr = 20, relative_dest_cl_id = -9, relative_dest_neu_id = 416, conn_attr = 512, continue = 1
synapse_addr = 21, relative_dest_cl_id = -8, relative_dest_neu_id = 416, conn_attr = 512, continue = 0
synapse_addr = 22, relative_dest_cl_id = -7, relative_dest_neu_id = 416, conn_attr = 512, continue = 0
synapse_addr = 23, relative_dest_cl_id = -4, relative_dest_neu_id = 416, conn_attr = 512, continue = 0
synapse_addr = 24, relative_dest_cl_id = -18, relative_dest_neu_id = 256, conn_attr = 544, continue = 0
